\relax 
\citation{rotacloud}
\@writefile{toc}{\contentsline {section}{\numberline {1}Introduction}{1}\protected@file@percent }
\@writefile{toc}{\contentsline {section}{\numberline {2}Aims, Objectives and Delievarables}{1}\protected@file@percent }
\@writefile{toc}{\contentsline {subsection}{\numberline {2.1}Project Aims}{1}\protected@file@percent }
\@writefile{toc}{\contentsline {subsection}{\numberline {2.2}Objectives}{1}\protected@file@percent }
\@writefile{toc}{\contentsline {subsection}{\numberline {2.3}Deliverables}{1}\protected@file@percent }
\citation{galeShapely}
\citation{constraintSatisfation}
\@writefile{toc}{\contentsline {section}{\numberline {3}Project Plan}{2}\protected@file@percent }
\@writefile{toc}{\contentsline {subsection}{\numberline {3.1}Timeline}{3}\protected@file@percent }
\@writefile{lof}{\contentsline {figure}{\numberline {1}{\ignorespaces Project plan gantt chart made with Teamgantt}}{3}\protected@file@percent }
\@writefile{toc}{\contentsline {section}{\numberline {4}Risk Mitigation}{3}\protected@file@percent }
\citation{gdpr}
\@writefile{toc}{\contentsline {section}{\numberline {5}Ethics}{4}\protected@file@percent }
\@setckpt{mainText}{
\setcounter{page}{5}
\setcounter{equation}{0}
\setcounter{enumi}{4}
\setcounter{enumii}{0}
\setcounter{enumiii}{0}
\setcounter{enumiv}{0}
\setcounter{footnote}{0}
\setcounter{mpfootnote}{0}
\setcounter{part}{0}
\setcounter{section}{5}
\setcounter{subsection}{0}
\setcounter{subsubsection}{0}
\setcounter{paragraph}{0}
\setcounter{subparagraph}{0}
\setcounter{figure}{1}
\setcounter{table}{0}
\setcounter{@pps}{0}
\setcounter{@ppsavesec}{0}
\setcounter{@ppsaveapp}{0}
}
