\relax 
\bibstyle{abbrv}
\providecommand \oddpage@label [2]{}
\@input{mainText.aux}
\bibdata{refs}
\bibcite{gdpr}{1}
\bibcite{galeShapely}{2}
\bibcite{rotacloud}{3}
\bibcite{constraintSatisfation}{4}
\@writefile{toc}{\contentsline {chapter}{References}{5}\protected@file@percent }
