\relax 
\providecommand\hyper@newdestlabel[2]{}
\citation{employee-schedule-kaggle}
\citation{shift-scheduling-dataset}
\citation{CF-matrix-user-adaptive-user}
\citation{CF-matrix-user-adaptive-item}
\citation{astels2003test}
\@writefile{toc}{\contentsline {chapter}{\numberline {4}Results and Evaluation}{23}{chapter.4}\protected@file@percent }
\@writefile{lof}{\addvspace {10\p@ }}
\@writefile{lot}{\addvspace {10\p@ }}
\newlabel{chapter4}{{4}{23}{Results and Evaluation}{chapter.4}{}}
\@writefile{toc}{\contentsline {section}{\numberline {4.1}Unit Testing}{23}{section.4.1}\protected@file@percent }
\@writefile{lof}{\contentsline {figure}{\numberline {4.1}{\ignorespaces Unit testing results and test descriptions\relax }}{23}{figure.caption.51}\protected@file@percent }
\newlabel{fig:unit-testing}{{4.1}{23}{Unit testing results and test descriptions\relax }{figure.caption.51}{}}
\@writefile{toc}{\contentsline {section}{\numberline {4.2}User Evaluation}{23}{section.4.2}\protected@file@percent }
\citation{employee-schedule-kaggle}
\@writefile{toc}{\contentsline {subsection}{\numberline {4.2.1}Participants}{24}{subsection.4.2.1}\protected@file@percent }
\@writefile{toc}{\contentsline {subsection}{\numberline {4.2.2}Procedure}{24}{subsection.4.2.2}\protected@file@percent }
\@writefile{toc}{\contentsline {subsubsection}{Stage 1) Testing the Web Application:}{24}{subsubsection*.52}\protected@file@percent }
\@writefile{toc}{\contentsline {subsubsection}{Stage 2) Testing the Matching Algorithm:}{24}{subsubsection*.53}\protected@file@percent }
\@writefile{lof}{\contentsline {figure}{\numberline {4.2}{\ignorespaces Example shifts split across 3 working days\relax }}{25}{figure.caption.54}\protected@file@percent }
\newlabel{fig:example-shifts}{{4.2}{25}{Example shifts split across 3 working days\relax }{figure.caption.54}{}}
\@writefile{toc}{\contentsline {subsubsection}{Stage 3) Testing CF Methods:}{25}{subsubsection*.55}\protected@file@percent }
\@writefile{lof}{\contentsline {figure}{\numberline {4.3}{\ignorespaces 8 unique shifts from 3 working days\relax }}{25}{figure.caption.56}\protected@file@percent }
\newlabel{fig:unique-shifts}{{4.3}{25}{8 unique shifts from 3 working days\relax }{figure.caption.56}{}}
\@writefile{toc}{\contentsline {subsection}{\numberline {4.2.3}Results}{25}{subsection.4.2.3}\protected@file@percent }
\@writefile{toc}{\contentsline {subsubsection}{Web Application Usability Results:}{25}{subsubsection*.57}\protected@file@percent }
\@writefile{lof}{\contentsline {figure}{\numberline {4.4}{\ignorespaces Rating difficulty of performing 8 tasks on the web application\relax }}{26}{figure.caption.58}\protected@file@percent }
\newlabel{fig:rate-difficulty}{{4.4}{26}{Rating difficulty of performing 8 tasks on the web application\relax }{figure.caption.58}{}}
\citation{bhattacharya2015probabilistic}
\citation{memory-based-comparison}
\@writefile{toc}{\contentsline {subsubsection}{Modified Gale-Shapely Results with no Predictions:}{27}{subsubsection*.59}\protected@file@percent }
\@writefile{lof}{\contentsline {figure}{\numberline {4.5}{\ignorespaces Correct matchings over a number of days for different participants\relax }}{27}{figure.caption.60}\protected@file@percent }
\newlabel{fig:modified-gale-shapely-no-predictions}{{4.5}{27}{Correct matchings over a number of days for different participants\relax }{figure.caption.60}{}}
\@writefile{lof}{\contentsline {figure}{\numberline {4.6}{\ignorespaces Average correct matchings (accuracy) for each iteration\relax }}{27}{figure.caption.61}\protected@file@percent }
\newlabel{fig:modified-gale-shapely-no-predictions-average}{{4.6}{27}{Average correct matchings (accuracy) for each iteration\relax }{figure.caption.61}{}}
\@writefile{toc}{\contentsline {subsubsection}{CF method choice:}{27}{subsubsection*.62}\protected@file@percent }
\@writefile{lof}{\contentsline {figure}{\numberline {4.7}{\ignorespaces user-user and item-item comparison results for different CF methods\relax }}{28}{figure.caption.63}\protected@file@percent }
\newlabel{fig:CF-comparison-results}{{4.7}{28}{user-user and item-item comparison results for different CF methods\relax }{figure.caption.63}{}}
\@writefile{toc}{\contentsline {subsubsection}{Modified Gale-Shapely Results with Predictions:}{28}{subsubsection*.64}\protected@file@percent }
\@writefile{lof}{\contentsline {figure}{\numberline {4.8}{\ignorespaces Comparison of average correct matchings over a number of days and iterations for no-predictions and predictions\relax }}{28}{figure.caption.65}\protected@file@percent }
\newlabel{fig:modified-gale-shapely-average-predictions}{{4.8}{28}{Comparison of average correct matchings over a number of days and iterations for no-predictions and predictions\relax }{figure.caption.65}{}}
\@setckpt{chapters/chapter3}{
\setcounter{page}{29}
\setcounter{equation}{0}
\setcounter{enumi}{4}
\setcounter{enumii}{0}
\setcounter{enumiii}{0}
\setcounter{enumiv}{0}
\setcounter{footnote}{0}
\setcounter{mpfootnote}{0}
\setcounter{part}{0}
\setcounter{chapter}{4}
\setcounter{section}{2}
\setcounter{subsection}{3}
\setcounter{subsubsection}{0}
\setcounter{paragraph}{0}
\setcounter{subparagraph}{0}
\setcounter{figure}{8}
\setcounter{table}{0}
\setcounter{@pps}{0}
\setcounter{@ppsavesec}{0}
\setcounter{@ppsaveapp}{0}
\setcounter{parentequation}{0}
\setcounter{float@type}{16}
\setcounter{algorithm}{3}
\setcounter{ALG@line}{12}
\setcounter{ALG@rem}{0}
\setcounter{ALG@nested}{0}
\setcounter{ALG@Lnr}{3}
\setcounter{ALG@blocknr}{17}
\setcounter{ALG@storecount}{0}
\setcounter{ALG@tmpcounter}{0}
\setcounter{caption@flags}{0}
\setcounter{continuedfloat}{0}
\setcounter{subfigure}{0}
\setcounter{subtable}{0}
\setcounter{r@tfl@t}{0}
\setcounter{lstnumber}{3}
\setcounter{Item}{11}
\setcounter{Hfootnote}{0}
\setcounter{bookmark@seq@number}{35}
\setcounter{lstlisting}{0}
\setcounter{section@level}{0}
}
