\relax 
\providecommand\hyper@newdestlabel[2]{}
\@writefile{toc}{\contentsline {chapter}{\numberline {4}Designing an Experiment}{23}{chapter.4}\protected@file@percent }
\@writefile{lof}{\addvspace {10\p@ }}
\@writefile{lot}{\addvspace {10\p@ }}
\newlabel{chapter4}{{4}{23}{Designing an Experiment}{chapter.4}{}}
\@writefile{toc}{\contentsline {section}{\numberline {4.1}Unit Testing}{23}{section.4.1}\protected@file@percent }
\@writefile{toc}{\contentsline {section}{\numberline {4.2}User Testing}{23}{section.4.2}\protected@file@percent }
\@writefile{toc}{\contentsline {subsection}{\numberline {4.2.1}Testing the Web Application}{23}{subsection.4.2.1}\protected@file@percent }
\@writefile{toc}{\contentsline {subsubsection}{Data Protection:}{23}{subsubsection*.49}\protected@file@percent }
\@writefile{toc}{\contentsline {subsection}{\numberline {4.2.2}Testing the Matching Algorithm}{24}{subsection.4.2.2}\protected@file@percent }
\@writefile{lof}{\contentsline {figure}{\numberline {4.1}{\ignorespaces Example shifts split across 3 working days\relax }}{24}{figure.caption.50}\protected@file@percent }
\newlabel{fig:example-shifts}{{4.1}{24}{Example shifts split across 3 working days\relax }{figure.caption.50}{}}
\@writefile{toc}{\contentsline {subsection}{\numberline {4.2.3}Test CF methods}{24}{subsection.4.2.3}\protected@file@percent }
\@writefile{lof}{\contentsline {figure}{\numberline {4.2}{\ignorespaces 8 unique shifts from 3 working days\relax }}{24}{figure.caption.51}\protected@file@percent }
\newlabel{fig:unique-shifts}{{4.2}{24}{8 unique shifts from 3 working days\relax }{figure.caption.51}{}}
\@setckpt{chapters/chapter6}{
\setcounter{page}{25}
\setcounter{equation}{0}
\setcounter{enumi}{4}
\setcounter{enumii}{0}
\setcounter{enumiii}{0}
\setcounter{enumiv}{0}
\setcounter{footnote}{0}
\setcounter{mpfootnote}{0}
\setcounter{part}{0}
\setcounter{chapter}{4}
\setcounter{section}{2}
\setcounter{subsection}{3}
\setcounter{subsubsection}{0}
\setcounter{paragraph}{0}
\setcounter{subparagraph}{0}
\setcounter{figure}{2}
\setcounter{table}{0}
\setcounter{@pps}{0}
\setcounter{@ppsavesec}{0}
\setcounter{@ppsaveapp}{0}
\setcounter{parentequation}{0}
\setcounter{float@type}{16}
\setcounter{algorithm}{3}
\setcounter{ALG@line}{12}
\setcounter{ALG@rem}{0}
\setcounter{ALG@nested}{0}
\setcounter{ALG@Lnr}{3}
\setcounter{ALG@blocknr}{17}
\setcounter{ALG@storecount}{0}
\setcounter{ALG@tmpcounter}{0}
\setcounter{caption@flags}{0}
\setcounter{ContinuedFloat}{0}
\setcounter{subfigure}{0}
\setcounter{subtable}{0}
\setcounter{r@tfl@t}{0}
\setcounter{lstnumber}{3}
\setcounter{Item}{11}
\setcounter{Hfootnote}{0}
\setcounter{bookmark@seq@number}{33}
\setcounter{lstlisting}{0}
\setcounter{section@level}{0}
}
