\relax 
\providecommand\hyper@newdestlabel[2]{}
\@writefile{toc}{\contentsline {chapter}{\numberline {3}Implementing the Web Application}{15}{chapter.3}\protected@file@percent }
\@writefile{lof}{\addvspace {10\p@ }}
\@writefile{lot}{\addvspace {10\p@ }}
\newlabel{chapter3}{{3}{15}{Implementing the Web Application}{chapter.3}{}}
\@writefile{toc}{\contentsline {section}{\numberline {3.1}System Architecture}{15}{section.3.1}\protected@file@percent }
\@writefile{toc}{\contentsline {subsubsection}{System Goals:}{15}{subsubsection*.31}\protected@file@percent }
\@writefile{lof}{\contentsline {figure}{\numberline {3.1}{\ignorespaces UCD for the software application.\relax }}{15}{figure.caption.32}\protected@file@percent }
\newlabel{UCD}{{3.1}{15}{UCD for the software application.\relax }{figure.caption.32}{}}
\@writefile{toc}{\contentsline {subsection}{\numberline {3.1.1}Designing a Database:}{15}{subsection.3.1.1}\protected@file@percent }
\citation{kent1983simple}
\@writefile{toc}{\contentsline {subsection}{\numberline {3.1.2}Software Structure}{16}{subsection.3.1.2}\protected@file@percent }
\@writefile{toc}{\contentsline {subsubsection}{File Structure:}{17}{subsubsection*.33}\protected@file@percent }
\@writefile{toc}{\contentsline {section}{\numberline {3.2}Implementation}{17}{section.3.2}\protected@file@percent }
\@writefile{toc}{\contentsline {subsection}{\numberline {3.2.1}Version Control}{17}{subsection.3.2.1}\protected@file@percent }
\@writefile{lof}{\contentsline {figure}{\numberline {3.2}{\ignorespaces Git commit history during the project timeline.\relax }}{17}{figure.caption.34}\protected@file@percent }
\newlabel{git-commit}{{3.2}{17}{Git commit history during the project timeline.\relax }{figure.caption.34}{}}
\citation{li2011design}
\citation{keith2009object}
\@writefile{toc}{\contentsline {subsection}{\numberline {3.2.2}Back-end Implementation}{18}{subsection.3.2.2}\protected@file@percent }
\@writefile{toc}{\contentsline {subsubsection}{Languages and Libraries Used:}{18}{subsubsection*.35}\protected@file@percent }
\@writefile{toc}{\contentsline {subsubsection}{Code Structure:}{18}{subsubsection*.36}\protected@file@percent }
\@writefile{toc}{\contentsline {subsubsection}{A REST API:}{18}{subsubsection*.37}\protected@file@percent }
\@writefile{toc}{\contentsline {subsubsection}{Distinguishing Users:}{18}{subsubsection*.38}\protected@file@percent }
\citation{gilbert2003security}
\@writefile{toc}{\contentsline {subsubsection}{Securing the Application:}{19}{subsubsection*.39}\protected@file@percent }
\@writefile{toc}{\contentsline {subsection}{\numberline {3.2.3}Front-end (client) Implementation}{19}{subsection.3.2.3}\protected@file@percent }
\@writefile{toc}{\contentsline {subsubsection}{Languages and Libraries Used:}{19}{subsubsection*.40}\protected@file@percent }
\@writefile{toc}{\contentsline {subsubsection}{Code Structure:}{19}{subsubsection*.41}\protected@file@percent }
\@writefile{toc}{\contentsline {subsubsection}{Implemented Views:}{19}{subsubsection*.42}\protected@file@percent }
\@writefile{toc}{\contentsline {subsubsection}{Distinguishing Employees:}{20}{subsubsection*.43}\protected@file@percent }
\citation{oliphant2006guide}
\citation{adjusted-cosine-similarity}
\@writefile{toc}{\contentsline {subsection}{\numberline {3.2.4}Algorithm's Implementation}{21}{subsection.3.2.4}\protected@file@percent }
\@writefile{toc}{\contentsline {subsubsection}{Languages and Libraries Used:}{21}{subsubsection*.44}\protected@file@percent }
\@writefile{toc}{\contentsline {subsubsection}{Modified Gale Shapely:}{21}{subsubsection*.45}\protected@file@percent }
\@writefile{toc}{\contentsline {subsubsection}{Collaborative Filtering (CF):}{21}{subsubsection*.47}\protected@file@percent }
\newlabel{fig:days-shift-preferences}{{3.3a}{22}{Employee shift preferences\relax }{figure.caption.46}{}}
\newlabel{sub@fig:days-shift-preferences}{{a}{22}{Employee shift preferences\relax }{figure.caption.46}{}}
\newlabel{fig:days-shift-matchings}{{3.3b}{22}{Employee-shift matchings\relax }{figure.caption.46}{}}
\newlabel{sub@fig:days-shift-matchings}{{b}{22}{Employee-shift matchings\relax }{figure.caption.46}{}}
\@writefile{lof}{\contentsline {figure}{\numberline {3.3}{\ignorespaces Storing preferences and matchings for some operating days of the week\relax }}{22}{figure.caption.46}\protected@file@percent }
\newlabel{fig:storing-days}{{3.3}{22}{Storing preferences and matchings for some operating days of the week\relax }{figure.caption.46}{}}
\@writefile{lof}{\contentsline {figure}{\numberline {3.4}{\ignorespaces Cosine similarity and weighted sum algorithms implementation\relax }}{22}{figure.caption.48}\protected@file@percent }
\newlabel{fig:cosine-weighted}{{3.4}{22}{Cosine similarity and weighted sum algorithms implementation\relax }{figure.caption.48}{}}
\@writefile{lof}{\contentsline {figure}{\numberline {3.5}{\ignorespaces Adjusted cosine similarity taking averages\relax }}{22}{figure.caption.49}\protected@file@percent }
\newlabel{fig:adjusted-cosine}{{3.5}{22}{Adjusted cosine similarity taking averages\relax }{figure.caption.49}{}}
\@writefile{toc}{\contentsline {subsubsection}{A FastApi:}{22}{subsubsection*.50}\protected@file@percent }
\@setckpt{chapters/chapter5}{
\setcounter{page}{23}
\setcounter{equation}{0}
\setcounter{enumi}{4}
\setcounter{enumii}{0}
\setcounter{enumiii}{0}
\setcounter{enumiv}{0}
\setcounter{footnote}{0}
\setcounter{mpfootnote}{0}
\setcounter{part}{0}
\setcounter{chapter}{3}
\setcounter{section}{2}
\setcounter{subsection}{4}
\setcounter{subsubsection}{0}
\setcounter{paragraph}{0}
\setcounter{subparagraph}{0}
\setcounter{figure}{5}
\setcounter{table}{0}
\setcounter{@pps}{0}
\setcounter{@ppsavesec}{0}
\setcounter{@ppsaveapp}{0}
\setcounter{parentequation}{0}
\setcounter{float@type}{16}
\setcounter{algorithm}{3}
\setcounter{ALG@line}{12}
\setcounter{ALG@rem}{0}
\setcounter{ALG@nested}{0}
\setcounter{ALG@Lnr}{3}
\setcounter{ALG@blocknr}{17}
\setcounter{ALG@storecount}{0}
\setcounter{ALG@tmpcounter}{0}
\setcounter{caption@flags}{0}
\setcounter{continuedfloat}{0}
\setcounter{subfigure}{0}
\setcounter{subtable}{0}
\setcounter{r@tfl@t}{0}
\setcounter{lstnumber}{3}
\setcounter{Item}{11}
\setcounter{Hfootnote}{0}
\setcounter{bookmark@seq@number}{29}
\setcounter{lstlisting}{0}
\setcounter{section@level}{0}
}
