\relax 
\providecommand\hyper@newdestlabel[2]{}
\citation{gale-shapely}
\@writefile{toc}{\contentsline {chapter}{\numberline {5}Discussion and Conclusion}{29}{chapter.5}\protected@file@percent }
\@writefile{lof}{\addvspace {10\p@ }}
\@writefile{lot}{\addvspace {10\p@ }}
\newlabel{chapter6}{{5}{29}{Discussion and Conclusion}{chapter.5}{}}
\@writefile{toc}{\contentsline {section}{\numberline {5.1}Problems with the Experiment}{29}{section.5.1}\protected@file@percent }
\@writefile{toc}{\contentsline {section}{\numberline {5.2}Conclusions}{29}{section.5.2}\protected@file@percent }
\@writefile{toc}{\contentsline {subsection}{\numberline {5.2.1}Web Application Reflection}{29}{subsection.5.2.1}\protected@file@percent }
\@writefile{toc}{\contentsline {subsection}{\numberline {5.2.2}Shift Schedule Reflection}{29}{subsection.5.2.2}\protected@file@percent }
\@writefile{toc}{\contentsline {section}{\numberline {5.3}Ideas for future work}{30}{section.5.3}\protected@file@percent }
\@writefile{toc}{\contentsline {subsubsection}{Fine-tuning:}{30}{subsubsection*.66}\protected@file@percent }
\@writefile{toc}{\contentsline {subsubsection}{User Interaction}{30}{subsubsection*.67}\protected@file@percent }
\@writefile{toc}{\contentsline {subsubsection}{Analytics}{30}{subsubsection*.68}\protected@file@percent }
\@writefile{toc}{\contentsline {subsubsection}{Mobile Application}{30}{subsubsection*.69}\protected@file@percent }
\@setckpt{chapters/chapter4}{
\setcounter{page}{31}
\setcounter{equation}{0}
\setcounter{enumi}{4}
\setcounter{enumii}{0}
\setcounter{enumiii}{0}
\setcounter{enumiv}{0}
\setcounter{footnote}{0}
\setcounter{mpfootnote}{0}
\setcounter{part}{0}
\setcounter{chapter}{5}
\setcounter{section}{3}
\setcounter{subsection}{0}
\setcounter{subsubsection}{0}
\setcounter{paragraph}{0}
\setcounter{subparagraph}{0}
\setcounter{figure}{0}
\setcounter{table}{0}
\setcounter{@pps}{0}
\setcounter{@ppsavesec}{0}
\setcounter{@ppsaveapp}{0}
\setcounter{parentequation}{0}
\setcounter{float@type}{16}
\setcounter{algorithm}{3}
\setcounter{ALG@line}{12}
\setcounter{ALG@rem}{0}
\setcounter{ALG@nested}{0}
\setcounter{ALG@Lnr}{3}
\setcounter{ALG@blocknr}{17}
\setcounter{ALG@storecount}{0}
\setcounter{ALG@tmpcounter}{0}
\setcounter{caption@flags}{0}
\setcounter{continuedfloat}{0}
\setcounter{subfigure}{0}
\setcounter{subtable}{0}
\setcounter{r@tfl@t}{0}
\setcounter{lstnumber}{3}
\setcounter{Item}{11}
\setcounter{Hfootnote}{0}
\setcounter{bookmark@seq@number}{41}
\setcounter{lstlisting}{0}
\setcounter{section@level}{0}
}
