\relax 
\providecommand\hyper@newdestlabel[2]{}
\citation{stable-marriage}
\citation{gale-shapely}
\@writefile{toc}{\contentsline {chapter}{\numberline {2}Designing a Solution}{8}{chapter.2}\protected@file@percent }
\@writefile{lof}{\addvspace {10\p@ }}
\@writefile{lot}{\addvspace {10\p@ }}
\newlabel{chapter2}{{2}{8}{Designing a Solution}{chapter.2}{}}
\@writefile{toc}{\contentsline {section}{\numberline {2.1}Modelling the problem}{8}{section.2.1}\protected@file@percent }
\@writefile{toc}{\contentsline {section}{\numberline {2.2}Creating a Stable Matching}{8}{section.2.2}\protected@file@percent }
\citation{constraint-satisfaction-SM}
\citation{weekly-working-hours}
\citation{rest-breaks}
\@writefile{toc}{\contentsline {subsubsection}{Modelling Preferences:}{9}{subsubsection*.21}\protected@file@percent }
\@writefile{toc}{\contentsline {subsubsection}{Choosing a Proposer:}{9}{subsubsection*.22}\protected@file@percent }
\@writefile{toc}{\contentsline {subsection}{\numberline {2.2.1}Additional Constraints}{9}{subsection.2.2.1}\protected@file@percent }
\citation{flexible-constraint-satisfaction}
\citation{gale-shapely}
\@writefile{toc}{\contentsline {subsection}{\numberline {2.2.2}Modified Gale Shapely}{10}{subsection.2.2.2}\protected@file@percent }
\citation{gale-shapely}
\@writefile{loa}{\contentsline {algorithm}{\numberline {1}{\ignorespaces Modified Gale-Shapely\relax }}{11}{algorithm.1}\protected@file@percent }
\providecommand*\caption@xref[2]{\@setref\relax\@undefined{#1}}
\newlabel{alg:modifiedgaleshapely}{{1}{11}{Modified Gale-Shapely\relax }{algorithm.1}{}}
\@writefile{toc}{\contentsline {section}{\numberline {2.3}Creating a recommendation engine}{11}{section.2.3}\protected@file@percent }
\citation{lika2014facing}
\@writefile{loa}{\contentsline {algorithm}{\numberline {2}{\ignorespaces Check if an employee can work a given shift\relax }}{12}{algorithm.2}\protected@file@percent }
\newlabel{alg:canworkshift}{{2}{12}{Check if an employee can work a given shift\relax }{algorithm.2}{}}
\@writefile{toc}{\contentsline {subsubsection}{Modelling the ratings:}{12}{subsubsection*.23}\protected@file@percent }
\@writefile{lof}{\contentsline {figure}{\numberline {2.1}{\ignorespaces An example employee-shift matrix\relax }}{12}{figure.caption.24}\protected@file@percent }
\newlabel{cf-matrix}{{2.1}{12}{An example employee-shift matrix\relax }{figure.caption.24}{}}
\@writefile{toc}{\contentsline {subsection}{\numberline {2.3.1}Combining ratings}{12}{subsection.2.3.1}\protected@file@percent }
\citation{implicit-collection-techniques}
\citation{memory-based-approach}
\citation{memory-based-approach}
\citation{memory-based-comparison}
\@writefile{loa}{\contentsline {algorithm}{\numberline {3}{\ignorespaces Dynamic approach to gathering preferences\relax }}{13}{algorithm.3}\protected@file@percent }
\newlabel{alg:combiningratings}{{3}{13}{Dynamic approach to gathering preferences\relax }{algorithm.3}{}}
\@writefile{toc}{\contentsline {subsection}{\numberline {2.3.2}Collecting Ratings}{13}{subsection.2.3.2}\protected@file@percent }
\@writefile{toc}{\contentsline {subsubsection}{Rating a Rota / Shift:}{13}{subsubsection*.25}\protected@file@percent }
\@writefile{toc}{\contentsline {subsubsection}{Inferring Ratings:}{13}{subsubsection*.26}\protected@file@percent }
\@writefile{toc}{\contentsline {subsection}{\numberline {2.3.3}Algorithms}{13}{subsection.2.3.3}\protected@file@percent }
\@writefile{toc}{\contentsline {subsubsection}{Cosine Similarity:}{13}{subsubsection*.27}\protected@file@percent }
\citation{adjusted-cosine-similarity}
\citation{adjusted-cosine-similarity}
\citation{weighted-average}
\citation{bhattacharya2015probabilistic}
\newlabel{eq:1}{{2.1}{14}{Cosine Similarity:}{equation.2.3.1}{}}
\@writefile{toc}{\contentsline {subsubsection}{Adjusted Cosine Similarity:}{14}{subsubsection*.28}\protected@file@percent }
\newlabel{eq:3}{{2.2}{14}{Adjusted Cosine Similarity:}{equation.2.3.2}{}}
\@writefile{toc}{\contentsline {subsubsection}{k-nearest Neighbourhood:}{14}{subsubsection*.29}\protected@file@percent }
\newlabel{eq:2}{{2.3}{14}{k-nearest Neighbourhood:}{equation.2.3.3}{}}
\@writefile{toc}{\contentsline {subsubsection}{Choice of $k$:}{14}{subsubsection*.30}\protected@file@percent }
\@setckpt{chapters/chapter2}{
\setcounter{page}{15}
\setcounter{equation}{3}
\setcounter{enumi}{4}
\setcounter{enumii}{0}
\setcounter{enumiii}{0}
\setcounter{enumiv}{0}
\setcounter{footnote}{0}
\setcounter{mpfootnote}{0}
\setcounter{part}{0}
\setcounter{chapter}{2}
\setcounter{section}{3}
\setcounter{subsection}{3}
\setcounter{subsubsection}{0}
\setcounter{paragraph}{0}
\setcounter{subparagraph}{0}
\setcounter{figure}{1}
\setcounter{table}{0}
\setcounter{@pps}{0}
\setcounter{@ppsavesec}{0}
\setcounter{@ppsaveapp}{0}
\setcounter{parentequation}{0}
\setcounter{float@type}{16}
\setcounter{algorithm}{3}
\setcounter{ALG@line}{12}
\setcounter{ALG@rem}{0}
\setcounter{ALG@nested}{0}
\setcounter{ALG@Lnr}{3}
\setcounter{ALG@blocknr}{17}
\setcounter{ALG@storecount}{0}
\setcounter{ALG@tmpcounter}{0}
\setcounter{caption@flags}{2}
\setcounter{continuedfloat}{0}
\setcounter{subfigure}{0}
\setcounter{subtable}{0}
\setcounter{r@tfl@t}{0}
\setcounter{lstnumber}{1}
\setcounter{Item}{4}
\setcounter{Hfootnote}{0}
\setcounter{bookmark@seq@number}{20}
\setcounter{lstlisting}{0}
\setcounter{section@level}{0}
}
