\relax 
\providecommand\hyper@newdestlabel[2]{}
\citation{shift-scheduling-dataset}
\citation{rotacloud}
\citation{burke2011recommender}
\citation{collaborative-filtering-1}
\citation{williams2009integer}
\citation{shift-scheduling-dataset}
\citation{garett2016literature}
\@writefile{toc}{\contentsline {chapter}{\numberline {1}Motivation and Background Research}{1}{chapter.1}\protected@file@percent }
\@writefile{lof}{\addvspace {10\p@ }}
\@writefile{lot}{\addvspace {10\p@ }}
\newlabel{chapter1}{{1}{1}{Motivation and Background Research}{chapter.1}{}}
\@writefile{toc}{\contentsline {section}{\numberline {1.1}Motivation}{1}{section.1.1}\protected@file@percent }
\@writefile{toc}{\contentsline {section}{\numberline {1.2}Problem Statement}{1}{section.1.2}\protected@file@percent }
\citation{graph-theory}
\citation{stable-marriage}
\citation{gale-shapely}
\citation{gale-shapely-bias}
\citation{constraint-satisfaction-SM}
\citation{constraint-satisfaction-problem}
\citation{constraint-satisfaction-problem-domain}
\@writefile{toc}{\contentsline {section}{\numberline {1.3}Background Research}{2}{section.1.3}\protected@file@percent }
\@writefile{toc}{\contentsline {subsection}{\numberline {1.3.1}Stable-marriage problem}{2}{subsection.1.3.1}\protected@file@percent }
\@writefile{toc}{\contentsline {subsubsection}{Matching:}{2}{subsubsection*.3}\protected@file@percent }
\@writefile{toc}{\contentsline {subsubsection}{Bipartite graph:}{2}{subsubsection*.4}\protected@file@percent }
\@writefile{toc}{\contentsline {subsubsection}{Gale-Shapely Algorithm:}{2}{subsubsection*.5}\protected@file@percent }
\@writefile{toc}{\contentsline {subsubsection}{Constraint Satisfaction Problem (CSP):}{2}{subsubsection*.6}\protected@file@percent }
\citation{constraint-satisfaction-SM}
\citation{recommender-system-1}
\citation{recommender-system-2}
\citation{recommender-system-graph}
\citation{burke2011recommender}
\citation{recommender-system-graph}
\citation{recommender-system-1}
\citation{collaborative-filtering-1}
\citation{memory-based-approach}
\citation{memory-based-approach}
\citation{memory-based-comparison}
\@writefile{toc}{\contentsline {subsection}{\numberline {1.3.2}Recommender Systems}{3}{subsection.1.3.2}\protected@file@percent }
\@writefile{toc}{\contentsline {subsubsection}{Collaborative Filtering:}{3}{subsubsection*.7}\protected@file@percent }
\@writefile{toc}{\contentsline {subsubsection}{Memory-Based Approaches:}{3}{subsubsection*.8}\protected@file@percent }
\citation{memory-based-comparison}
\citation{memory-based-approach}
\citation{memory-based-comparison}
\citation{memory-based-comparison}
\citation{memory-based-comparison}
\citation{su2009survey}
\citation{su2009survey}
\citation{herlocker2004evaluating}
\citation{herlocker2004evaluating}
\citation{chai2014root}
\citation{herlocker2004evaluating}
\citation{chai2014root}
\@writefile{toc}{\contentsline {subsubsection}{Model-Based Approaches:}{4}{subsubsection*.9}\protected@file@percent }
\@writefile{toc}{\contentsline {subsection}{\numberline {1.3.3}Evaluation Techniques}{4}{subsection.1.3.3}\protected@file@percent }
\newlabel{eq:6}{{1.1}{4}{Evaluation Techniques}{equation.1.3.1}{}}
\newlabel{eq:7}{{1.2}{4}{Evaluation Techniques}{equation.1.3.2}{}}
\@writefile{toc}{\contentsline {subsubsection}{Mean Absolute Error:}{4}{subsubsection*.10}\protected@file@percent }
\@writefile{toc}{\contentsline {subsubsection}{Root Mean Square Error:}{4}{subsubsection*.11}\protected@file@percent }
\citation{conforti2014integer}
\citation{combinatorial-optimization}
\citation{conforti2014integer}
\citation{papadimitriou1998combinatorial}
\citation{vanderbei2014integer}
\citation{gale-shapely}
\citation{gale-shapely}
\citation{constraint-satisfaction-SM}
\citation{assignment-problem}
\@writefile{toc}{\contentsline {subsection}{\numberline {1.3.4}Integer Programming (IP) Model Formulation}{5}{subsection.1.3.4}\protected@file@percent }
\newlabel{eq:5}{{1.3}{5}{Integer Programming (IP) Model Formulation}{equation.1.3.3}{}}
\@writefile{toc}{\contentsline {subsubsection}{ILP Solvers:}{5}{subsubsection*.12}\protected@file@percent }
\@writefile{toc}{\contentsline {subsection}{\numberline {1.3.5}Existing Solutions}{5}{subsection.1.3.5}\protected@file@percent }
\@writefile{toc}{\contentsline {subsubsection}{Hospitals / Residents problem:}{5}{subsubsection*.13}\protected@file@percent }
\citation{nurse-scheduling-problem}
\citation{nurse-scheduling-problem-approach}
\citation{rotacloud-website}
\citation{rotacloud-what-is-it}
\citation{rota-website}
\citation{rota-com}
\citation{rota-com}
\citation{rota-com}
\citation{deputy-website}
\citation{deputy-com}
\@writefile{toc}{\contentsline {subsubsection}{Assignment Problem:}{6}{subsubsection*.14}\protected@file@percent }
\@writefile{toc}{\contentsline {subsubsection}{Nurse Scheduling Problem:}{6}{subsubsection*.15}\protected@file@percent }
\@writefile{toc}{\contentsline {subsection}{\numberline {1.3.6}Existing Deployed Applications}{6}{subsection.1.3.6}\protected@file@percent }
\@writefile{toc}{\contentsline {subsubsection}{RotaCloud:}{6}{subsubsection*.16}\protected@file@percent }
\@writefile{toc}{\contentsline {subsubsection}{Rota:}{6}{subsubsection*.17}\protected@file@percent }
\@writefile{toc}{\contentsline {subsubsection}{Deputy:}{6}{subsubsection*.18}\protected@file@percent }
\citation{rotacloud-what-is-it}
\citation{rota-com}
\citation{deputy-com}
\citation{nurse-rostering-dataset}
\citation{shift-scheduling-dataset}
\citation{employee-schedule-kaggle}
\@writefile{toc}{\contentsline {subsection}{\numberline {1.3.7}Datasets}{7}{subsection.1.3.7}\protected@file@percent }
\@writefile{toc}{\contentsline {subsubsection}{Nurse Rostering Benchmark Instances:}{7}{subsubsection*.19}\protected@file@percent }
\@writefile{toc}{\contentsline {subsubsection}{Employee Schedule - Kaggle:}{7}{subsubsection*.20}\protected@file@percent }
\@setckpt{chapters/chapter1}{
\setcounter{page}{8}
\setcounter{equation}{3}
\setcounter{enumi}{0}
\setcounter{enumii}{0}
\setcounter{enumiii}{0}
\setcounter{enumiv}{0}
\setcounter{footnote}{0}
\setcounter{mpfootnote}{0}
\setcounter{part}{0}
\setcounter{chapter}{1}
\setcounter{section}{3}
\setcounter{subsection}{7}
\setcounter{subsubsection}{0}
\setcounter{paragraph}{0}
\setcounter{subparagraph}{0}
\setcounter{figure}{0}
\setcounter{table}{0}
\setcounter{@pps}{0}
\setcounter{@ppsavesec}{0}
\setcounter{@ppsaveapp}{0}
\setcounter{parentequation}{0}
\setcounter{float@type}{16}
\setcounter{algorithm}{0}
\setcounter{ALG@line}{0}
\setcounter{ALG@rem}{0}
\setcounter{ALG@nested}{0}
\setcounter{ALG@Lnr}{3}
\setcounter{ALG@blocknr}{17}
\setcounter{ALG@storecount}{0}
\setcounter{ALG@tmpcounter}{0}
\setcounter{caption@flags}{0}
\setcounter{continuedfloat}{0}
\setcounter{subfigure}{0}
\setcounter{subtable}{0}
\setcounter{r@tfl@t}{0}
\setcounter{lstnumber}{1}
\setcounter{Item}{0}
\setcounter{Hfootnote}{0}
\setcounter{bookmark@seq@number}{11}
\setcounter{lstlisting}{0}
\setcounter{section@level}{0}
}
