<?xml version="1.0" encoding="UTF-8"?>
<svg xmlns="http://www.w3.org/2000/svg" xmlns:xlink="http://www.w3.org/1999/xlink" width="30px" height="30px" viewBox="0 0 30 30" version="1.1">
<g id="surface1">
<path style=" stroke:none;fill-rule:nonzero;fill:rgb(0%,0%,0%);fill-opacity:1;" d="M 0 7.40625 L 0 22.59375 C 0 24.6875 1.707031 26.394531 3.800781 26.394531 L 16.074219 26.394531 C 18.167969 26.394531 19.875 24.6875 19.875 22.59375 L 19.875 20.132812 C 19.875 19.71875 19.535156 19.382812 19.121094 19.382812 C 18.703125 19.382812 18.367188 19.71875 18.367188 20.132812 L 18.367188 22.59375 C 18.367188 23.859375 17.335938 24.894531 16.066406 24.894531 L 3.800781 24.894531 C 2.53125 24.894531 1.5 23.859375 1.5 22.59375 L 1.5 7.40625 C 1.5 6.140625 2.53125 5.105469 3.800781 5.105469 L 16.074219 5.105469 C 17.339844 5.105469 18.375 6.140625 18.375 7.40625 L 18.375 9.867188 C 18.375 10.28125 18.710938 10.617188 19.128906 10.617188 C 19.542969 10.617188 19.878906 10.28125 19.878906 9.867188 L 19.878906 7.40625 C 19.878906 5.3125 18.171875 3.605469 16.078125 3.605469 L 3.800781 3.605469 C 1.707031 3.605469 0 5.308594 0 7.40625 Z M 0 7.40625 "/>
<path style=" stroke:none;fill-rule:nonzero;fill:rgb(0%,0%,0%);fill-opacity:1;" d="M 23.582031 20.660156 C 23.726562 20.808594 23.917969 20.878906 24.113281 20.878906 C 24.308594 20.878906 24.5 20.808594 24.644531 20.660156 L 29.78125 15.527344 C 30.074219 15.234375 30.074219 14.761719 29.78125 14.46875 L 24.644531 9.335938 C 24.351562 9.039062 23.882812 9.039062 23.585938 9.335938 C 23.292969 9.628906 23.292969 10.097656 23.585938 10.394531 L 27.441406 14.246094 L 13.375 14.246094 C 12.960938 14.246094 12.621094 14.582031 12.621094 15 C 12.621094 15.417969 12.960938 15.753906 13.375 15.753906 L 27.4375 15.753906 L 23.582031 19.605469 C 23.289062 19.894531 23.289062 20.371094 23.582031 20.660156 Z M 23.582031 20.660156 "/>
</g>
</svg>
