\relax 
\providecommand\hyper@newdestlabel[2]{}
\@writefile{toc}{\contentsline {chapter}{Appendices}{35}{section*.71}\protected@file@percent }
\@writefile{toc}{\contentsline {chapter}{\numberline {A}Self-appraisal}{35}{appendix.a.A}\protected@file@percent }
\@writefile{lof}{\addvspace {10\p@ }}
\@writefile{lot}{\addvspace {10\p@ }}
\@writefile{toc}{\contentsline {section}{\numberline {A.1}Critical self-evaluation}{35}{section.a.A.1}\protected@file@percent }
\newlabel{section:self-evaluation}{{A.1}{35}{Critical self-evaluation}{section.a.A.1}{}}
\@writefile{toc}{\contentsline {subsection}{\numberline {A.1.1}What Went Well}{35}{subsection.a.A.1.1}\protected@file@percent }
\@writefile{toc}{\contentsline {subsection}{\numberline {A.1.2}What Could be Improved}{35}{subsection.a.A.1.2}\protected@file@percent }
\newlabel{section:what-i-could-improve-upon}{{A.1.2}{35}{What Could be Improved}{subsection.a.A.1.2}{}}
\citation{voigt2017eu}
\@writefile{toc}{\contentsline {section}{\numberline {A.2}Personal reflection and lessons learned}{36}{section.a.A.2}\protected@file@percent }
\citation{svgrepo}
\citation{iskra2016social}
\citation{iskra2016social}
\citation{hepple2010new}
\citation{hanson2013progress}
\@writefile{toc}{\contentsline {section}{\numberline {A.3}Legal, social, ethical and professional issues}{37}{section.a.A.3}\protected@file@percent }
\@writefile{toc}{\contentsline {subsection}{\numberline {A.3.1}Legal issues}{37}{subsection.a.A.3.1}\protected@file@percent }
\@writefile{toc}{\contentsline {subsection}{\numberline {A.3.2}Social issues}{37}{subsection.a.A.3.2}\protected@file@percent }
\citation{dembe2009ethical}
\citation{weekly-working-hours}
\citation{rest-breaks}
\citation{BSC-code-of-conduct}
\@writefile{toc}{\contentsline {subsection}{\numberline {A.3.3}Ethical issues}{38}{subsection.a.A.3.3}\protected@file@percent }
\@writefile{toc}{\contentsline {subsection}{\numberline {A.3.4}Professional issues}{38}{subsection.a.A.3.4}\protected@file@percent }
\citation{gale-shapely}
\@writefile{toc}{\contentsline {chapter}{\numberline {B}External Material}{39}{appendix.a.B}\protected@file@percent }
\@writefile{lof}{\addvspace {10\p@ }}
\@writefile{lot}{\addvspace {10\p@ }}
\newlabel{appendix:external-materials}{{B}{39}{External Material}{appendix.a.B}{}}
\@writefile{toc}{\contentsline {section}{\numberline {B.1}Gale-Shapely Algorithm}{39}{section.a.B.1}\protected@file@percent }
\newlabel{section:gale-shapely-algorithm-pseudocode}{{B.1}{39}{Gale-Shapely Algorithm}{section.a.B.1}{}}
\@writefile{loa}{\contentsline {algorithm}{\numberline {4}{\ignorespaces Gale-Shapely Algorithm\relax }}{39}{algorithm.4}\protected@file@percent }
\newlabel{alg:galeshapely}{{4}{39}{Gale-Shapely Algorithm\relax }{algorithm.4}{}}
\@writefile{toc}{\contentsline {section}{\numberline {B.2}External Libraries}{39}{section.a.B.2}\protected@file@percent }
\@writefile{toc}{\contentsline {subsection}{\numberline {B.2.1}Back-End Libraries}{39}{subsection.a.B.2.1}\protected@file@percent }
\@writefile{toc}{\contentsline {subsection}{\numberline {B.2.2}Front-End Libraries}{39}{subsection.a.B.2.2}\protected@file@percent }
\@writefile{toc}{\contentsline {subsection}{\numberline {B.2.3}Algorithms Libraries}{40}{subsection.a.B.2.3}\protected@file@percent }
\@writefile{toc}{\contentsline {chapter}{\numberline {C}URL's and Deployed Applications}{41}{appendix.a.C}\protected@file@percent }
\@writefile{lof}{\addvspace {10\p@ }}
\@writefile{lot}{\addvspace {10\p@ }}
\@writefile{toc}{\contentsline {section}{\numberline {C.1}Source Code}{41}{section.a.C.1}\protected@file@percent }
\newlabel{section:source-code}{{C.1}{41}{Source Code}{section.a.C.1}{}}
\@writefile{toc}{\contentsline {subsubsection}{Back-End Source Code:}{41}{subsubsection*.72}\protected@file@percent }
\@writefile{toc}{\contentsline {subsubsection}{Front-End Source Code:}{41}{subsubsection*.73}\protected@file@percent }
\@writefile{toc}{\contentsline {subsubsection}{Algorithms Source Code:}{41}{subsubsection*.74}\protected@file@percent }
\@writefile{toc}{\contentsline {section}{\numberline {C.2}Soft-deployed Applications}{41}{section.a.C.2}\protected@file@percent }
\newlabel{section:soft-deployed-application}{{C.2}{41}{Soft-deployed Applications}{section.a.C.2}{}}
\@writefile{toc}{\contentsline {subsubsection}{Front-End Application:}{41}{subsubsection*.75}\protected@file@percent }
\@writefile{toc}{\contentsline {subsubsection}{Back-End API Link:}{41}{subsubsection*.76}\protected@file@percent }
\@writefile{toc}{\contentsline {subsubsection}{Algorithms API Link:}{41}{subsubsection*.77}\protected@file@percent }
\@writefile{toc}{\contentsline {section}{\numberline {C.3}Questionnaire}{41}{section.a.C.3}\protected@file@percent }
\newlabel{section:questionnaire}{{C.3}{41}{Questionnaire}{section.a.C.3}{}}
\@writefile{toc}{\contentsline {subsubsection}{Questionnaire Link:}{41}{subsubsection*.78}\protected@file@percent }
\@writefile{toc}{\contentsline {subsubsection}{Test Account Details:}{41}{subsubsection*.79}\protected@file@percent }
\@writefile{toc}{\contentsline {chapter}{\numberline {D}Example Solutions}{42}{appendix.a.D}\protected@file@percent }
\@writefile{lof}{\addvspace {10\p@ }}
\@writefile{lot}{\addvspace {10\p@ }}
\@writefile{toc}{\contentsline {section}{\numberline {D.1}Example Modified Gale-Shapely Algorithm Walkthrough}{42}{section.a.D.1}\protected@file@percent }
\newlabel{section:example-modified-gale-shapely-algorithm-walkthrough}{{D.1}{42}{Example Modified Gale-Shapely Algorithm Walkthrough}{section.a.D.1}{}}
\@writefile{toc}{\contentsline {section}{\numberline {D.2}Combining Preferences}{44}{section.a.D.2}\protected@file@percent }
\newlabel{section:combining-preferences}{{D.2}{44}{Combining Preferences}{section.a.D.2}{}}
\@writefile{toc}{\contentsline {chapter}{\numberline {E}Figures and Tables}{45}{appendix.a.E}\protected@file@percent }
\@writefile{lof}{\addvspace {10\p@ }}
\@writefile{lot}{\addvspace {10\p@ }}
\@writefile{toc}{\contentsline {section}{\numberline {E.1}UML diagrams}{45}{section.a.E.1}\protected@file@percent }
\newlabel{uml-diagrams}{{E.1}{45}{UML diagrams}{section.a.E.1}{}}
\@writefile{lof}{\contentsline {figure}{\numberline {E.1}{\ignorespaces Entity relationship diagram (ERD) for the implemented database.\relax }}{45}{figure.caption.80}\protected@file@percent }
\newlabel{ERD}{{E.1}{45}{Entity relationship diagram (ERD) for the implemented database.\relax }{figure.caption.80}{}}
\@writefile{lof}{\contentsline {figure}{\numberline {E.2}{\ignorespaces UML class diagram for the models used in the modified gale shapely algorithm\relax }}{46}{figure.caption.81}\protected@file@percent }
\newlabel{uml-class-diagram}{{E.2}{46}{UML class diagram for the models used in the modified gale shapely algorithm\relax }{figure.caption.81}{}}
\@writefile{toc}{\contentsline {section}{\numberline {E.2}Software File Structure}{46}{section.a.E.2}\protected@file@percent }
\newlabel{section:software-file-structure}{{E.2}{46}{Software File Structure}{section.a.E.2}{}}
\@writefile{lof}{\contentsline {figure}{\numberline {E.3}{\ignorespaces A simplified version of the system file structure\relax }}{46}{figure.caption.82}\protected@file@percent }
\newlabel{fig:file-structure}{{E.3}{46}{A simplified version of the system file structure\relax }{figure.caption.82}{}}
\@writefile{lof}{\contentsline {figure}{\numberline {E.4}{\ignorespaces A simplified version of the back-end, Laravel file structure\relax }}{47}{figure.caption.83}\protected@file@percent }
\newlabel{fig:laravel-file-structure}{{E.4}{47}{A simplified version of the back-end, Laravel file structure\relax }{figure.caption.83}{}}
\@writefile{lof}{\contentsline {figure}{\numberline {E.5}{\ignorespaces A simplified version of the front-end, react file structure\relax }}{47}{figure.caption.84}\protected@file@percent }
\newlabel{fig:react-file-structure}{{E.5}{47}{A simplified version of the front-end, react file structure\relax }{figure.caption.84}{}}
\@writefile{lof}{\contentsline {figure}{\numberline {E.6}{\ignorespaces Algorithms API and implementations file structure\relax }}{47}{figure.caption.85}\protected@file@percent }
\newlabel{fig:algorithms-file-structure}{{E.6}{47}{Algorithms API and implementations file structure\relax }{figure.caption.85}{}}
\@writefile{toc}{\contentsline {section}{\numberline {E.3}Back-end Application Routes}{48}{section.a.E.3}\protected@file@percent }
\newlabel{back-end-routes}{{E.3}{48}{Back-end Application Routes}{section.a.E.3}{}}
\@writefile{lof}{\contentsline {figure}{\numberline {E.7}{\ignorespaces Admin only routes for the back-end application\relax }}{48}{figure.caption.86}\protected@file@percent }
\newlabel{admin-routes}{{E.7}{48}{Admin only routes for the back-end application\relax }{figure.caption.86}{}}
\@writefile{lof}{\contentsline {figure}{\numberline {E.8}{\ignorespaces Employee and admin routes for the back-end application\relax }}{49}{figure.caption.87}\protected@file@percent }
\newlabel{employee-routes}{{E.8}{49}{Employee and admin routes for the back-end application\relax }{figure.caption.87}{}}
\@writefile{lof}{\contentsline {figure}{\numberline {E.9}{\ignorespaces Public routes for the back-end application\relax }}{49}{figure.caption.88}\protected@file@percent }
\newlabel{public-routes}{{E.9}{49}{Public routes for the back-end application\relax }{figure.caption.88}{}}
\@writefile{toc}{\contentsline {section}{\numberline {E.4}Middleware Implementation}{50}{section.a.E.4}\protected@file@percent }
\newlabel{middleware-implementation}{{E.4}{50}{Middleware Implementation}{section.a.E.4}{}}
\@writefile{lof}{\contentsline {figure}{\numberline {E.10}{\ignorespaces EmployeeRoleMiddleware class for validating if an employee has a role from a given set of roles\relax }}{50}{figure.caption.89}\protected@file@percent }
\newlabel{role-middleware}{{E.10}{50}{EmployeeRoleMiddleware class for validating if an employee has a role from a given set of roles\relax }{figure.caption.89}{}}
\@writefile{lof}{\contentsline {figure}{\numberline {E.11}{\ignorespaces Employee hasRoles() method for checking if an employee has a certain role\relax }}{50}{figure.caption.90}\protected@file@percent }
\newlabel{employee-hasroles}{{E.11}{50}{Employee hasRoles() method for checking if an employee has a certain role\relax }{figure.caption.90}{}}
\@writefile{toc}{\contentsline {section}{\numberline {E.5}Token Assignment}{51}{section.a.E.5}\protected@file@percent }
\newlabel{token-assignment}{{E.5}{51}{Token Assignment}{section.a.E.5}{}}
\@writefile{lof}{\contentsline {figure}{\numberline {E.12}{\ignorespaces Login method ans assigning employee tokens for authentication with Sanctum middleware\relax }}{51}{figure.caption.91}\protected@file@percent }
\newlabel{sanctum-token}{{E.12}{51}{Login method ans assigning employee tokens for authentication with Sanctum middleware\relax }{figure.caption.91}{}}
\@writefile{toc}{\contentsline {section}{\numberline {E.6}Front-end views}{52}{section.a.E.6}\protected@file@percent }
\newlabel{front-end-views}{{E.6}{52}{Front-end views}{section.a.E.6}{}}
\@writefile{lof}{\contentsline {figure}{\numberline {E.13}{\ignorespaces Manager dashboard view\relax }}{52}{figure.caption.92}\protected@file@percent }
\newlabel{manager-dashboard}{{E.13}{52}{Manager dashboard view\relax }{figure.caption.92}{}}
\@writefile{lof}{\contentsline {figure}{\numberline {E.14}{\ignorespaces Employee Management view\relax }}{52}{figure.caption.93}\protected@file@percent }
\newlabel{employee-management-dashboard}{{E.14}{52}{Employee Management view\relax }{figure.caption.93}{}}
\@writefile{lof}{\contentsline {figure}{\numberline {E.15}{\ignorespaces Department management view\relax }}{53}{figure.caption.94}\protected@file@percent }
\newlabel{department-management-dashboard}{{E.15}{53}{Department management view\relax }{figure.caption.94}{}}
\@writefile{lof}{\contentsline {figure}{\numberline {E.16}{\ignorespaces Regular employee dashboard with shifts matched to employees\relax }}{53}{figure.caption.95}\protected@file@percent }
\newlabel{employee-dashboard}{{E.16}{53}{Regular employee dashboard with shifts matched to employees\relax }{figure.caption.95}{}}
\@writefile{lof}{\contentsline {figure}{\numberline {E.17}{\ignorespaces Regular employee dashboard with rota rating faces\relax }}{54}{figure.caption.96}\protected@file@percent }
\newlabel{employee-dashboard-faces}{{E.17}{54}{Regular employee dashboard with rota rating faces\relax }{figure.caption.96}{}}
\@writefile{lof}{\contentsline {figure}{\numberline {E.18}{\ignorespaces Regular employee dashboard with shift information and rating faces\relax }}{54}{figure.caption.97}\protected@file@percent }
\newlabel{employee-dashboard-shift-rating}{{E.18}{54}{Regular employee dashboard with shift information and rating faces\relax }{figure.caption.97}{}}
\@writefile{toc}{\contentsline {chapter}{\numberline {F}Project Information Sheet}{55}{appendix.a.F}\protected@file@percent }
\@writefile{lof}{\addvspace {10\p@ }}
\@writefile{lot}{\addvspace {10\p@ }}
\newlabel{appendix:participant-infomation-sheet}{{F}{56}{Project Information Sheet}{appendix.a.F}{}}
\@writefile{toc}{\contentsline {chapter}{\numberline {G}User Testing Quantitative Results}{58}{appendix.a.G}\protected@file@percent }
\@writefile{lof}{\addvspace {10\p@ }}
\@writefile{lot}{\addvspace {10\p@ }}
\newlabel{appendix:user-testing-results}{{G}{58}{User Testing Quantitative Results}{appendix.a.G}{}}
\@writefile{lof}{\contentsline {figure}{\numberline {G.1}{\ignorespaces Participants availability preference and select shifts for each of the 3 days\relax }}{58}{figure.caption.98}\protected@file@percent }
\@writefile{lof}{\contentsline {figure}{\numberline {G.2}{\ignorespaces Participants ratings of each of the 8 unique shifts\relax }}{58}{figure.caption.99}\protected@file@percent }
\@setckpt{appendices}{
\setcounter{page}{59}
\setcounter{equation}{0}
\setcounter{enumi}{4}
\setcounter{enumii}{0}
\setcounter{enumiii}{0}
\setcounter{enumiv}{59}
\setcounter{footnote}{0}
\setcounter{mpfootnote}{0}
\setcounter{part}{0}
\setcounter{chapter}{5}
\setcounter{section}{0}
\setcounter{subsection}{0}
\setcounter{subsubsection}{0}
\setcounter{paragraph}{0}
\setcounter{subparagraph}{0}
\setcounter{figure}{2}
\setcounter{table}{0}
\setcounter{@pps}{1}
\setcounter{@ppsavesec}{5}
\setcounter{@ppsaveapp}{7}
\setcounter{parentequation}{0}
\setcounter{float@type}{16}
\setcounter{algorithm}{4}
\setcounter{ALG@line}{10}
\setcounter{ALG@rem}{0}
\setcounter{ALG@nested}{0}
\setcounter{ALG@Lnr}{3}
\setcounter{ALG@blocknr}{17}
\setcounter{ALG@storecount}{0}
\setcounter{ALG@tmpcounter}{0}
\setcounter{caption@flags}{0}
\setcounter{continuedfloat}{0}
\setcounter{subfigure}{0}
\setcounter{subtable}{0}
\setcounter{r@tfl@t}{0}
\setcounter{lstnumber}{3}
\setcounter{Item}{11}
\setcounter{Hfootnote}{0}
\setcounter{bookmark@seq@number}{75}
\setcounter{lstlisting}{0}
\setcounter{section@level}{0}
}
