\relax 
\providecommand\hyper@newdestlabel[2]{}
\providecommand\HyperFirstAtBeginDocument{\AtBeginDocument}
\HyperFirstAtBeginDocument{\ifx\hyper@anchor\@undefined
\global\let\oldcontentsline\contentsline
\gdef\contentsline#1#2#3#4{\oldcontentsline{#1}{#2}{#3}}
\global\let\oldnewlabel\newlabel
\gdef\newlabel#1#2{\newlabelxx{#1}#2}
\gdef\newlabelxx#1#2#3#4#5#6{\oldnewlabel{#1}{{#2}{#3}}}
\AtEndDocument{\ifx\hyper@anchor\@undefined
\let\contentsline\oldcontentsline
\let\newlabel\oldnewlabel
\fi}
\fi}
\global\let\hyper@last\relax 
\gdef\HyperFirstAtBeginDocument#1{#1}
\providecommand\HyField@AuxAddToFields[1]{}
\providecommand\HyField@AuxAddToCoFields[2]{}
\bibstyle{abbrv}
\@input{prelude.aux}
\providecommand \oddpage@label [2]{}
\@input{chapters/chapter1.aux}
\@input{chapters/chapter2.aux}
\@input{chapters/chapter5.aux}
\@input{chapters/chapter3.aux}
\@input{chapters/chapter4.aux}
\bibdata{refs}
\bibcite{BSC-code-of-conduct}{1}
\bibcite{deputy-website}{2}
\bibcite{weekly-working-hours}{3}
\bibcite{rest-breaks}{4}
\bibcite{rota-website}{5}
\bibcite{rotacloud-website}{6}
\bibcite{shift-scheduling-dataset}{7}
\bibcite{svgrepo}{8}
\bibcite{weighted-average}{9}
\bibcite{recommender-system-2}{10}
\bibcite{employee-schedule-kaggle}{11}
\bibcite{nurse-rostering-dataset}{12}
\bibcite{deputy-com}{13}
\bibcite{astels2003test}{14}
\bibcite{adjusted-cosine-similarity}{15}
\bibcite{memory-based-comparison}{16}
\@writefile{toc}{\contentsline {chapter}{References}{31}{subsubsection*.69}\protected@file@percent }
\bibcite{bhattacharya2015probabilistic}{17}
\bibcite{constraint-satisfaction-problem}{18}
\bibcite{burke2011recommender}{19}
\bibcite{chai2014root}{20}
\bibcite{conforti2014integer}{21}
\bibcite{constraint-satisfaction-SM}{22}
\bibcite{rotacloud-what-is-it}{23}
\bibcite{implicit-collection-techniques}{24}
\bibcite{dembe2009ethical}{25}
\bibcite{graph-theory}{26}
\bibcite{CF-matrix-user-adaptive-item}{27}
\bibcite{CF-matrix-user-adaptive-user}{28}
\bibcite{recommender-system-1}{29}
\bibcite{gale-shapely}{30}
\bibcite{garett2016literature}{31}
\bibcite{gilbert2003security}{32}
\bibcite{hanson2013progress}{33}
\bibcite{hepple2010new}{34}
\bibcite{herlocker2004evaluating}{35}
\bibcite{iskra2016social}{36}
\bibcite{memory-based-approach}{37}
\bibcite{keith2009object}{38}
\bibcite{rotacloud}{39}
\bibcite{kent1983simple}{40}
\bibcite{gale-shapely-bias}{41}
\bibcite{nurse-scheduling-problem-approach}{42}
\bibcite{li2011design}{43}
\bibcite{lika2014facing}{44}
\bibcite{recommender-system-graph}{45}
\bibcite{assignment-problem}{46}
\bibcite{collaborative-filtering-1}{47}
\bibcite{stable-marriage}{48}
\bibcite{flexible-constraint-satisfaction}{49}
\bibcite{oliphant2006guide}{50}
\bibcite{papadimitriou1998combinatorial}{51}
\bibcite{combinatorial-optimization}{52}
\bibcite{nurse-scheduling-problem}{53}
\bibcite{constraint-satisfaction-problem-domain}{54}
\bibcite{su2009survey}{55}
\bibcite{vanderbei2014integer}{56}
\bibcite{voigt2017eu}{57}
\bibcite{williams2009integer}{58}
\bibcite{rota-com}{59}
\@input{appendices.aux}
