# This is a comment. Comments start with #

SECTION_HORIZON
# All instances start at 06:00 on the first day and finish at 06:00 on the last day.
# The planning horizon length in days:
28

SECTION_TASKS
# The number of different tasks
1

SECTION_STAFF
# ID, MinTotalMinutes, MaxTotalMinutes
1,8640,9600
2,7440,9600
3,4320,9600
4,3600,4800
5,5280,9600
6,8640,9600
7,8400,9600
8,4320,4800
9,8400,9600
10,8160,9600
11,8880,9600
12,8880,9600
13,8400,9600
14,4080,4800
15,8880,9600
16,4560,4800
17,4560,4800
18,3360,4800
19,8880,9600
20,8640,9600

SECTION_COVER
# Day, Time, TaskID, Min, Max
1,06:00-06:15,1,2,2
1,06:15-06:30,1,2,2
1,06:30-06:45,1,1,1
1,06:45-07:00,1,3,3
1,07:00-07:15,1,4,4
1,07:15-07:30,1,3,3
1,07:30-07:45,1,3,3
1,07:45-08:00,1,3,3
1,08:00-08:15,1,4,4
1,08:15-08:30,1,4,4
1,08:30-08:45,1,3,3
1,08:45-09:00,1,4,4
1,09:00-09:15,1,4,4
1,09:15-09:30,1,4,4
1,09:30-09:45,1,4,4
1,09:45-10:00,1,3,3
1,10:00-10:15,1,3,3
1,10:15-10:30,1,2,2
1,10:30-10:45,1,3,3
1,10:45-11:00,1,3,3
1,11:00-11:15,1,3,3
1,11:15-11:30,1,4,4
1,11:30-11:45,1,4,4
1,11:45-12:00,1,2,2
1,12:00-12:15,1,4,4
1,12:15-12:30,1,4,4
1,12:30-12:45,1,3,3
1,12:45-13:00,1,3,3
1,13:00-13:15,1,1,1
1,13:15-13:30,1,1,1
1,13:30-13:45,1,3,3
1,13:45-14:00,1,3,3
1,14:00-14:15,1,4,4
1,14:15-14:30,1,3,3
1,14:30-14:45,1,3,3
1,14:45-15:00,1,1,1
1,15:00-15:15,1,2,2
1,15:15-15:30,1,1,1
1,15:30-15:45,1,2,2
1,15:45-16:00,1,3,3
1,16:00-16:15,1,1,1
1,16:15-16:30,1,1,1
1,16:30-16:45,1,2,2
1,16:45-17:00,1,2,2
1,17:00-17:15,1,2,2
1,17:15-17:30,1,2,2
1,17:30-17:45,1,2,2
1,17:45-18:00,1,3,3
1,18:00-18:15,1,3,3
1,18:15-18:30,1,3,3
1,18:30-18:45,1,2,2
1,18:45-19:00,1,2,2
1,19:00-19:15,1,2,2
1,19:15-19:30,1,2,2
1,19:30-19:45,1,3,3
1,19:45-20:00,1,2,2
1,20:00-20:15,1,3,3
1,20:15-20:30,1,3,3
1,20:30-20:45,1,2,2
1,20:45-21:00,1,2,2
1,21:00-21:15,1,2,2
1,21:15-21:30,1,3,3
1,21:30-21:45,1,2,2
1,21:45-22:00,1,2,2
1,22:00-22:15,1,3,3
1,22:15-22:30,1,4,4
1,22:30-22:45,1,2,2
1,22:45-23:00,1,3,3
1,23:00-23:15,1,2,2
1,23:15-23:30,1,4,4
1,23:30-23:45,1,4,4
1,23:45-00:00,1,3,3
2,00:00-00:15,1,4,4
2,00:15-00:30,1,3,3
2,00:30-00:45,1,2,2
2,00:45-01:00,1,3,3
2,01:00-01:15,1,3,3
2,01:15-01:30,1,2,2
2,01:30-01:45,1,4,4
2,01:45-02:00,1,3,3
2,02:00-02:15,1,1,1
2,02:15-02:30,1,2,2
2,02:30-02:45,1,1,1
2,02:45-03:00,1,2,2
2,03:00-03:15,1,2,2
2,03:15-03:30,1,2,2
2,03:30-03:45,1,2,2
2,03:45-04:00,1,2,2
2,04:00-04:15,1,2,2
2,04:15-04:30,1,2,2
2,04:30-04:45,1,2,2
2,04:45-05:00,1,2,2
2,05:00-05:15,1,2,2
2,05:15-05:30,1,3,3
2,05:30-05:45,1,2,2
2,05:45-06:00,1,2,2
2,06:00-06:15,1,2,2
2,06:15-06:30,1,2,2
2,06:30-06:45,1,4,4
2,06:45-07:00,1,3,3
2,07:00-07:15,1,3,3
2,07:15-07:30,1,2,2
2,07:30-07:45,1,4,4
2,07:45-08:00,1,2,2
2,08:00-08:15,1,4,4
2,08:15-08:30,1,4,4
2,08:30-08:45,1,3,3
2,08:45-09:00,1,4,4
2,09:00-09:15,1,3,3
2,09:15-09:30,1,3,3
2,09:30-09:45,1,3,3
2,09:45-10:00,1,2,2
2,10:00-10:15,1,3,3
2,10:15-10:30,1,2,2
2,10:30-10:45,1,1,1
2,10:45-11:00,1,1,1
2,11:00-11:15,1,2,2
2,11:15-11:30,1,2,2
2,11:30-11:45,1,3,3
2,11:45-12:00,1,2,2
2,12:00-12:15,1,2,2
2,12:15-12:30,1,2,2
2,12:30-12:45,1,3,3
2,12:45-13:00,1,2,2
2,13:00-13:15,1,2,2
2,13:15-13:30,1,2,2
2,13:30-13:45,1,3,3
2,13:45-14:00,1,3,3
2,14:00-14:15,1,2,2
2,14:15-14:30,1,2,2
2,14:30-14:45,1,3,3
2,14:45-15:00,1,3,3
2,15:00-15:15,1,3,3
2,15:15-15:30,1,3,3
2,15:30-15:45,1,3,3
2,15:45-16:00,1,1,1
2,16:00-16:15,1,3,3
2,16:15-16:30,1,2,2
2,16:30-16:45,1,3,3
2,16:45-17:00,1,4,4
2,17:00-17:15,1,4,4
2,17:15-17:30,1,3,3
2,17:30-17:45,1,3,3
2,17:45-18:00,1,3,3
2,18:00-18:15,1,4,4
2,18:15-18:30,1,4,4
2,18:30-18:45,1,3,3
2,18:45-19:00,1,2,2
2,19:00-19:15,1,4,4
2,19:15-19:30,1,3,3
2,19:30-19:45,1,4,4
2,19:45-20:00,1,3,3
2,20:00-20:15,1,2,2
2,20:15-20:30,1,3,3
2,20:30-20:45,1,4,4
2,20:45-21:00,1,4,4
2,21:00-21:15,1,2,2
2,21:15-21:30,1,3,3
2,21:30-21:45,1,3,3
2,21:45-22:00,1,3,3
2,22:00-22:15,1,2,2
2,22:15-22:30,1,3,3
2,22:30-22:45,1,2,2
2,22:45-23:00,1,2,2
2,23:00-23:15,1,2,2
2,23:15-23:30,1,2,2
2,23:30-23:45,1,1,1
2,23:45-00:00,1,2,2
3,00:00-00:15,1,3,3
3,00:15-00:30,1,2,2
3,00:30-00:45,1,3,3
3,00:45-01:00,1,2,2
3,01:00-01:15,1,3,3
3,01:15-01:30,1,1,1
3,01:30-01:45,1,2,2
3,01:45-02:00,1,2,2
3,02:00-02:15,1,2,2
3,02:15-02:30,1,2,2
3,02:30-02:45,1,2,2
3,02:45-03:00,1,3,3
3,03:00-03:15,1,1,1
3,03:15-03:30,1,3,3
3,03:30-03:45,1,1,1
3,03:45-04:00,1,1,1
3,04:00-04:15,1,3,3
3,04:15-04:30,1,2,2
3,04:30-04:45,1,2,2
3,04:45-05:00,1,3,3
3,05:00-05:15,1,2,2
3,05:15-05:30,1,3,3
3,05:30-05:45,1,3,3
3,05:45-06:00,1,1,1
3,06:00-06:15,1,2,2
3,06:15-06:30,1,2,2
3,06:30-06:45,1,4,4
3,06:45-07:00,1,4,4
3,07:00-07:15,1,4,4
3,07:15-07:30,1,4,4
3,07:30-07:45,1,3,3
3,07:45-08:00,1,3,3
3,08:00-08:15,1,3,3
3,08:15-08:30,1,4,4
3,08:30-08:45,1,3,3
3,08:45-09:00,1,4,4
3,09:00-09:15,1,4,4
3,09:15-09:30,1,2,2
3,09:30-09:45,1,3,3
3,09:45-10:00,1,4,4
3,10:00-10:15,1,3,3
3,10:15-10:30,1,3,3
3,10:30-10:45,1,2,2
3,10:45-11:00,1,2,2
3,11:00-11:15,1,3,3
3,11:15-11:30,1,3,3
3,11:30-11:45,1,2,2
3,11:45-12:00,1,1,1
3,12:00-12:15,1,2,2
3,12:15-12:30,1,2,2
3,12:30-12:45,1,2,2
3,12:45-13:00,1,1,1
3,13:00-13:15,1,2,2
3,13:15-13:30,1,2,2
3,13:30-13:45,1,3,3
3,13:45-14:00,1,3,3
3,14:00-14:15,1,2,2
3,14:15-14:30,1,2,2
3,14:30-14:45,1,2,2
3,14:45-15:00,1,4,4
3,15:00-15:15,1,3,3
3,15:15-15:30,1,4,4
3,15:30-15:45,1,3,3
3,15:45-16:00,1,3,3
3,16:00-16:15,1,2,2
3,16:15-16:30,1,2,2
3,16:30-16:45,1,1,1
3,16:45-17:00,1,1,1
3,17:00-17:15,1,2,2
3,17:15-17:30,1,2,2
3,17:30-17:45,1,2,2
3,17:45-18:00,1,3,3
3,18:00-18:15,1,2,2
3,18:15-18:30,1,2,2
3,18:30-18:45,1,1,1
3,18:45-19:00,1,3,3
3,19:00-19:15,1,1,1
3,19:15-19:30,1,2,2
3,19:30-19:45,1,1,1
3,19:45-20:00,1,3,3
3,20:00-20:15,1,3,3
3,20:15-20:30,1,2,2
3,20:30-20:45,1,2,2
3,20:45-21:00,1,2,2
3,21:00-21:15,1,1,1
3,21:15-21:30,1,2,2
3,21:30-21:45,1,1,1
3,21:45-22:00,1,2,2
3,22:00-22:15,1,1,1
3,22:15-22:30,1,2,2
3,22:30-22:45,1,4,4
3,22:45-23:00,1,3,3
3,23:00-23:15,1,4,4
3,23:15-23:30,1,3,3
3,23:30-23:45,1,3,3
3,23:45-00:00,1,2,2
4,00:00-00:15,1,3,3
4,00:15-00:30,1,2,2
4,00:30-00:45,1,3,3
4,00:45-01:00,1,3,3
4,01:00-01:15,1,3,3
4,01:15-01:30,1,2,2
4,01:30-01:45,1,4,4
4,01:45-02:00,1,3,3
4,02:00-02:15,1,1,1
4,02:15-02:30,1,2,2
4,02:30-02:45,1,3,3
4,02:45-03:00,1,3,3
4,03:00-03:15,1,1,1
4,03:15-03:30,1,1,1
4,03:30-03:45,1,2,2
4,03:45-04:00,1,2,2
4,04:00-04:15,1,1,1
4,04:15-04:30,1,2,2
4,04:30-04:45,1,1,1
4,04:45-05:00,1,3,3
4,05:00-05:15,1,2,2
4,05:15-05:30,1,3,3
4,05:30-05:45,1,2,2
4,05:45-06:00,1,3,3
4,06:00-06:15,1,2,2
4,06:15-06:30,1,4,4
4,06:30-06:45,1,2,2
4,06:45-07:00,1,4,4
4,07:00-07:15,1,3,3
4,07:15-07:30,1,3,3
4,07:30-07:45,1,1,1
4,07:45-08:00,1,3,3
4,08:00-08:15,1,3,3
4,08:15-08:30,1,1,1
4,08:30-08:45,1,2,2
4,08:45-09:00,1,1,1
4,09:00-09:15,1,3,3
4,09:15-09:30,1,2,2
4,09:30-09:45,1,2,2
4,09:45-10:00,1,2,2
4,10:00-10:15,1,3,3
4,10:15-10:30,1,1,1
4,10:30-10:45,1,2,2
4,10:45-11:00,1,2,2
4,11:00-11:15,1,2,2
4,11:15-11:30,1,2,2
4,11:30-11:45,1,2,2
4,11:45-12:00,1,3,3
4,12:00-12:15,1,3,3
4,12:15-12:30,1,1,1
4,12:30-12:45,1,2,2
4,12:45-13:00,1,2,2
4,13:00-13:15,1,2,2
4,13:15-13:30,1,2,2
4,13:30-13:45,1,3,3
4,13:45-14:00,1,2,2
4,14:00-14:15,1,3,3
4,14:15-14:30,1,4,4
4,14:30-14:45,1,3,3
4,14:45-15:00,1,4,4
4,15:00-15:15,1,2,2
4,15:15-15:30,1,2,2
4,15:30-15:45,1,3,3
4,15:45-16:00,1,3,3
4,16:00-16:15,1,3,3
4,16:15-16:30,1,4,4
4,16:30-16:45,1,4,4
4,16:45-17:00,1,2,2
4,17:00-17:15,1,3,3
4,17:15-17:30,1,2,2
4,17:30-17:45,1,2,2
4,17:45-18:00,1,2,2
4,18:00-18:15,1,3,3
4,18:15-18:30,1,3,3
4,18:30-18:45,1,2,2
4,18:45-19:00,1,2,2
4,19:00-19:15,1,3,3
4,19:15-19:30,1,3,3
4,19:30-19:45,1,1,1
4,19:45-20:00,1,3,3
4,20:00-20:15,1,2,2
4,20:15-20:30,1,1,1
4,20:30-20:45,1,3,3
4,20:45-21:00,1,2,2
4,21:00-21:15,1,4,4
4,21:15-21:30,1,3,3
4,21:30-21:45,1,3,3
4,21:45-22:00,1,3,3
4,22:00-22:15,1,3,3
4,22:15-22:30,1,3,3
4,22:30-22:45,1,3,3
4,22:45-23:00,1,3,3
4,23:00-23:15,1,2,2
4,23:15-23:30,1,3,3
4,23:30-23:45,1,3,3
4,23:45-00:00,1,2,2
5,00:00-00:15,1,3,3
5,00:15-00:30,1,3,3
5,00:30-00:45,1,4,4
5,00:45-01:00,1,3,3
5,01:00-01:15,1,2,2
5,01:15-01:30,1,1,1
5,01:30-01:45,1,2,2
5,01:45-02:00,1,2,2
5,02:00-02:15,1,2,2
5,02:15-02:30,1,1,1
5,02:30-02:45,1,2,2
5,02:45-03:00,1,3,3
5,03:00-03:15,1,2,2
5,03:15-03:30,1,2,2
5,03:30-03:45,1,2,2
5,03:45-04:00,1,3,3
5,04:00-04:15,1,2,2
5,04:15-04:30,1,2,2
5,04:30-04:45,1,2,2
5,04:45-05:00,1,3,3
5,05:00-05:15,1,1,1
5,05:15-05:30,1,1,1
5,05:30-05:45,1,2,2
5,05:45-06:00,1,1,1
5,06:00-06:15,1,2,2
5,06:15-06:30,1,2,2
5,06:30-06:45,1,3,3
5,06:45-07:00,1,2,2
5,07:00-07:15,1,2,2
5,07:15-07:30,1,2,2
5,07:30-07:45,1,2,2
5,07:45-08:00,1,3,3
5,08:00-08:15,1,3,3
5,08:15-08:30,1,2,2
5,08:30-08:45,1,3,3
5,08:45-09:00,1,1,1
5,09:00-09:15,1,4,4
5,09:15-09:30,1,3,3
5,09:30-09:45,1,2,2
5,09:45-10:00,1,2,2
5,10:00-10:15,1,3,3
5,10:15-10:30,1,2,2
5,10:30-10:45,1,2,2
5,10:45-11:00,1,3,3
5,11:00-11:15,1,2,2
5,11:15-11:30,1,3,3
5,11:30-11:45,1,1,1
5,11:45-12:00,1,3,3
5,12:00-12:15,1,2,2
5,12:15-12:30,1,2,2
5,12:30-12:45,1,3,3
5,12:45-13:00,1,2,2
5,13:00-13:15,1,3,3
5,13:15-13:30,1,2,2
5,13:30-13:45,1,2,2
5,13:45-14:00,1,2,2
5,14:00-14:15,1,1,1
5,14:15-14:30,1,3,3
5,14:30-14:45,1,1,1
5,14:45-15:00,1,3,3
5,15:00-15:15,1,2,2
5,15:15-15:30,1,1,1
5,15:30-15:45,1,1,1
5,15:45-16:00,1,3,3
5,16:00-16:15,1,2,2
5,16:15-16:30,1,2,2
5,16:30-16:45,1,3,3
5,16:45-17:00,1,2,2
5,17:00-17:15,1,3,3
5,17:15-17:30,1,3,3
5,17:30-17:45,1,4,4
5,17:45-18:00,1,4,4
5,18:00-18:15,1,4,4
5,18:15-18:30,1,4,4
5,18:30-18:45,1,2,2
5,18:45-19:00,1,3,3
5,19:00-19:15,1,3,3
5,19:15-19:30,1,3,3
5,19:30-19:45,1,3,3
5,19:45-20:00,1,2,2
5,20:00-20:15,1,2,2
5,20:15-20:30,1,3,3
5,20:30-20:45,1,2,2
5,20:45-21:00,1,3,3
5,21:00-21:15,1,2,2
5,21:15-21:30,1,3,3
5,21:30-21:45,1,1,1
5,21:45-22:00,1,2,2
5,22:00-22:15,1,1,1
5,22:15-22:30,1,3,3
5,22:30-22:45,1,1,1
5,22:45-23:00,1,1,1
5,23:00-23:15,1,3,3
5,23:15-23:30,1,3,3
5,23:30-23:45,1,2,2
5,23:45-00:00,1,4,4
6,00:00-00:15,1,3,3
6,00:15-00:30,1,3,3
6,00:30-00:45,1,2,2
6,00:45-01:00,1,4,4
6,01:00-01:15,1,4,4
6,01:15-01:30,1,3,3
6,01:30-01:45,1,3,3
6,01:45-02:00,1,2,2
6,02:00-02:15,1,3,3
6,02:15-02:30,1,4,4
6,02:30-02:45,1,4,4
6,02:45-03:00,1,4,4
6,03:00-03:15,1,2,2
6,03:15-03:30,1,3,3
6,03:30-03:45,1,2,2
6,03:45-04:00,1,1,1
6,04:00-04:15,1,1,1
6,04:15-04:30,1,2,2
6,04:30-04:45,1,2,2
6,04:45-05:00,1,2,2
6,05:00-05:15,1,2,2
6,05:15-05:30,1,2,2
6,05:30-05:45,1,2,2
6,05:45-06:00,1,2,2
6,06:00-06:15,1,2,2
6,06:15-06:30,1,2,2
6,06:30-06:45,1,2,2
6,06:45-07:00,1,2,2
6,07:00-07:15,1,2,2
6,07:15-07:30,1,3,3
6,07:30-07:45,1,3,3
6,07:45-08:00,1,4,4
6,08:00-08:15,1,4,4
6,08:15-08:30,1,3,3
6,08:30-08:45,1,2,2
6,08:45-09:00,1,3,3
6,09:00-09:15,1,3,3
6,09:15-09:30,1,3,3
6,09:30-09:45,1,2,2
6,09:45-10:00,1,3,3
6,10:00-10:15,1,2,2
6,10:15-10:30,1,2,2
6,10:30-10:45,1,2,2
6,10:45-11:00,1,3,3
6,11:00-11:15,1,1,1
6,11:15-11:30,1,2,2
6,11:30-11:45,1,3,3
6,11:45-12:00,1,1,1
6,12:00-12:15,1,2,2
6,12:15-12:30,1,3,3
6,12:30-12:45,1,3,3
6,12:45-13:00,1,3,3
6,13:00-13:15,1,2,2
6,13:15-13:30,1,3,3
6,13:30-13:45,1,2,2
6,13:45-14:00,1,1,1
6,14:00-14:15,1,4,4
6,14:15-14:30,1,3,3
6,14:30-14:45,1,3,3
6,14:45-15:00,1,3,3
6,15:00-15:15,1,4,4
6,15:15-15:30,1,4,4
6,15:30-15:45,1,3,3
6,15:45-16:00,1,3,3
6,16:00-16:15,1,3,3
6,16:15-16:30,1,4,4
6,16:30-16:45,1,1,1
6,16:45-17:00,1,1,1
6,17:00-17:15,1,3,3
6,17:15-17:30,1,4,4
6,17:30-17:45,1,2,2
6,17:45-18:00,1,2,2
6,18:00-18:15,1,3,3
6,18:15-18:30,1,2,2
6,18:30-18:45,1,3,3
6,18:45-19:00,1,3,3
6,19:00-19:15,1,1,1
6,19:15-19:30,1,2,2
6,19:30-19:45,1,2,2
6,19:45-20:00,1,3,3
6,20:00-20:15,1,3,3
6,20:15-20:30,1,2,2
6,20:30-20:45,1,2,2
6,20:45-21:00,1,2,2
6,21:00-21:15,1,1,1
6,21:15-21:30,1,2,2
6,21:30-21:45,1,1,1
6,21:45-22:00,1,3,3
6,22:00-22:15,1,3,3
6,22:15-22:30,1,1,1
6,22:30-22:45,1,2,2
6,22:45-23:00,1,2,2
6,23:00-23:15,1,2,2
6,23:15-23:30,1,3,3
6,23:30-23:45,1,2,2
6,23:45-00:00,1,2,2
7,00:00-00:15,1,2,2
7,00:15-00:30,1,3,3
7,00:30-00:45,1,3,3
7,00:45-01:00,1,3,3
7,01:00-01:15,1,2,2
7,01:15-01:30,1,3,3
7,01:30-01:45,1,3,3
7,01:45-02:00,1,3,3
7,02:00-02:15,1,4,4
7,02:15-02:30,1,3,3
7,02:30-02:45,1,2,2
7,02:45-03:00,1,3,3
7,03:00-03:15,1,3,3
7,03:15-03:30,1,2,2
7,03:30-03:45,1,1,1
7,03:45-04:00,1,2,2
7,04:00-04:15,1,3,3
7,04:15-04:30,1,2,2
7,04:30-04:45,1,2,2
7,04:45-05:00,1,2,2
7,05:00-05:15,1,2,2
7,05:15-05:30,1,3,3
7,05:30-05:45,1,2,2
7,05:45-06:00,1,3,3
7,06:00-06:15,1,3,3
7,06:15-06:30,1,2,2
7,06:30-06:45,1,1,1
7,06:45-07:00,1,2,2
7,07:00-07:15,1,1,1
7,07:15-07:30,1,3,3
7,07:30-07:45,1,1,1
7,07:45-08:00,1,2,2
7,08:00-08:15,1,2,2
7,08:15-08:30,1,1,1
7,08:30-08:45,1,3,3
7,08:45-09:00,1,2,2
7,09:00-09:15,1,1,1
7,09:15-09:30,1,2,2
7,09:30-09:45,1,3,3
7,09:45-10:00,1,1,1
7,10:00-10:15,1,3,3
7,10:15-10:30,1,2,2
7,10:30-10:45,1,3,3
7,10:45-11:00,1,2,2
7,11:00-11:15,1,2,2
7,11:15-11:30,1,3,3
7,11:30-11:45,1,2,2
7,11:45-12:00,1,2,2
7,12:00-12:15,1,3,3
7,12:15-12:30,1,1,1
7,12:30-12:45,1,2,2
7,12:45-13:00,1,2,2
7,13:00-13:15,1,2,2
7,13:15-13:30,1,3,3
7,13:30-13:45,1,1,1
7,13:45-14:00,1,1,1
7,14:00-14:15,1,3,3
7,14:15-14:30,1,2,2
7,14:30-14:45,1,2,2
7,14:45-15:00,1,2,2
7,15:00-15:15,1,2,2
7,15:15-15:30,1,3,3
7,15:30-15:45,1,2,2
7,15:45-16:00,1,3,3
7,16:00-16:15,1,2,2
7,16:15-16:30,1,3,3
7,16:30-16:45,1,2,2
7,16:45-17:00,1,2,2
7,17:00-17:15,1,4,4
7,17:15-17:30,1,3,3
7,17:30-17:45,1,3,3
7,17:45-18:00,1,3,3
7,18:00-18:15,1,4,4
7,18:15-18:30,1,3,3
7,18:30-18:45,1,3,3
7,18:45-19:00,1,2,2
7,19:00-19:15,1,1,1
7,19:15-19:30,1,2,2
7,19:30-19:45,1,2,2
7,19:45-20:00,1,3,3
7,20:00-20:15,1,4,4
7,20:15-20:30,1,4,4
7,20:30-20:45,1,4,4
7,20:45-21:00,1,4,4
7,21:00-21:15,1,3,3
7,21:15-21:30,1,3,3
7,21:30-21:45,1,4,4
7,21:45-22:00,1,3,3
7,22:00-22:15,1,2,2
7,22:15-22:30,1,2,2
7,22:30-22:45,1,2,2
7,22:45-23:00,1,3,3
7,23:00-23:15,1,4,4
7,23:15-23:30,1,3,3
7,23:30-23:45,1,3,3
7,23:45-00:00,1,3,3
8,00:00-00:15,1,4,4
8,00:15-00:30,1,4,4
8,00:30-00:45,1,4,4
8,00:45-01:00,1,4,4
8,01:00-01:15,1,4,4
8,01:15-01:30,1,3,3
8,01:30-01:45,1,3,3
8,01:45-02:00,1,3,3
8,02:00-02:15,1,3,3
8,02:15-02:30,1,4,4
8,02:30-02:45,1,3,3
8,02:45-03:00,1,1,1
8,03:00-03:15,1,2,2
8,03:15-03:30,1,1,1
8,03:30-03:45,1,1,1
8,03:45-04:00,1,2,2
8,04:00-04:15,1,1,1
8,04:15-04:30,1,2,2
8,04:30-04:45,1,3,3
8,04:45-05:00,1,3,3
8,05:00-05:15,1,1,1
8,05:15-05:30,1,2,2
8,05:30-05:45,1,2,2
8,05:45-06:00,1,3,3
8,06:00-06:15,1,3,3
8,06:15-06:30,1,2,2
8,06:30-06:45,1,2,2
8,06:45-07:00,1,3,3
8,07:00-07:15,1,4,4
8,07:15-07:30,1,2,2
8,07:30-07:45,1,3,3
8,07:45-08:00,1,3,3
8,08:00-08:15,1,2,2
8,08:15-08:30,1,1,1
8,08:30-08:45,1,2,2
8,08:45-09:00,1,2,2
8,09:00-09:15,1,3,3
8,09:15-09:30,1,3,3
8,09:30-09:45,1,2,2
8,09:45-10:00,1,2,2
8,10:00-10:15,1,2,2
8,10:15-10:30,1,2,2
8,10:30-10:45,1,2,2
8,10:45-11:00,1,2,2
8,11:00-11:15,1,3,3
8,11:15-11:30,1,3,3
8,11:30-11:45,1,1,1
8,11:45-12:00,1,1,1
8,12:00-12:15,1,2,2
8,12:15-12:30,1,3,3
8,12:30-12:45,1,2,2
8,12:45-13:00,1,2,2
8,13:00-13:15,1,2,2
8,13:15-13:30,1,3,3
8,13:30-13:45,1,1,1
8,13:45-14:00,1,2,2
8,14:00-14:15,1,3,3
8,14:15-14:30,1,4,4
8,14:30-14:45,1,2,2
8,14:45-15:00,1,3,3
8,15:00-15:15,1,3,3
8,15:15-15:30,1,2,2
8,15:30-15:45,1,3,3
8,15:45-16:00,1,3,3
8,16:00-16:15,1,3,3
8,16:15-16:30,1,3,3
8,16:30-16:45,1,1,1
8,16:45-17:00,1,1,1
8,17:00-17:15,1,1,1
8,17:15-17:30,1,3,3
8,17:30-17:45,1,2,2
8,17:45-18:00,1,3,3
8,18:00-18:15,1,3,3
8,18:15-18:30,1,3,3
8,18:30-18:45,1,2,2
8,18:45-19:00,1,3,3
8,19:00-19:15,1,2,2
8,19:15-19:30,1,2,2
8,19:30-19:45,1,1,1
8,19:45-20:00,1,3,3
8,20:00-20:15,1,2,2
8,20:15-20:30,1,1,1
8,20:30-20:45,1,3,3
8,20:45-21:00,1,3,3
8,21:00-21:15,1,3,3
8,21:15-21:30,1,2,2
8,21:30-21:45,1,3,3
8,21:45-22:00,1,2,2
8,22:00-22:15,1,1,1
8,22:15-22:30,1,4,4
8,22:30-22:45,1,4,4
8,22:45-23:00,1,3,3
8,23:00-23:15,1,3,3
8,23:15-23:30,1,4,4
8,23:30-23:45,1,2,2
8,23:45-00:00,1,3,3
9,00:00-00:15,1,3,3
9,00:15-00:30,1,3,3
9,00:30-00:45,1,2,2
9,00:45-01:00,1,3,3
9,01:00-01:15,1,3,3
9,01:15-01:30,1,4,4
9,01:30-01:45,1,4,4
9,01:45-02:00,1,3,3
9,02:00-02:15,1,2,2
9,02:15-02:30,1,2,2
9,02:30-02:45,1,1,1
9,02:45-03:00,1,2,2
9,03:00-03:15,1,2,2
9,03:15-03:30,1,2,2
9,03:30-03:45,1,3,3
9,03:45-04:00,1,1,1
9,04:00-04:15,1,3,3
9,04:15-04:30,1,1,1
9,04:30-04:45,1,3,3
9,04:45-05:00,1,2,2
9,05:00-05:15,1,2,2
9,05:15-05:30,1,3,3
9,05:30-05:45,1,3,3
9,05:45-06:00,1,1,1
9,06:00-06:15,1,2,2
9,06:15-06:30,1,3,3
9,06:30-06:45,1,2,2
9,06:45-07:00,1,3,3
9,07:00-07:15,1,2,2
9,07:15-07:30,1,4,4
9,07:30-07:45,1,2,2
9,07:45-08:00,1,3,3
9,08:00-08:15,1,3,3
9,08:15-08:30,1,1,1
9,08:30-08:45,1,1,1
9,08:45-09:00,1,3,3
9,09:00-09:15,1,3,3
9,09:15-09:30,1,3,3
9,09:30-09:45,1,2,2
9,09:45-10:00,1,2,2
9,10:00-10:15,1,1,1
9,10:15-10:30,1,1,1
9,10:30-10:45,1,2,2
9,10:45-11:00,1,2,2
9,11:00-11:15,1,2,2
9,11:15-11:30,1,2,2
9,11:30-11:45,1,3,3
9,11:45-12:00,1,2,2
9,12:00-12:15,1,3,3
9,12:15-12:30,1,3,3
9,12:30-12:45,1,2,2
9,12:45-13:00,1,2,2
9,13:00-13:15,1,3,3
9,13:15-13:30,1,2,2
9,13:30-13:45,1,3,3
9,13:45-14:00,1,3,3
9,14:00-14:15,1,4,4
9,14:15-14:30,1,4,4
9,14:30-14:45,1,2,2
9,14:45-15:00,1,4,4
9,15:00-15:15,1,4,4
9,15:15-15:30,1,3,3
9,15:30-15:45,1,3,3
9,15:45-16:00,1,4,4
9,16:00-16:15,1,3,3
9,16:15-16:30,1,3,3
9,16:30-16:45,1,3,3
9,16:45-17:00,1,2,2
9,17:00-17:15,1,1,1
9,17:15-17:30,1,3,3
9,17:30-17:45,1,3,3
9,17:45-18:00,1,3,3
9,18:00-18:15,1,4,4
9,18:15-18:30,1,3,3
9,18:30-18:45,1,3,3
9,18:45-19:00,1,3,3
9,19:00-19:15,1,2,2
9,19:15-19:30,1,2,2
9,19:30-19:45,1,3,3
9,19:45-20:00,1,3,3
9,20:00-20:15,1,3,3
9,20:15-20:30,1,2,2
9,20:30-20:45,1,2,2
9,20:45-21:00,1,2,2
9,21:00-21:15,1,1,1
9,21:15-21:30,1,3,3
9,21:30-21:45,1,2,2
9,21:45-22:00,1,3,3
9,22:00-22:15,1,1,1
9,22:15-22:30,1,2,2
9,22:30-22:45,1,2,2
9,22:45-23:00,1,3,3
9,23:00-23:15,1,3,3
9,23:15-23:30,1,3,3
9,23:30-23:45,1,4,4
9,23:45-00:00,1,3,3
10,00:00-00:15,1,3,3
10,00:15-00:30,1,3,3
10,00:30-00:45,1,4,4
10,00:45-01:00,1,4,4
10,01:00-01:15,1,3,3
10,01:15-01:30,1,3,3
10,01:30-01:45,1,3,3
10,01:45-02:00,1,4,4
10,02:00-02:15,1,4,4
10,02:15-02:30,1,3,3
10,02:30-02:45,1,3,3
10,02:45-03:00,1,3,3
10,03:00-03:15,1,2,2
10,03:15-03:30,1,4,4
10,03:30-03:45,1,3,3
10,03:45-04:00,1,1,1
10,04:00-04:15,1,1,1
10,04:15-04:30,1,2,2
10,04:30-04:45,1,1,1
10,04:45-05:00,1,2,2
10,05:00-05:15,1,1,1
10,05:15-05:30,1,2,2
10,05:30-05:45,1,3,3
10,05:45-06:00,1,2,2
10,06:00-06:15,1,3,3
10,06:15-06:30,1,2,2
10,06:30-06:45,1,2,2
10,06:45-07:00,1,3,3
10,07:00-07:15,1,3,3
10,07:15-07:30,1,2,2
10,07:30-07:45,1,3,3
10,07:45-08:00,1,3,3
10,08:00-08:15,1,3,3
10,08:15-08:30,1,4,4
10,08:30-08:45,1,3,3
10,08:45-09:00,1,2,2
10,09:00-09:15,1,4,4
10,09:15-09:30,1,4,4
10,09:30-09:45,1,3,3
10,09:45-10:00,1,3,3
10,10:00-10:15,1,3,3
10,10:15-10:30,1,2,2
10,10:30-10:45,1,2,2
10,10:45-11:00,1,2,2
10,11:00-11:15,1,2,2
10,11:15-11:30,1,3,3
10,11:30-11:45,1,2,2
10,11:45-12:00,1,2,2
10,12:00-12:15,1,3,3
10,12:15-12:30,1,3,3
10,12:30-12:45,1,1,1
10,12:45-13:00,1,2,2
10,13:00-13:15,1,2,2
10,13:15-13:30,1,2,2
10,13:30-13:45,1,2,2
10,13:45-14:00,1,1,1
10,14:00-14:15,1,3,3
10,14:15-14:30,1,3,3
10,14:30-14:45,1,2,2
10,14:45-15:00,1,3,3
10,15:00-15:15,1,3,3
10,15:15-15:30,1,3,3
10,15:30-15:45,1,4,4
10,15:45-16:00,1,3,3
10,16:00-16:15,1,4,4
10,16:15-16:30,1,4,4
10,16:30-16:45,1,2,2
10,16:45-17:00,1,2,2
10,17:00-17:15,1,4,4
10,17:15-17:30,1,3,3
10,17:30-17:45,1,3,3
10,17:45-18:00,1,2,2
10,18:00-18:15,1,2,2
10,18:15-18:30,1,4,4
10,18:30-18:45,1,3,3
10,18:45-19:00,1,3,3
10,19:00-19:15,1,3,3
10,19:15-19:30,1,1,1
10,19:30-19:45,1,3,3
10,19:45-20:00,1,3,3
10,20:00-20:15,1,3,3
10,20:15-20:30,1,3,3
10,20:30-20:45,1,1,1
10,20:45-21:00,1,3,3
10,21:00-21:15,1,2,2
10,21:15-21:30,1,2,2
10,21:30-21:45,1,1,1
10,21:45-22:00,1,3,3
10,22:00-22:15,1,3,3
10,22:15-22:30,1,3,3
10,22:30-22:45,1,3,3
10,22:45-23:00,1,2,2
10,23:00-23:15,1,3,3
10,23:15-23:30,1,4,4
10,23:30-23:45,1,4,4
10,23:45-00:00,1,3,3
11,00:00-00:15,1,3,3
11,00:15-00:30,1,3,3
11,00:30-00:45,1,4,4
11,00:45-01:00,1,3,3
11,01:00-01:15,1,4,4
11,01:15-01:30,1,3,3
11,01:30-01:45,1,3,3
11,01:45-02:00,1,3,3
11,02:00-02:15,1,3,3
11,02:15-02:30,1,4,4
11,02:30-02:45,1,3,3
11,02:45-03:00,1,2,2
11,03:00-03:15,1,2,2
11,03:15-03:30,1,2,2
11,03:30-03:45,1,2,2
11,03:45-04:00,1,2,2
11,04:00-04:15,1,2,2
11,04:15-04:30,1,1,1
11,04:30-04:45,1,2,2
11,04:45-05:00,1,2,2
11,05:00-05:15,1,2,2
11,05:15-05:30,1,3,3
11,05:30-05:45,1,2,2
11,05:45-06:00,1,2,2
11,06:00-06:15,1,4,4
11,06:15-06:30,1,2,2
11,06:30-06:45,1,3,3
11,06:45-07:00,1,2,2
11,07:00-07:15,1,3,3
11,07:15-07:30,1,2,2
11,07:30-07:45,1,3,3
11,07:45-08:00,1,2,2
11,08:00-08:15,1,4,4
11,08:15-08:30,1,4,4
11,08:30-08:45,1,4,4
11,08:45-09:00,1,3,3
11,09:00-09:15,1,3,3
11,09:15-09:30,1,3,3
11,09:30-09:45,1,1,1
11,09:45-10:00,1,2,2
11,10:00-10:15,1,2,2
11,10:15-10:30,1,2,2
11,10:30-10:45,1,2,2
11,10:45-11:00,1,3,3
11,11:00-11:15,1,2,2
11,11:15-11:30,1,2,2
11,11:30-11:45,1,3,3
11,11:45-12:00,1,1,1
11,12:00-12:15,1,2,2
11,12:15-12:30,1,2,2
11,12:30-12:45,1,3,3
11,12:45-13:00,1,3,3
11,13:00-13:15,1,2,2
11,13:15-13:30,1,2,2
11,13:30-13:45,1,3,3
11,13:45-14:00,1,2,2
11,14:00-14:15,1,3,3
11,14:15-14:30,1,3,3
11,14:30-14:45,1,4,4
11,14:45-15:00,1,3,3
11,15:00-15:15,1,4,4
11,15:15-15:30,1,3,3
11,15:30-15:45,1,2,2
11,15:45-16:00,1,3,3
11,16:00-16:15,1,3,3
11,16:15-16:30,1,2,2
11,16:30-16:45,1,3,3
11,16:45-17:00,1,3,3
11,17:00-17:15,1,3,3
11,17:15-17:30,1,4,4
11,17:30-17:45,1,4,4
11,17:45-18:00,1,3,3
11,18:00-18:15,1,4,4
11,18:15-18:30,1,2,2
11,18:30-18:45,1,4,4
11,18:45-19:00,1,4,4
11,19:00-19:15,1,3,3
11,19:15-19:30,1,3,3
11,19:30-19:45,1,1,1
11,19:45-20:00,1,1,1
11,20:00-20:15,1,2,2
11,20:15-20:30,1,2,2
11,20:30-20:45,1,3,3
11,20:45-21:00,1,2,2
11,21:00-21:15,1,1,1
11,21:15-21:30,1,2,2
11,21:30-21:45,1,3,3
11,21:45-22:00,1,2,2
11,22:00-22:15,1,3,3
11,22:15-22:30,1,2,2
11,22:30-22:45,1,2,2
11,22:45-23:00,1,4,4
11,23:00-23:15,1,3,3
11,23:15-23:30,1,3,3
11,23:30-23:45,1,3,3
11,23:45-00:00,1,2,2
12,00:00-00:15,1,3,3
12,00:15-00:30,1,2,2
12,00:30-00:45,1,2,2
12,00:45-01:00,1,2,2
12,01:00-01:15,1,2,2
12,01:15-01:30,1,3,3
12,01:30-01:45,1,3,3
12,01:45-02:00,1,4,4
12,02:00-02:15,1,3,3
12,02:15-02:30,1,3,3
12,02:30-02:45,1,4,4
12,02:45-03:00,1,3,3
12,03:00-03:15,1,2,2
12,03:15-03:30,1,1,1
12,03:30-03:45,1,1,1
12,03:45-04:00,1,2,2
12,04:00-04:15,1,2,2
12,04:15-04:30,1,2,2
12,04:30-04:45,1,1,1
12,04:45-05:00,1,3,3
12,05:00-05:15,1,3,3
12,05:15-05:30,1,3,3
12,05:30-05:45,1,2,2
12,05:45-06:00,1,1,1
12,06:00-06:15,1,2,2
12,06:15-06:30,1,2,2
12,06:30-06:45,1,2,2
12,06:45-07:00,1,3,3
12,07:00-07:15,1,3,3
12,07:15-07:30,1,2,2
12,07:30-07:45,1,4,4
12,07:45-08:00,1,2,2
12,08:00-08:15,1,3,3
12,08:15-08:30,1,4,4
12,08:30-08:45,1,2,2
12,08:45-09:00,1,2,2
12,09:00-09:15,1,2,2
12,09:15-09:30,1,3,3
12,09:30-09:45,1,1,1
12,09:45-10:00,1,1,1
12,10:00-10:15,1,3,3
12,10:15-10:30,1,4,4
12,10:30-10:45,1,3,3
12,10:45-11:00,1,3,3
12,11:00-11:15,1,3,3
12,11:15-11:30,1,3,3
12,11:30-11:45,1,4,4
12,11:45-12:00,1,4,4
12,12:00-12:15,1,2,2
12,12:15-12:30,1,3,3
12,12:30-12:45,1,3,3
12,12:45-13:00,1,4,4
12,13:00-13:15,1,3,3
12,13:15-13:30,1,4,4
12,13:30-13:45,1,3,3
12,13:45-14:00,1,3,3
12,14:00-14:15,1,3,3
12,14:15-14:30,1,1,1
12,14:30-14:45,1,2,2
12,14:45-15:00,1,3,3
12,15:00-15:15,1,3,3
12,15:15-15:30,1,2,2
12,15:30-15:45,1,1,1
12,15:45-16:00,1,3,3
12,16:00-16:15,1,4,4
12,16:15-16:30,1,3,3
12,16:30-16:45,1,4,4
12,16:45-17:00,1,2,2
12,17:00-17:15,1,3,3
12,17:15-17:30,1,4,4
12,17:30-17:45,1,3,3
12,17:45-18:00,1,2,2
12,18:00-18:15,1,2,2
12,18:15-18:30,1,1,1
12,18:30-18:45,1,1,1
12,18:45-19:00,1,3,3
12,19:00-19:15,1,2,2
12,19:15-19:30,1,3,3
12,19:30-19:45,1,2,2
12,19:45-20:00,1,1,1
12,20:00-20:15,1,2,2
12,20:15-20:30,1,2,2
12,20:30-20:45,1,1,1
12,20:45-21:00,1,3,3
12,21:00-21:15,1,4,4
12,21:15-21:30,1,2,2
12,21:30-21:45,1,4,4
12,21:45-22:00,1,4,4
12,22:00-22:15,1,3,3
12,22:15-22:30,1,4,4
12,22:30-22:45,1,3,3
12,22:45-23:00,1,3,3
12,23:00-23:15,1,3,3
12,23:15-23:30,1,2,2
12,23:30-23:45,1,1,1
12,23:45-00:00,1,2,2
13,00:00-00:15,1,4,4
13,00:15-00:30,1,2,2
13,00:30-00:45,1,3,3
13,00:45-01:00,1,2,2
13,01:00-01:15,1,3,3
13,01:15-01:30,1,2,2
13,01:30-01:45,1,3,3
13,01:45-02:00,1,3,3
13,02:00-02:15,1,3,3
13,02:15-02:30,1,4,4
13,02:30-02:45,1,2,2
13,02:45-03:00,1,3,3
13,03:00-03:15,1,2,2
13,03:15-03:30,1,2,2
13,03:30-03:45,1,1,1
13,03:45-04:00,1,3,3
13,04:00-04:15,1,2,2
13,04:15-04:30,1,2,2
13,04:30-04:45,1,2,2
13,04:45-05:00,1,2,2
13,05:00-05:15,1,1,1
13,05:15-05:30,1,2,2
13,05:30-05:45,1,3,3
13,05:45-06:00,1,2,2
13,06:00-06:15,1,2,2
13,06:15-06:30,1,3,3
13,06:30-06:45,1,1,1
13,06:45-07:00,1,3,3
13,07:00-07:15,1,2,2
13,07:15-07:30,1,2,2
13,07:30-07:45,1,2,2
13,07:45-08:00,1,2,2
13,08:00-08:15,1,3,3
13,08:15-08:30,1,3,3
13,08:30-08:45,1,3,3
13,08:45-09:00,1,2,2
13,09:00-09:15,1,1,1
13,09:15-09:30,1,2,2
13,09:30-09:45,1,2,2
13,09:45-10:00,1,2,2
13,10:00-10:15,1,1,1
13,10:15-10:30,1,3,3
13,10:30-10:45,1,3,3
13,10:45-11:00,1,3,3
13,11:00-11:15,1,3,3
13,11:15-11:30,1,2,2
13,11:30-11:45,1,1,1
13,11:45-12:00,1,1,1
13,12:00-12:15,1,3,3
13,12:15-12:30,1,2,2
13,12:30-12:45,1,2,2
13,12:45-13:00,1,2,2
13,13:00-13:15,1,3,3
13,13:15-13:30,1,2,2
13,13:30-13:45,1,1,1
13,13:45-14:00,1,2,2
13,14:00-14:15,1,2,2
13,14:15-14:30,1,1,1
13,14:30-14:45,1,2,2
13,14:45-15:00,1,3,3
13,15:00-15:15,1,1,1
13,15:15-15:30,1,3,3
13,15:30-15:45,1,2,2
13,15:45-16:00,1,2,2
13,16:00-16:15,1,3,3
13,16:15-16:30,1,4,4
13,16:30-16:45,1,2,2
13,16:45-17:00,1,3,3
13,17:00-17:15,1,4,4
13,17:15-17:30,1,3,3
13,17:30-17:45,1,3,3
13,17:45-18:00,1,3,3
13,18:00-18:15,1,2,2
13,18:15-18:30,1,1,1
13,18:30-18:45,1,2,2
13,18:45-19:00,1,2,2
13,19:00-19:15,1,3,3
13,19:15-19:30,1,3,3
13,19:30-19:45,1,3,3
13,19:45-20:00,1,1,1
13,20:00-20:15,1,3,3
13,20:15-20:30,1,3,3
13,20:30-20:45,1,3,3
13,20:45-21:00,1,2,2
13,21:00-21:15,1,1,1
13,21:15-21:30,1,2,2
13,21:30-21:45,1,2,2
13,21:45-22:00,1,2,2
13,22:00-22:15,1,2,2
13,22:15-22:30,1,3,3
13,22:30-22:45,1,4,4
13,22:45-23:00,1,2,2
13,23:00-23:15,1,3,3
13,23:15-23:30,1,3,3
13,23:30-23:45,1,2,2
13,23:45-00:00,1,2,2
14,00:00-00:15,1,3,3
14,00:15-00:30,1,4,4
14,00:30-00:45,1,2,2
14,00:45-01:00,1,2,2
14,01:00-01:15,1,4,4
14,01:15-01:30,1,2,2
14,01:30-01:45,1,2,2
14,01:45-02:00,1,3,3
14,02:00-02:15,1,3,3
14,02:15-02:30,1,2,2
14,02:30-02:45,1,2,2
14,02:45-03:00,1,2,2
14,03:00-03:15,1,1,1
14,03:15-03:30,1,3,3
14,03:30-03:45,1,2,2
14,03:45-04:00,1,2,2
14,04:00-04:15,1,2,2
14,04:15-04:30,1,1,1
14,04:30-04:45,1,1,1
14,04:45-05:00,1,2,2
14,05:00-05:15,1,3,3
14,05:15-05:30,1,2,2
14,05:30-05:45,1,1,1
14,05:45-06:00,1,1,1
14,06:00-06:15,1,2,2
14,06:15-06:30,1,1,1
14,06:30-06:45,1,3,3
14,06:45-07:00,1,2,2
14,07:00-07:15,1,2,2
14,07:15-07:30,1,4,4
14,07:30-07:45,1,3,3
14,07:45-08:00,1,3,3
14,08:00-08:15,1,2,2
14,08:15-08:30,1,3,3
14,08:30-08:45,1,3,3
14,08:45-09:00,1,3,3
14,09:00-09:15,1,3,3
14,09:15-09:30,1,2,2
14,09:30-09:45,1,2,2
14,09:45-10:00,1,2,2
14,10:00-10:15,1,3,3
14,10:15-10:30,1,4,4
14,10:30-10:45,1,4,4
14,10:45-11:00,1,3,3
14,11:00-11:15,1,3,3
14,11:15-11:30,1,4,4
14,11:30-11:45,1,3,3
14,11:45-12:00,1,4,4
14,12:00-12:15,1,2,2
14,12:15-12:30,1,3,3
14,12:30-12:45,1,4,4
14,12:45-13:00,1,2,2
14,13:00-13:15,1,3,3
14,13:15-13:30,1,4,4
14,13:30-13:45,1,4,4
14,13:45-14:00,1,2,2
14,14:00-14:15,1,4,4
14,14:15-14:30,1,2,2
14,14:30-14:45,1,4,4
14,14:45-15:00,1,4,4
14,15:00-15:15,1,2,2
14,15:15-15:30,1,3,3
14,15:30-15:45,1,4,4
14,15:45-16:00,1,4,4
14,16:00-16:15,1,2,2
14,16:15-16:30,1,4,4
14,16:30-16:45,1,2,2
14,16:45-17:00,1,1,1
14,17:00-17:15,1,2,2
14,17:15-17:30,1,4,4
14,17:30-17:45,1,3,3
14,17:45-18:00,1,2,2
14,18:00-18:15,1,3,3
14,18:15-18:30,1,2,2
14,18:30-18:45,1,2,2
14,18:45-19:00,1,3,3
14,19:00-19:15,1,2,2
14,19:15-19:30,1,2,2
14,19:30-19:45,1,3,3
14,19:45-20:00,1,2,2
14,20:00-20:15,1,3,3
14,20:15-20:30,1,2,2
14,20:30-20:45,1,1,1
14,20:45-21:00,1,3,3
14,21:00-21:15,1,3,3
14,21:15-21:30,1,2,2
14,21:30-21:45,1,1,1
14,21:45-22:00,1,1,1
14,22:00-22:15,1,2,2
14,22:15-22:30,1,2,2
14,22:30-22:45,1,4,4
14,22:45-23:00,1,3,3
14,23:00-23:15,1,4,4
14,23:15-23:30,1,3,3
14,23:30-23:45,1,3,3
14,23:45-00:00,1,2,2
15,00:00-00:15,1,4,4
15,00:15-00:30,1,2,2
15,00:30-00:45,1,3,3
15,00:45-01:00,1,3,3
15,01:00-01:15,1,3,3
15,01:15-01:30,1,3,3
15,01:30-01:45,1,4,4
15,01:45-02:00,1,3,3
15,02:00-02:15,1,3,3
15,02:15-02:30,1,3,3
15,02:30-02:45,1,2,2
15,02:45-03:00,1,4,4
15,03:00-03:15,1,2,2
15,03:15-03:30,1,3,3
15,03:30-03:45,1,2,2
15,03:45-04:00,1,2,2
15,04:00-04:15,1,2,2
15,04:15-04:30,1,2,2
15,04:30-04:45,1,1,1
15,04:45-05:00,1,2,2
15,05:00-05:15,1,2,2
15,05:15-05:30,1,1,1
15,05:30-05:45,1,1,1
15,05:45-06:00,1,2,2
15,06:00-06:15,1,3,3
15,06:15-06:30,1,3,3
15,06:30-06:45,1,4,4
15,06:45-07:00,1,3,3
15,07:00-07:15,1,4,4
15,07:15-07:30,1,3,3
15,07:30-07:45,1,3,3
15,07:45-08:00,1,3,3
15,08:00-08:15,1,3,3
15,08:15-08:30,1,2,2
15,08:30-08:45,1,3,3
15,08:45-09:00,1,2,2
15,09:00-09:15,1,1,1
15,09:15-09:30,1,2,2
15,09:30-09:45,1,3,3
15,09:45-10:00,1,3,3
15,10:00-10:15,1,2,2
15,10:15-10:30,1,3,3
15,10:30-10:45,1,2,2
15,10:45-11:00,1,2,2
15,11:00-11:15,1,2,2
15,11:15-11:30,1,1,1
15,11:30-11:45,1,3,3
15,11:45-12:00,1,2,2
15,12:00-12:15,1,3,3
15,12:15-12:30,1,2,2
15,12:30-12:45,1,2,2
15,12:45-13:00,1,2,2
15,13:00-13:15,1,2,2
15,13:15-13:30,1,2,2
15,13:30-13:45,1,1,1
15,13:45-14:00,1,3,3
15,14:00-14:15,1,3,3
15,14:15-14:30,1,4,4
15,14:30-14:45,1,4,4
15,14:45-15:00,1,4,4
15,15:00-15:15,1,3,3
15,15:15-15:30,1,3,3
15,15:30-15:45,1,3,3
15,15:45-16:00,1,2,2
15,16:00-16:15,1,3,3
15,16:15-16:30,1,3,3
15,16:30-16:45,1,3,3
15,16:45-17:00,1,4,4
15,17:00-17:15,1,2,2
15,17:15-17:30,1,2,2
15,17:30-17:45,1,3,3
15,17:45-18:00,1,2,2
15,18:00-18:15,1,3,3
15,18:15-18:30,1,3,3
15,18:30-18:45,1,4,4
15,18:45-19:00,1,3,3
15,19:00-19:15,1,2,2
15,19:15-19:30,1,2,2
15,19:30-19:45,1,2,2
15,19:45-20:00,1,2,2
15,20:00-20:15,1,2,2
15,20:15-20:30,1,2,2
15,20:30-20:45,1,2,2
15,20:45-21:00,1,2,2
15,21:00-21:15,1,1,1
15,21:15-21:30,1,2,2
15,21:30-21:45,1,1,1
15,21:45-22:00,1,2,2
15,22:00-22:15,1,2,2
15,22:15-22:30,1,3,3
15,22:30-22:45,1,3,3
15,22:45-23:00,1,2,2
15,23:00-23:15,1,3,3
15,23:15-23:30,1,2,2
15,23:30-23:45,1,3,3
15,23:45-00:00,1,2,2
16,00:00-00:15,1,2,2
16,00:15-00:30,1,2,2
16,00:30-00:45,1,3,3
16,00:45-01:00,1,2,2
16,01:00-01:15,1,2,2
16,01:15-01:30,1,3,3
16,01:30-01:45,1,1,1
16,01:45-02:00,1,3,3
16,02:00-02:15,1,1,1
16,02:15-02:30,1,1,1
16,02:30-02:45,1,3,3
16,02:45-03:00,1,3,3
16,03:00-03:15,1,3,3
16,03:15-03:30,1,2,2
16,03:30-03:45,1,2,2
16,03:45-04:00,1,2,2
16,04:00-04:15,1,3,3
16,04:15-04:30,1,2,2
16,04:30-04:45,1,2,2
16,04:45-05:00,1,3,3
16,05:00-05:15,1,2,2
16,05:15-05:30,1,1,1
16,05:30-05:45,1,3,3
16,05:45-06:00,1,2,2
16,06:00-06:15,1,2,2
16,06:15-06:30,1,3,3
16,06:30-06:45,1,3,3
16,06:45-07:00,1,3,3
16,07:00-07:15,1,3,3
16,07:15-07:30,1,3,3
16,07:30-07:45,1,4,4
16,07:45-08:00,1,3,3
16,08:00-08:15,1,3,3
16,08:15-08:30,1,3,3
16,08:30-08:45,1,2,2
16,08:45-09:00,1,1,1
16,09:00-09:15,1,2,2
16,09:15-09:30,1,2,2
16,09:30-09:45,1,2,2
16,09:45-10:00,1,2,2
16,10:00-10:15,1,2,2
16,10:15-10:30,1,3,3
16,10:30-10:45,1,2,2
16,10:45-11:00,1,3,3
16,11:00-11:15,1,2,2
16,11:15-11:30,1,2,2
16,11:30-11:45,1,3,3
16,11:45-12:00,1,3,3
16,12:00-12:15,1,2,2
16,12:15-12:30,1,1,1
16,12:30-12:45,1,2,2
16,12:45-13:00,1,1,1
16,13:00-13:15,1,3,3
16,13:15-13:30,1,2,2
16,13:30-13:45,1,3,3
16,13:45-14:00,1,2,2
16,14:00-14:15,1,3,3
16,14:15-14:30,1,3,3
16,14:30-14:45,1,3,3
16,14:45-15:00,1,3,3
16,15:00-15:15,1,3,3
16,15:15-15:30,1,4,4
16,15:30-15:45,1,3,3
16,15:45-16:00,1,3,3
16,16:00-16:15,1,2,2
16,16:15-16:30,1,2,2
16,16:30-16:45,1,3,3
16,16:45-17:00,1,3,3
16,17:00-17:15,1,3,3
16,17:15-17:30,1,2,2
16,17:30-17:45,1,2,2
16,17:45-18:00,1,2,2
16,18:00-18:15,1,2,2
16,18:15-18:30,1,2,2
16,18:30-18:45,1,2,2
16,18:45-19:00,1,3,3
16,19:00-19:15,1,2,2
16,19:15-19:30,1,1,1
16,19:30-19:45,1,1,1
16,19:45-20:00,1,1,1
16,20:00-20:15,1,1,1
16,20:15-20:30,1,3,3
16,20:30-20:45,1,2,2
16,20:45-21:00,1,2,2
16,21:00-21:15,1,3,3
16,21:15-21:30,1,2,2
16,21:30-21:45,1,3,3
16,21:45-22:00,1,3,3
16,22:00-22:15,1,3,3
16,22:15-22:30,1,1,1
16,22:30-22:45,1,2,2
16,22:45-23:00,1,3,3
16,23:00-23:15,1,2,2
16,23:15-23:30,1,3,3
16,23:30-23:45,1,1,1
16,23:45-00:00,1,3,3
17,00:00-00:15,1,3,3
17,00:15-00:30,1,4,4
17,00:30-00:45,1,3,3
17,00:45-01:00,1,4,4
17,01:00-01:15,1,4,4
17,01:15-01:30,1,4,4
17,01:30-01:45,1,3,3
17,01:45-02:00,1,3,3
17,02:00-02:15,1,4,4
17,02:15-02:30,1,2,2
17,02:30-02:45,1,2,2
17,02:45-03:00,1,2,2
17,03:00-03:15,1,3,3
17,03:15-03:30,1,4,4
17,03:30-03:45,1,2,2
17,03:45-04:00,1,2,2
17,04:00-04:15,1,2,2
17,04:15-04:30,1,1,1
17,04:30-04:45,1,2,2
17,04:45-05:00,1,3,3
17,05:00-05:15,1,2,2
17,05:15-05:30,1,3,3
17,05:30-05:45,1,2,2
17,05:45-06:00,1,3,3
17,06:00-06:15,1,3,3
17,06:15-06:30,1,3,3
17,06:30-06:45,1,2,2
17,06:45-07:00,1,2,2
17,07:00-07:15,1,2,2
17,07:15-07:30,1,2,2
17,07:30-07:45,1,3,3
17,07:45-08:00,1,2,2
17,08:00-08:15,1,3,3
17,08:15-08:30,1,4,4
17,08:30-08:45,1,3,3
17,08:45-09:00,1,4,4
17,09:00-09:15,1,3,3
17,09:15-09:30,1,3,3
17,09:30-09:45,1,3,3
17,09:45-10:00,1,2,2
17,10:00-10:15,1,2,2
17,10:15-10:30,1,1,1
17,10:30-10:45,1,2,2
17,10:45-11:00,1,3,3
17,11:00-11:15,1,2,2
17,11:15-11:30,1,2,2
17,11:30-11:45,1,2,2
17,11:45-12:00,1,3,3
17,12:00-12:15,1,2,2
17,12:15-12:30,1,2,2
17,12:30-12:45,1,2,2
17,12:45-13:00,1,2,2
17,13:00-13:15,1,2,2
17,13:15-13:30,1,2,2
17,13:30-13:45,1,1,1
17,13:45-14:00,1,2,2
17,14:00-14:15,1,2,2
17,14:15-14:30,1,4,4
17,14:30-14:45,1,2,2
17,14:45-15:00,1,2,2
17,15:00-15:15,1,3,3
17,15:15-15:30,1,2,2
17,15:30-15:45,1,4,4
17,15:45-16:00,1,3,3
17,16:00-16:15,1,3,3
17,16:15-16:30,1,4,4
17,16:30-16:45,1,3,3
17,16:45-17:00,1,3,3
17,17:00-17:15,1,3,3
17,17:15-17:30,1,4,4
17,17:30-17:45,1,4,4
17,17:45-18:00,1,2,2
17,18:00-18:15,1,4,4
17,18:15-18:30,1,3,3
17,18:30-18:45,1,2,2
17,18:45-19:00,1,2,2
17,19:00-19:15,1,1,1
17,19:15-19:30,1,3,3
17,19:30-19:45,1,1,1
17,19:45-20:00,1,1,1
17,20:00-20:15,1,1,1
17,20:15-20:30,1,2,2
17,20:30-20:45,1,3,3
17,20:45-21:00,1,1,1
17,21:00-21:15,1,3,3
17,21:15-21:30,1,2,2
17,21:30-21:45,1,1,1
17,21:45-22:00,1,1,1
17,22:00-22:15,1,2,2
17,22:15-22:30,1,3,3
17,22:30-22:45,1,3,3
17,22:45-23:00,1,2,2
17,23:00-23:15,1,2,2
17,23:15-23:30,1,2,2
17,23:30-23:45,1,3,3
17,23:45-00:00,1,2,2
18,00:00-00:15,1,2,2
18,00:15-00:30,1,4,4
18,00:30-00:45,1,3,3
18,00:45-01:00,1,4,4
18,01:00-01:15,1,4,4
18,01:15-01:30,1,2,2
18,01:30-01:45,1,4,4
18,01:45-02:00,1,3,3
18,02:00-02:15,1,3,3
18,02:15-02:30,1,3,3
18,02:30-02:45,1,3,3
18,02:45-03:00,1,2,2
18,03:00-03:15,1,4,4
18,03:15-03:30,1,3,3
18,03:30-03:45,1,2,2
18,03:45-04:00,1,1,1
18,04:00-04:15,1,3,3
18,04:15-04:30,1,3,3
18,04:30-04:45,1,3,3
18,04:45-05:00,1,3,3
18,05:00-05:15,1,2,2
18,05:15-05:30,1,3,3
18,05:30-05:45,1,3,3
18,05:45-06:00,1,3,3
18,06:00-06:15,1,3,3
18,06:15-06:30,1,2,2
18,06:30-06:45,1,3,3
18,06:45-07:00,1,2,2
18,07:00-07:15,1,1,1
18,07:15-07:30,1,1,1
18,07:30-07:45,1,3,3
18,07:45-08:00,1,2,2
18,08:00-08:15,1,2,2
18,08:15-08:30,1,2,2
18,08:30-08:45,1,1,1
18,08:45-09:00,1,1,1
18,09:00-09:15,1,2,2
18,09:15-09:30,1,1,1
18,09:30-09:45,1,3,3
18,09:45-10:00,1,3,3
18,10:00-10:15,1,2,2
18,10:15-10:30,1,2,2
18,10:30-10:45,1,3,3
18,10:45-11:00,1,2,2
18,11:00-11:15,1,1,1
18,11:15-11:30,1,3,3
18,11:30-11:45,1,1,1
18,11:45-12:00,1,2,2
18,12:00-12:15,1,2,2
18,12:15-12:30,1,2,2
18,12:30-12:45,1,3,3
18,12:45-13:00,1,2,2
18,13:00-13:15,1,2,2
18,13:15-13:30,1,1,1
18,13:30-13:45,1,3,3
18,13:45-14:00,1,2,2
18,14:00-14:15,1,1,1
18,14:15-14:30,1,4,4
18,14:30-14:45,1,2,2
18,14:45-15:00,1,3,3
18,15:00-15:15,1,2,2
18,15:15-15:30,1,2,2
18,15:30-15:45,1,2,2
18,15:45-16:00,1,2,2
18,16:00-16:15,1,2,2
18,16:15-16:30,1,1,1
18,16:30-16:45,1,3,3
18,16:45-17:00,1,2,2
18,17:00-17:15,1,4,4
18,17:15-17:30,1,3,3
18,17:30-17:45,1,3,3
18,17:45-18:00,1,3,3
18,18:00-18:15,1,3,3
18,18:15-18:30,1,2,2
18,18:30-18:45,1,3,3
18,18:45-19:00,1,2,2
18,19:00-19:15,1,2,2
18,19:15-19:30,1,2,2
18,19:30-19:45,1,2,2
18,19:45-20:00,1,3,3
18,20:00-20:15,1,2,2
18,20:15-20:30,1,1,1
18,20:30-20:45,1,1,1
18,20:45-21:00,1,2,2
18,21:00-21:15,1,2,2
18,21:15-21:30,1,2,2
18,21:30-21:45,1,1,1
18,21:45-22:00,1,2,2
18,22:00-22:15,1,2,2
18,22:15-22:30,1,3,3
18,22:30-22:45,1,1,1
18,22:45-23:00,1,4,4
18,23:00-23:15,1,3,3
18,23:15-23:30,1,3,3
18,23:30-23:45,1,2,2
18,23:45-00:00,1,2,2
19,00:00-00:15,1,3,3
19,00:15-00:30,1,2,2
19,00:30-00:45,1,3,3
19,00:45-01:00,1,3,3
19,01:00-01:15,1,1,1
19,01:15-01:30,1,2,2
19,01:30-01:45,1,3,3
19,01:45-02:00,1,3,3
19,02:00-02:15,1,3,3
19,02:15-02:30,1,2,2
19,02:30-02:45,1,3,3
19,02:45-03:00,1,2,2
19,03:00-03:15,1,3,3
19,03:15-03:30,1,3,3
19,03:30-03:45,1,2,2
19,03:45-04:00,1,2,2
19,04:00-04:15,1,1,1
19,04:15-04:30,1,2,2
19,04:30-04:45,1,3,3
19,04:45-05:00,1,2,2
19,05:00-05:15,1,1,1
19,05:15-05:30,1,1,1
19,05:30-05:45,1,3,3
19,05:45-06:00,1,2,2
19,06:00-06:15,1,3,3
19,06:15-06:30,1,2,2
19,06:30-06:45,1,1,1
19,06:45-07:00,1,1,1
19,07:00-07:15,1,2,2
19,07:15-07:30,1,3,3
19,07:30-07:45,1,2,2
19,07:45-08:00,1,2,2
19,08:00-08:15,1,2,2
19,08:15-08:30,1,4,4
19,08:30-08:45,1,3,3
19,08:45-09:00,1,2,2
19,09:00-09:15,1,3,3
19,09:15-09:30,1,3,3
19,09:30-09:45,1,2,2
19,09:45-10:00,1,3,3
19,10:00-10:15,1,2,2
19,10:15-10:30,1,2,2
19,10:30-10:45,1,2,2
19,10:45-11:00,1,1,1
19,11:00-11:15,1,2,2
19,11:15-11:30,1,3,3
19,11:30-11:45,1,2,2
19,11:45-12:00,1,3,3
19,12:00-12:15,1,2,2
19,12:15-12:30,1,2,2
19,12:30-12:45,1,2,2
19,12:45-13:00,1,2,2
19,13:00-13:15,1,3,3
19,13:15-13:30,1,1,1
19,13:30-13:45,1,1,1
19,13:45-14:00,1,2,2
19,14:00-14:15,1,2,2
19,14:15-14:30,1,2,2
19,14:30-14:45,1,4,4
19,14:45-15:00,1,3,3
19,15:00-15:15,1,3,3
19,15:15-15:30,1,4,4
19,15:30-15:45,1,3,3
19,15:45-16:00,1,4,4
19,16:00-16:15,1,3,3
19,16:15-16:30,1,3,3
19,16:30-16:45,1,4,4
19,16:45-17:00,1,4,4
19,17:00-17:15,1,3,3
19,17:15-17:30,1,4,4
19,17:30-17:45,1,4,4
19,17:45-18:00,1,3,3
19,18:00-18:15,1,3,3
19,18:15-18:30,1,1,1
19,18:30-18:45,1,1,1
19,18:45-19:00,1,3,3
19,19:00-19:15,1,2,2
19,19:15-19:30,1,3,3
19,19:30-19:45,1,1,1
19,19:45-20:00,1,1,1
19,20:00-20:15,1,1,1
19,20:15-20:30,1,2,2
19,20:30-20:45,1,2,2
19,20:45-21:00,1,3,3
19,21:00-21:15,1,2,2
19,21:15-21:30,1,1,1
19,21:30-21:45,1,3,3
19,21:45-22:00,1,2,2
19,22:00-22:15,1,2,2
19,22:15-22:30,1,3,3
19,22:30-22:45,1,3,3
19,22:45-23:00,1,2,2
19,23:00-23:15,1,3,3
19,23:15-23:30,1,1,1
19,23:30-23:45,1,3,3
19,23:45-00:00,1,3,3
20,00:00-00:15,1,4,4
20,00:15-00:30,1,3,3
20,00:30-00:45,1,3,3
20,00:45-01:00,1,2,2
20,01:00-01:15,1,2,2
20,01:15-01:30,1,3,3
20,01:30-01:45,1,3,3
20,01:45-02:00,1,2,2
20,02:00-02:15,1,3,3
20,02:15-02:30,1,2,2
20,02:30-02:45,1,3,3
20,02:45-03:00,1,2,2
20,03:00-03:15,1,1,1
20,03:15-03:30,1,2,2
20,03:30-03:45,1,1,1
20,03:45-04:00,1,3,3
20,04:00-04:15,1,2,2
20,04:15-04:30,1,3,3
20,04:30-04:45,1,2,2
20,04:45-05:00,1,2,2
20,05:00-05:15,1,1,1
20,05:15-05:30,1,3,3
20,05:30-05:45,1,2,2
20,05:45-06:00,1,2,2
20,06:00-06:15,1,2,2
20,06:15-06:30,1,2,2
20,06:30-06:45,1,2,2
20,06:45-07:00,1,2,2
20,07:00-07:15,1,3,3
20,07:15-07:30,1,2,2
20,07:30-07:45,1,2,2
20,07:45-08:00,1,3,3
20,08:00-08:15,1,4,4
20,08:15-08:30,1,3,3
20,08:30-08:45,1,2,2
20,08:45-09:00,1,4,4
20,09:00-09:15,1,3,3
20,09:15-09:30,1,3,3
20,09:30-09:45,1,3,3
20,09:45-10:00,1,2,2
20,10:00-10:15,1,4,4
20,10:15-10:30,1,4,4
20,10:30-10:45,1,4,4
20,10:45-11:00,1,4,4
20,11:00-11:15,1,2,2
20,11:15-11:30,1,2,2
20,11:30-11:45,1,3,3
20,11:45-12:00,1,3,3
20,12:00-12:15,1,4,4
20,12:15-12:30,1,2,2
20,12:30-12:45,1,2,2
20,12:45-13:00,1,4,4
20,13:00-13:15,1,3,3
20,13:15-13:30,1,2,2
20,13:30-13:45,1,3,3
20,13:45-14:00,1,4,4
20,14:00-14:15,1,4,4
20,14:15-14:30,1,4,4
20,14:30-14:45,1,3,3
20,14:45-15:00,1,4,4
20,15:00-15:15,1,1,1
20,15:15-15:30,1,1,1
20,15:30-15:45,1,2,2
20,15:45-16:00,1,2,2
20,16:00-16:15,1,2,2
20,16:15-16:30,1,2,2
20,16:30-16:45,1,3,3
20,16:45-17:00,1,3,3
20,17:00-17:15,1,2,2
20,17:15-17:30,1,2,2
20,17:30-17:45,1,3,3
20,17:45-18:00,1,2,2
20,18:00-18:15,1,4,4
20,18:15-18:30,1,2,2
20,18:30-18:45,1,3,3
20,18:45-19:00,1,3,3
20,19:00-19:15,1,4,4
20,19:15-19:30,1,3,3
20,19:30-19:45,1,3,3
20,19:45-20:00,1,2,2
20,20:00-20:15,1,3,3
20,20:15-20:30,1,3,3
20,20:30-20:45,1,2,2
20,20:45-21:00,1,3,3
20,21:00-21:15,1,2,2
20,21:15-21:30,1,3,3
20,21:30-21:45,1,2,2
20,21:45-22:00,1,3,3
20,22:00-22:15,1,2,2
20,22:15-22:30,1,2,2
20,22:30-22:45,1,3,3
20,22:45-23:00,1,4,4
20,23:00-23:15,1,2,2
20,23:15-23:30,1,1,1
20,23:30-23:45,1,2,2
20,23:45-00:00,1,2,2
21,00:00-00:15,1,3,3
21,00:15-00:30,1,3,3
21,00:30-00:45,1,3,3
21,00:45-01:00,1,4,4
21,01:00-01:15,1,3,3
21,01:15-01:30,1,4,4
21,01:30-01:45,1,3,3
21,01:45-02:00,1,4,4
21,02:00-02:15,1,4,4
21,02:15-02:30,1,3,3
21,02:30-02:45,1,4,4
21,02:45-03:00,1,3,3
21,03:00-03:15,1,3,3
21,03:15-03:30,1,2,2
21,03:30-03:45,1,4,4
21,03:45-04:00,1,2,2
21,04:00-04:15,1,1,1
21,04:15-04:30,1,2,2
21,04:30-04:45,1,3,3
21,04:45-05:00,1,1,1
21,05:00-05:15,1,3,3
21,05:15-05:30,1,3,3
21,05:30-05:45,1,2,2
21,05:45-06:00,1,3,3
21,06:00-06:15,1,3,3
21,06:15-06:30,1,3,3
21,06:30-06:45,1,1,1
21,06:45-07:00,1,3,3
21,07:00-07:15,1,2,2
21,07:15-07:30,1,2,2
21,07:30-07:45,1,2,2
21,07:45-08:00,1,3,3
21,08:00-08:15,1,3,3
21,08:15-08:30,1,3,3
21,08:30-08:45,1,4,4
21,08:45-09:00,1,3,3
21,09:00-09:15,1,2,2
21,09:15-09:30,1,3,3
21,09:30-09:45,1,3,3
21,09:45-10:00,1,3,3
21,10:00-10:15,1,3,3
21,10:15-10:30,1,2,2
21,10:30-10:45,1,1,1
21,10:45-11:00,1,2,2
21,11:00-11:15,1,3,3
21,11:15-11:30,1,1,1
21,11:30-11:45,1,2,2
21,11:45-12:00,1,2,2
21,12:00-12:15,1,2,2
21,12:15-12:30,1,2,2
21,12:30-12:45,1,2,2
21,12:45-13:00,1,3,3
21,13:00-13:15,1,2,2
21,13:15-13:30,1,1,1
21,13:30-13:45,1,3,3
21,13:45-14:00,1,2,2
21,14:00-14:15,1,4,4
21,14:15-14:30,1,3,3
21,14:30-14:45,1,4,4
21,14:45-15:00,1,3,3
21,15:00-15:15,1,4,4
21,15:15-15:30,1,2,2
21,15:30-15:45,1,2,2
21,15:45-16:00,1,2,2
21,16:00-16:15,1,2,2
21,16:15-16:30,1,1,1
21,16:30-16:45,1,2,2
21,16:45-17:00,1,2,2
21,17:00-17:15,1,1,1
21,17:15-17:30,1,2,2
21,17:30-17:45,1,4,4
21,17:45-18:00,1,3,3
21,18:00-18:15,1,3,3
21,18:15-18:30,1,4,4
21,18:30-18:45,1,3,3
21,18:45-19:00,1,2,2
21,19:00-19:15,1,3,3
21,19:15-19:30,1,4,4
21,19:30-19:45,1,3,3
21,19:45-20:00,1,3,3
21,20:00-20:15,1,2,2
21,20:15-20:30,1,3,3
21,20:30-20:45,1,2,2
21,20:45-21:00,1,3,3
21,21:00-21:15,1,3,3
21,21:15-21:30,1,2,2
21,21:30-21:45,1,2,2
21,21:45-22:00,1,2,2
21,22:00-22:15,1,1,1
21,22:15-22:30,1,3,3
21,22:30-22:45,1,4,4
21,22:45-23:00,1,4,4
21,23:00-23:15,1,4,4
21,23:15-23:30,1,3,3
21,23:30-23:45,1,2,2
21,23:45-00:00,1,3,3
22,00:00-00:15,1,2,2
22,00:15-00:30,1,4,4
22,00:30-00:45,1,3,3
22,00:45-01:00,1,3,3
22,01:00-01:15,1,3,3
22,01:15-01:30,1,3,3
22,01:30-01:45,1,2,2
22,01:45-02:00,1,2,2
22,02:00-02:15,1,3,3
22,02:15-02:30,1,2,2
22,02:30-02:45,1,3,3
22,02:45-03:00,1,3,3
22,03:00-03:15,1,3,3
22,03:15-03:30,1,2,2
22,03:30-03:45,1,3,3
22,03:45-04:00,1,1,1
22,04:00-04:15,1,2,2
22,04:15-04:30,1,3,3
22,04:30-04:45,1,3,3
22,04:45-05:00,1,1,1
22,05:00-05:15,1,3,3
22,05:15-05:30,1,3,3
22,05:30-05:45,1,2,2
22,05:45-06:00,1,3,3
22,06:00-06:15,1,3,3
22,06:15-06:30,1,3,3
22,06:30-06:45,1,2,2
22,06:45-07:00,1,4,4
22,07:00-07:15,1,3,3
22,07:15-07:30,1,2,2
22,07:30-07:45,1,3,3
22,07:45-08:00,1,4,4
22,08:00-08:15,1,4,4
22,08:15-08:30,1,2,2
22,08:30-08:45,1,4,4
22,08:45-09:00,1,4,4
22,09:00-09:15,1,3,3
22,09:15-09:30,1,3,3
22,09:30-09:45,1,2,2
22,09:45-10:00,1,3,3
22,10:00-10:15,1,3,3
22,10:15-10:30,1,2,2
22,10:30-10:45,1,1,1
22,10:45-11:00,1,3,3
22,11:00-11:15,1,3,3
22,11:15-11:30,1,3,3
22,11:30-11:45,1,3,3
22,11:45-12:00,1,2,2
22,12:00-12:15,1,2,2
22,12:15-12:30,1,3,3
22,12:30-12:45,1,2,2
22,12:45-13:00,1,3,3
22,13:00-13:15,1,2,2
22,13:15-13:30,1,3,3
22,13:30-13:45,1,2,2
22,13:45-14:00,1,2,2
22,14:00-14:15,1,3,3
22,14:15-14:30,1,3,3
22,14:30-14:45,1,4,4
22,14:45-15:00,1,4,4
22,15:00-15:15,1,2,2
22,15:15-15:30,1,3,3
22,15:30-15:45,1,3,3
22,15:45-16:00,1,3,3
22,16:00-16:15,1,3,3
22,16:15-16:30,1,3,3
22,16:30-16:45,1,3,3
22,16:45-17:00,1,4,4
22,17:00-17:15,1,4,4
22,17:15-17:30,1,2,2
22,17:30-17:45,1,3,3
22,17:45-18:00,1,2,2
22,18:00-18:15,1,3,3
22,18:15-18:30,1,1,1
22,18:30-18:45,1,2,2
22,18:45-19:00,1,2,2
22,19:00-19:15,1,2,2
22,19:15-19:30,1,3,3
22,19:30-19:45,1,1,1
22,19:45-20:00,1,3,3
22,20:00-20:15,1,3,3
22,20:15-20:30,1,1,1
22,20:30-20:45,1,1,1
22,20:45-21:00,1,2,2
22,21:00-21:15,1,2,2
22,21:15-21:30,1,2,2
22,21:30-21:45,1,2,2
22,21:45-22:00,1,3,3
22,22:00-22:15,1,2,2
22,22:15-22:30,1,2,2
22,22:30-22:45,1,2,2
22,22:45-23:00,1,1,1
22,23:00-23:15,1,2,2
22,23:15-23:30,1,2,2
22,23:30-23:45,1,4,4
22,23:45-00:00,1,3,3
23,00:00-00:15,1,4,4
23,00:15-00:30,1,3,3
23,00:30-00:45,1,2,2
23,00:45-01:00,1,3,3
23,01:00-01:15,1,3,3
23,01:15-01:30,1,2,2
23,01:30-01:45,1,3,3
23,01:45-02:00,1,3,3
23,02:00-02:15,1,2,2
23,02:15-02:30,1,3,3
23,02:30-02:45,1,3,3
23,02:45-03:00,1,2,2
23,03:00-03:15,1,2,2
23,03:15-03:30,1,1,1
23,03:30-03:45,1,3,3
23,03:45-04:00,1,2,2
23,04:00-04:15,1,2,2
23,04:15-04:30,1,1,1
23,04:30-04:45,1,3,3
23,04:45-05:00,1,3,3
23,05:00-05:15,1,1,1
23,05:15-05:30,1,3,3
23,05:30-05:45,1,1,1
23,05:45-06:00,1,1,1
23,06:00-06:15,1,1,1
23,06:15-06:30,1,3,3
23,06:30-06:45,1,3,3
23,06:45-07:00,1,3,3
23,07:00-07:15,1,3,3
23,07:15-07:30,1,3,3
23,07:30-07:45,1,4,4
23,07:45-08:00,1,4,4
23,08:00-08:15,1,3,3
23,08:15-08:30,1,2,2
23,08:30-08:45,1,3,3
23,08:45-09:00,1,2,2
23,09:00-09:15,1,3,3
23,09:15-09:30,1,4,4
23,09:30-09:45,1,2,2
23,09:45-10:00,1,3,3
23,10:00-10:15,1,3,3
23,10:15-10:30,1,3,3
23,10:30-10:45,1,3,3
23,10:45-11:00,1,3,3
23,11:00-11:15,1,2,2
23,11:15-11:30,1,2,2
23,11:30-11:45,1,3,3
23,11:45-12:00,1,3,3
23,12:00-12:15,1,3,3
23,12:15-12:30,1,4,4
23,12:30-12:45,1,4,4
23,12:45-13:00,1,3,3
23,13:00-13:15,1,3,3
23,13:15-13:30,1,4,4
23,13:30-13:45,1,2,2
23,13:45-14:00,1,3,3
23,14:00-14:15,1,3,3
23,14:15-14:30,1,2,2
23,14:30-14:45,1,2,2
23,14:45-15:00,1,3,3
23,15:00-15:15,1,4,4
23,15:15-15:30,1,3,3
23,15:30-15:45,1,1,1
23,15:45-16:00,1,2,2
23,16:00-16:15,1,2,2
23,16:15-16:30,1,2,2
23,16:30-16:45,1,3,3
23,16:45-17:00,1,3,3
23,17:00-17:15,1,3,3
23,17:15-17:30,1,3,3
23,17:30-17:45,1,3,3
23,17:45-18:00,1,2,2
23,18:00-18:15,1,2,2
23,18:15-18:30,1,2,2
23,18:30-18:45,1,2,2
23,18:45-19:00,1,2,2
23,19:00-19:15,1,2,2
23,19:15-19:30,1,2,2
23,19:30-19:45,1,3,3
23,19:45-20:00,1,1,1
23,20:00-20:15,1,2,2
23,20:15-20:30,1,3,3
23,20:30-20:45,1,3,3
23,20:45-21:00,1,3,3
23,21:00-21:15,1,4,4
23,21:15-21:30,1,3,3
23,21:30-21:45,1,3,3
23,21:45-22:00,1,3,3
23,22:00-22:15,1,3,3
23,22:15-22:30,1,3,3
23,22:30-22:45,1,2,2
23,22:45-23:00,1,2,2
23,23:00-23:15,1,3,3
23,23:15-23:30,1,2,2
23,23:30-23:45,1,4,4
23,23:45-00:00,1,2,2
24,00:00-00:15,1,3,3
24,00:15-00:30,1,3,3
24,00:30-00:45,1,4,4
24,00:45-01:00,1,3,3
24,01:00-01:15,1,2,2
24,01:15-01:30,1,2,2
24,01:30-01:45,1,4,4
24,01:45-02:00,1,4,4
24,02:00-02:15,1,4,4
24,02:15-02:30,1,3,3
24,02:30-02:45,1,3,3
24,02:45-03:00,1,2,2
24,03:00-03:15,1,2,2
24,03:15-03:30,1,3,3
24,03:30-03:45,1,2,2
24,03:45-04:00,1,3,3
24,04:00-04:15,1,1,1
24,04:15-04:30,1,3,3
24,04:30-04:45,1,2,2
24,04:45-05:00,1,3,3
24,05:00-05:15,1,2,2
24,05:15-05:30,1,2,2
24,05:30-05:45,1,2,2
24,05:45-06:00,1,3,3
24,06:00-06:15,1,2,2
24,06:15-06:30,1,2,2
24,06:30-06:45,1,2,2
24,06:45-07:00,1,3,3
24,07:00-07:15,1,1,1
24,07:15-07:30,1,2,2
24,07:30-07:45,1,2,2
24,07:45-08:00,1,3,3
24,08:00-08:15,1,3,3
24,08:15-08:30,1,3,3
24,08:30-08:45,1,2,2
24,08:45-09:00,1,2,2
24,09:00-09:15,1,2,2
24,09:15-09:30,1,2,2
24,09:30-09:45,1,3,3
24,09:45-10:00,1,1,1
24,10:00-10:15,1,2,2
24,10:15-10:30,1,3,3
24,10:30-10:45,1,2,2
24,10:45-11:00,1,2,2
24,11:00-11:15,1,3,3
24,11:15-11:30,1,3,3
24,11:30-11:45,1,2,2
24,11:45-12:00,1,1,1
24,12:00-12:15,1,2,2
24,12:15-12:30,1,3,3
24,12:30-12:45,1,2,2
24,12:45-13:00,1,3,3
24,13:00-13:15,1,3,3
24,13:15-13:30,1,3,3
24,13:30-13:45,1,2,2
24,13:45-14:00,1,3,3
24,14:00-14:15,1,3,3
24,14:15-14:30,1,3,3
24,14:30-14:45,1,2,2
24,14:45-15:00,1,4,4
24,15:00-15:15,1,3,3
24,15:15-15:30,1,2,2
24,15:30-15:45,1,3,3
24,15:45-16:00,1,3,3
24,16:00-16:15,1,3,3
24,16:15-16:30,1,2,2
24,16:30-16:45,1,2,2
24,16:45-17:00,1,3,3
24,17:00-17:15,1,4,4
24,17:15-17:30,1,3,3
24,17:30-17:45,1,3,3
24,17:45-18:00,1,2,2
24,18:00-18:15,1,3,3
24,18:15-18:30,1,1,1
24,18:30-18:45,1,2,2
24,18:45-19:00,1,3,3
24,19:00-19:15,1,3,3
24,19:15-19:30,1,2,2
24,19:30-19:45,1,3,3
24,19:45-20:00,1,2,2
24,20:00-20:15,1,1,1
24,20:15-20:30,1,2,2
24,20:30-20:45,1,2,2
24,20:45-21:00,1,2,2
24,21:00-21:15,1,1,1
24,21:15-21:30,1,3,3
24,21:30-21:45,1,3,3
24,21:45-22:00,1,2,2
24,22:00-22:15,1,3,3
24,22:15-22:30,1,1,1
24,22:30-22:45,1,2,2
24,22:45-23:00,1,2,2
24,23:00-23:15,1,3,3
24,23:15-23:30,1,2,2
24,23:30-23:45,1,4,4
24,23:45-00:00,1,3,3
25,00:00-00:15,1,2,2
25,00:15-00:30,1,1,1
25,00:30-00:45,1,2,2
25,00:45-01:00,1,3,3
25,01:00-01:15,1,3,3
25,01:15-01:30,1,1,1
25,01:30-01:45,1,2,2
25,01:45-02:00,1,3,3
25,02:00-02:15,1,2,2
25,02:15-02:30,1,3,3
25,02:30-02:45,1,3,3
25,02:45-03:00,1,2,2
25,03:00-03:15,1,2,2
25,03:15-03:30,1,3,3
25,03:30-03:45,1,1,1
25,03:45-04:00,1,2,2
25,04:00-04:15,1,2,2
25,04:15-04:30,1,3,3
25,04:30-04:45,1,3,3
25,04:45-05:00,1,3,3
25,05:00-05:15,1,2,2
25,05:15-05:30,1,1,1
25,05:30-05:45,1,2,2
25,05:45-06:00,1,3,3
25,06:00-06:15,1,2,2
25,06:15-06:30,1,3,3
25,06:30-06:45,1,2,2
25,06:45-07:00,1,3,3
25,07:00-07:15,1,3,3
25,07:15-07:30,1,3,3
25,07:30-07:45,1,2,2
25,07:45-08:00,1,3,3
25,08:00-08:15,1,3,3
25,08:15-08:30,1,3,3
25,08:30-08:45,1,2,2
25,08:45-09:00,1,3,3
25,09:00-09:15,1,2,2
25,09:15-09:30,1,3,3
25,09:30-09:45,1,3,3
25,09:45-10:00,1,3,3
25,10:00-10:15,1,2,2
25,10:15-10:30,1,2,2
25,10:30-10:45,1,3,3
25,10:45-11:00,1,2,2
25,11:00-11:15,1,1,1
25,11:15-11:30,1,2,2
25,11:30-11:45,1,1,1
25,11:45-12:00,1,3,3
25,12:00-12:15,1,3,3
25,12:15-12:30,1,2,2
25,12:30-12:45,1,3,3
25,12:45-13:00,1,2,2
25,13:00-13:15,1,1,1
25,13:15-13:30,1,3,3
25,13:30-13:45,1,2,2
25,13:45-14:00,1,1,1
25,14:00-14:15,1,3,3
25,14:15-14:30,1,4,4
25,14:30-14:45,1,3,3
25,14:45-15:00,1,2,2
25,15:00-15:15,1,3,3
25,15:15-15:30,1,3,3
25,15:30-15:45,1,3,3
25,15:45-16:00,1,3,3
25,16:00-16:15,1,2,2
25,16:15-16:30,1,1,1
25,16:30-16:45,1,2,2
25,16:45-17:00,1,4,4
25,17:00-17:15,1,3,3
25,17:15-17:30,1,1,1
25,17:30-17:45,1,2,2
25,17:45-18:00,1,2,2
25,18:00-18:15,1,1,1
25,18:15-18:30,1,3,3
25,18:30-18:45,1,2,2
25,18:45-19:00,1,1,1
25,19:00-19:15,1,2,2
25,19:15-19:30,1,1,1
25,19:30-19:45,1,3,3
25,19:45-20:00,1,1,1
25,20:00-20:15,1,3,3
25,20:15-20:30,1,2,2
25,20:30-20:45,1,3,3
25,20:45-21:00,1,2,2
25,21:00-21:15,1,3,3
25,21:15-21:30,1,4,4
25,21:30-21:45,1,3,3
25,21:45-22:00,1,3,3
25,22:00-22:15,1,4,4
25,22:15-22:30,1,3,3
25,22:30-22:45,1,3,3
25,22:45-23:00,1,4,4
25,23:00-23:15,1,3,3
25,23:15-23:30,1,3,3
25,23:30-23:45,1,3,3
25,23:45-00:00,1,4,4
26,00:00-00:15,1,3,3
26,00:15-00:30,1,3,3
26,00:30-00:45,1,4,4
26,00:45-01:00,1,4,4
26,01:00-01:15,1,2,2
26,01:15-01:30,1,2,2
26,01:30-01:45,1,3,3
26,01:45-02:00,1,4,4
26,02:00-02:15,1,4,4
26,02:15-02:30,1,3,3
26,02:30-02:45,1,3,3
26,02:45-03:00,1,2,2
26,03:00-03:15,1,2,2
26,03:15-03:30,1,2,2
26,03:30-03:45,1,3,3
26,03:45-04:00,1,2,2
26,04:00-04:15,1,1,1
26,04:15-04:30,1,2,2
26,04:30-04:45,1,2,2
26,04:45-05:00,1,3,3
26,05:00-05:15,1,3,3
26,05:15-05:30,1,3,3
26,05:30-05:45,1,3,3
26,05:45-06:00,1,2,2
26,06:00-06:15,1,3,3
26,06:15-06:30,1,4,4
26,06:30-06:45,1,1,1
26,06:45-07:00,1,1,1
26,07:00-07:15,1,3,3
26,07:15-07:30,1,3,3
26,07:30-07:45,1,2,2
26,07:45-08:00,1,2,2
26,08:00-08:15,1,2,2
26,08:15-08:30,1,3,3
26,08:30-08:45,1,4,4
26,08:45-09:00,1,1,1
26,09:00-09:15,1,2,2
26,09:15-09:30,1,3,3
26,09:30-09:45,1,1,1
26,09:45-10:00,1,2,2
26,10:00-10:15,1,3,3
26,10:15-10:30,1,3,3
26,10:30-10:45,1,2,2
26,10:45-11:00,1,2,2
26,11:00-11:15,1,2,2
26,11:15-11:30,1,2,2
26,11:30-11:45,1,3,3
26,11:45-12:00,1,2,2
26,12:00-12:15,1,2,2
26,12:15-12:30,1,3,3
26,12:30-12:45,1,2,2
26,12:45-13:00,1,3,3
26,13:00-13:15,1,2,2
26,13:15-13:30,1,2,2
26,13:30-13:45,1,3,3
26,13:45-14:00,1,2,2
26,14:00-14:15,1,3,3
26,14:15-14:30,1,2,2
26,14:30-14:45,1,3,3
26,14:45-15:00,1,3,3
26,15:00-15:15,1,4,4
26,15:15-15:30,1,3,3
26,15:30-15:45,1,4,4
26,15:45-16:00,1,4,4
26,16:00-16:15,1,1,1
26,16:15-16:30,1,1,1
26,16:30-16:45,1,3,3
26,16:45-17:00,1,4,4
26,17:00-17:15,1,3,3
26,17:15-17:30,1,4,4
26,17:30-17:45,1,2,2
26,17:45-18:00,1,3,3
26,18:00-18:15,1,3,3
26,18:15-18:30,1,2,2
26,18:30-18:45,1,1,1
26,18:45-19:00,1,3,3
26,19:00-19:15,1,2,2
26,19:15-19:30,1,2,2
26,19:30-19:45,1,2,2
26,19:45-20:00,1,3,3
26,20:00-20:15,1,1,1
26,20:15-20:30,1,3,3
26,20:30-20:45,1,3,3
26,20:45-21:00,1,1,1
26,21:00-21:15,1,1,1
26,21:15-21:30,1,2,2
26,21:30-21:45,1,1,1
26,21:45-22:00,1,1,1
26,22:00-22:15,1,3,3
26,22:15-22:30,1,2,2
26,22:30-22:45,1,2,2
26,22:45-23:00,1,1,1
26,23:00-23:15,1,1,1
26,23:15-23:30,1,3,3
26,23:30-23:45,1,4,4
26,23:45-00:00,1,3,3
27,00:00-00:15,1,4,4
27,00:15-00:30,1,3,3
27,00:30-00:45,1,3,3
27,00:45-01:00,1,2,2
27,01:00-01:15,1,3,3
27,01:15-01:30,1,4,4
27,01:30-01:45,1,3,3
27,01:45-02:00,1,2,2
27,02:00-02:15,1,3,3
27,02:15-02:30,1,2,2
27,02:30-02:45,1,1,1
27,02:45-03:00,1,2,2
27,03:00-03:15,1,2,2
27,03:15-03:30,1,3,3
27,03:30-03:45,1,1,1
27,03:45-04:00,1,3,3
27,04:00-04:15,1,3,3
27,04:15-04:30,1,2,2
27,04:30-04:45,1,1,1
27,04:45-05:00,1,3,3
27,05:00-05:15,1,2,2
27,05:15-05:30,1,3,3
27,05:30-05:45,1,3,3
27,05:45-06:00,1,2,2
27,06:00-06:15,1,1,1
27,06:15-06:30,1,2,2
27,06:30-06:45,1,2,2
27,06:45-07:00,1,3,3
27,07:00-07:15,1,2,2
27,07:15-07:30,1,3,3
27,07:30-07:45,1,1,1
27,07:45-08:00,1,3,3
27,08:00-08:15,1,3,3
27,08:15-08:30,1,2,2
27,08:30-08:45,1,3,3
27,08:45-09:00,1,3,3
27,09:00-09:15,1,2,2
27,09:15-09:30,1,2,2
27,09:30-09:45,1,2,2
27,09:45-10:00,1,1,1
27,10:00-10:15,1,1,1
27,10:15-10:30,1,2,2
27,10:30-10:45,1,2,2
27,10:45-11:00,1,3,3
27,11:00-11:15,1,2,2
27,11:15-11:30,1,2,2
27,11:30-11:45,1,2,2
27,11:45-12:00,1,3,3
27,12:00-12:15,1,2,2
27,12:15-12:30,1,3,3
27,12:30-12:45,1,2,2
27,12:45-13:00,1,2,2
27,13:00-13:15,1,2,2
27,13:15-13:30,1,3,3
27,13:30-13:45,1,3,3
27,13:45-14:00,1,1,1
27,14:00-14:15,1,3,3
27,14:15-14:30,1,3,3
27,14:30-14:45,1,3,3
27,14:45-15:00,1,1,1
27,15:00-15:15,1,3,3
27,15:15-15:30,1,4,4
27,15:30-15:45,1,4,4
27,15:45-16:00,1,4,4
27,16:00-16:15,1,3,3
27,16:15-16:30,1,3,3
27,16:30-16:45,1,4,4
27,16:45-17:00,1,4,4
27,17:00-17:15,1,2,2
27,17:15-17:30,1,3,3
27,17:30-17:45,1,4,4
27,17:45-18:00,1,3,3
27,18:00-18:15,1,3,3
27,18:15-18:30,1,1,1
27,18:30-18:45,1,3,3
27,18:45-19:00,1,1,1
27,19:00-19:15,1,2,2
27,19:15-19:30,1,1,1
27,19:30-19:45,1,2,2
27,19:45-20:00,1,2,2
27,20:00-20:15,1,3,3
27,20:15-20:30,1,2,2
27,20:30-20:45,1,2,2
27,20:45-21:00,1,2,2
27,21:00-21:15,1,2,2
27,21:15-21:30,1,2,2
27,21:30-21:45,1,1,1
27,21:45-22:00,1,1,1
27,22:00-22:15,1,3,3
27,22:15-22:30,1,3,3
27,22:30-22:45,1,2,2
27,22:45-23:00,1,2,2
27,23:00-23:15,1,2,2
27,23:15-23:30,1,2,2
27,23:30-23:45,1,2,2
27,23:45-00:00,1,1,1
28,00:00-00:15,1,3,3
28,00:15-00:30,1,3,3
28,00:30-00:45,1,3,3
28,00:45-01:00,1,4,4
28,01:00-01:15,1,3,3
28,01:15-01:30,1,4,4
28,01:30-01:45,1,4,4
28,01:45-02:00,1,4,4
28,02:00-02:15,1,4,4
28,02:15-02:30,1,4,4
28,02:30-02:45,1,2,2
28,02:45-03:00,1,3,3
28,03:00-03:15,1,4,4
28,03:15-03:30,1,2,2
28,03:30-03:45,1,2,2
28,03:45-04:00,1,3,3
28,04:00-04:15,1,2,2
28,04:15-04:30,1,2,2
28,04:30-04:45,1,1,1
28,04:45-05:00,1,1,1
28,05:00-05:15,1,2,2
28,05:15-05:30,1,2,2
28,05:30-05:45,1,2,2
28,05:45-06:00,1,3,3
28,06:00-06:15,1,2,2
28,06:15-06:30,1,4,4
28,06:30-06:45,1,4,4
28,06:45-07:00,1,2,2
28,07:00-07:15,1,4,4
28,07:15-07:30,1,3,3
28,07:30-07:45,1,2,2
28,07:45-08:00,1,2,2
28,08:00-08:15,1,3,3
28,08:15-08:30,1,4,4
28,08:30-08:45,1,3,3
28,08:45-09:00,1,3,3
28,09:00-09:15,1,4,4
28,09:15-09:30,1,3,3
28,09:30-09:45,1,2,2
28,09:45-10:00,1,1,1
28,10:00-10:15,1,3,3
28,10:15-10:30,1,3,3
28,10:30-10:45,1,2,2
28,10:45-11:00,1,2,2
28,11:00-11:15,1,2,2
28,11:15-11:30,1,2,2
28,11:30-11:45,1,1,1
28,11:45-12:00,1,1,1
28,12:00-12:15,1,2,2
28,12:15-12:30,1,3,3
28,12:30-12:45,1,3,3
28,12:45-13:00,1,1,1
28,13:00-13:15,1,1,1
28,13:15-13:30,1,2,2
28,13:30-13:45,1,2,2
28,13:45-14:00,1,1,1
28,14:00-14:15,1,2,2
28,14:15-14:30,1,3,3
28,14:30-14:45,1,2,2
28,14:45-15:00,1,3,3
28,15:00-15:15,1,3,3
28,15:15-15:30,1,3,3
28,15:30-15:45,1,4,4
28,15:45-16:00,1,3,3
28,16:00-16:15,1,4,4
28,16:15-16:30,1,3,3
28,16:30-16:45,1,2,2
28,16:45-17:00,1,1,1
28,17:00-17:15,1,1,1
28,17:15-17:30,1,1,1
28,17:30-17:45,1,1,1
28,17:45-18:00,1,1,1
28,18:00-18:15,1,2,2
28,18:15-18:30,1,3,3
28,18:30-18:45,1,2,2
28,18:45-19:00,1,3,3
28,19:00-19:15,1,3,3
28,19:15-19:30,1,2,2
28,19:30-19:45,1,2,2
28,19:45-20:00,1,3,3
28,20:00-20:15,1,2,2
28,20:15-20:30,1,4,4
28,20:30-20:45,1,3,3
28,20:45-21:00,1,2,2
28,21:00-21:15,1,3,3
28,21:15-21:30,1,2,2
28,21:30-21:45,1,4,4
28,21:45-22:00,1,4,4
28,22:00-22:15,1,2,2
28,22:15-22:30,1,3,3
28,22:30-22:45,1,2,2
28,22:45-23:00,1,2,2
28,23:00-23:15,1,4,4
28,23:15-23:30,1,1,1
28,23:30-23:45,1,1,1
28,23:45-00:00,1,1,1
29,00:00-00:15,1,3,3
29,00:15-00:30,1,2,2
29,00:30-00:45,1,3,3
29,00:45-01:00,1,2,2
29,01:00-01:15,1,2,2
29,01:15-01:30,1,1,1
29,01:30-01:45,1,1,1
29,01:45-02:00,1,2,2
29,02:00-02:15,1,3,3
29,02:15-02:30,1,2,2
29,02:30-02:45,1,3,3
29,02:45-03:00,1,2,2
29,03:00-03:15,1,2,2
29,03:15-03:30,1,3,3
29,03:30-03:45,1,2,2
29,03:45-04:00,1,2,2
29,04:00-04:15,1,2,2
29,04:15-04:30,1,2,2
29,04:30-04:45,1,2,2
29,04:45-05:00,1,1,1
29,05:00-05:15,1,3,3
29,05:15-05:30,1,2,2
29,05:30-05:45,1,3,3
29,05:45-06:00,1,3,3

