# This is a comment. Comments start with #

SECTION_HORIZON
# All instances start at 06:00 on the first day and finish at 06:00 on the last day.
# The planning horizon length in days:
28

SECTION_TASKS
# The number of different tasks
1

SECTION_STAFF
# ID, MinTotalMinutes, MaxTotalMinutes
1,9120,9600
2,8400,9600
3,8400,9600
4,6720,9600
5,9120,9600
6,8400,9600
7,8400,9600
8,8880,9600
9,4320,4800
10,4800,4800
11,4080,9600
12,8640,9600
13,8640,9600
14,7200,9600
15,6480,9600
16,4320,4800
17,2880,4800
18,5280,9600
19,8640,9600
20,6240,9600
21,3360,4800
22,8880,9600
23,8400,9600
24,8160,9600
25,4320,4800
26,3600,4800
27,8880,9600
28,8400,9600
29,8400,9600
30,4080,4800

SECTION_COVER
# Day, Time, TaskID, Min, Max
1,06:00-06:15,1,4,4
1,06:15-06:30,1,4,4
1,06:30-06:45,1,4,4
1,06:45-07:00,1,5,5
1,07:00-07:15,1,5,5
1,07:15-07:30,1,6,6
1,07:30-07:45,1,5,5
1,07:45-08:00,1,6,6
1,08:00-08:15,1,6,6
1,08:15-08:30,1,6,6
1,08:30-08:45,1,5,5
1,08:45-09:00,1,4,4
1,09:00-09:15,1,6,6
1,09:15-09:30,1,5,5
1,09:30-09:45,1,6,6
1,09:45-10:00,1,4,4
1,10:00-10:15,1,5,5
1,10:15-10:30,1,5,5
1,10:30-10:45,1,5,5
1,10:45-11:00,1,4,4
1,11:00-11:15,1,5,5
1,11:15-11:30,1,6,6
1,11:30-11:45,1,4,4
1,11:45-12:00,1,4,4
1,12:00-12:15,1,5,5
1,12:15-12:30,1,6,6
1,12:30-12:45,1,6,6
1,12:45-13:00,1,4,4
1,13:00-13:15,1,4,4
1,13:15-13:30,1,3,3
1,13:30-13:45,1,5,5
1,13:45-14:00,1,3,3
1,14:00-14:15,1,4,4
1,14:15-14:30,1,5,5
1,14:30-14:45,1,5,5
1,14:45-15:00,1,5,5
1,15:00-15:15,1,5,5
1,15:15-15:30,1,4,4
1,15:30-15:45,1,3,3
1,15:45-16:00,1,3,3
1,16:00-16:15,1,5,5
1,16:15-16:30,1,3,3
1,16:30-16:45,1,3,3
1,16:45-17:00,1,5,5
1,17:00-17:15,1,4,4
1,17:15-17:30,1,5,5
1,17:30-17:45,1,4,4
1,17:45-18:00,1,4,4
1,18:00-18:15,1,5,5
1,18:15-18:30,1,4,4
1,18:30-18:45,1,3,3
1,18:45-19:00,1,5,5
1,19:00-19:15,1,3,3
1,19:15-19:30,1,4,4
1,19:30-19:45,1,5,5
1,19:45-20:00,1,4,4
1,20:00-20:15,1,4,4
1,20:15-20:30,1,4,4
1,20:30-20:45,1,3,3
1,20:45-21:00,1,4,4
1,21:00-21:15,1,5,5
1,21:15-21:30,1,3,3
1,21:30-21:45,1,4,4
1,21:45-22:00,1,5,5
1,22:00-22:15,1,3,3
1,22:15-22:30,1,3,3
1,22:30-22:45,1,4,4
1,22:45-23:00,1,4,4
1,23:00-23:15,1,5,5
1,23:15-23:30,1,5,5
1,23:30-23:45,1,5,5
1,23:45-00:00,1,5,5
2,00:00-00:15,1,5,5
2,00:15-00:30,1,5,5
2,00:30-00:45,1,5,5
2,00:45-01:00,1,5,5
2,01:00-01:15,1,5,5
2,01:15-01:30,1,4,4
2,01:30-01:45,1,5,5
2,01:45-02:00,1,4,4
2,02:00-02:15,1,4,4
2,02:15-02:30,1,4,4
2,02:30-02:45,1,4,4
2,02:45-03:00,1,4,4
2,03:00-03:15,1,5,5
2,03:15-03:30,1,3,3
2,03:30-03:45,1,3,3
2,03:45-04:00,1,5,5
2,04:00-04:15,1,5,5
2,04:15-04:30,1,5,5
2,04:30-04:45,1,5,5
2,04:45-05:00,1,3,3
2,05:00-05:15,1,4,4
2,05:15-05:30,1,4,4
2,05:30-05:45,1,3,3
2,05:45-06:00,1,5,5
2,06:00-06:15,1,4,4
2,06:15-06:30,1,4,4
2,06:30-06:45,1,5,5
2,06:45-07:00,1,4,4
2,07:00-07:15,1,4,4
2,07:15-07:30,1,3,3
2,07:30-07:45,1,4,4
2,07:45-08:00,1,4,4
2,08:00-08:15,1,4,4
2,08:15-08:30,1,4,4
2,08:30-08:45,1,4,4
2,08:45-09:00,1,5,5
2,09:00-09:15,1,4,4
2,09:15-09:30,1,5,5
2,09:30-09:45,1,5,5
2,09:45-10:00,1,4,4
2,10:00-10:15,1,5,5
2,10:15-10:30,1,4,4
2,10:30-10:45,1,3,3
2,10:45-11:00,1,4,4
2,11:00-11:15,1,4,4
2,11:15-11:30,1,5,5
2,11:30-11:45,1,5,5
2,11:45-12:00,1,5,5
2,12:00-12:15,1,3,3
2,12:15-12:30,1,4,4
2,12:30-12:45,1,3,3
2,12:45-13:00,1,4,4
2,13:00-13:15,1,4,4
2,13:15-13:30,1,4,4
2,13:30-13:45,1,4,4
2,13:45-14:00,1,3,3
2,14:00-14:15,1,4,4
2,14:15-14:30,1,4,4
2,14:30-14:45,1,6,6
2,14:45-15:00,1,4,4
2,15:00-15:15,1,5,5
2,15:15-15:30,1,4,4
2,15:30-15:45,1,3,3
2,15:45-16:00,1,4,4
2,16:00-16:15,1,3,3
2,16:15-16:30,1,3,3
2,16:30-16:45,1,4,4
2,16:45-17:00,1,5,5
2,17:00-17:15,1,4,4
2,17:15-17:30,1,4,4
2,17:30-17:45,1,4,4
2,17:45-18:00,1,3,3
2,18:00-18:15,1,5,5
2,18:15-18:30,1,4,4
2,18:30-18:45,1,4,4
2,18:45-19:00,1,5,5
2,19:00-19:15,1,4,4
2,19:15-19:30,1,4,4
2,19:30-19:45,1,4,4
2,19:45-20:00,1,4,4
2,20:00-20:15,1,4,4
2,20:15-20:30,1,5,5
2,20:30-20:45,1,3,3
2,20:45-21:00,1,5,5
2,21:00-21:15,1,5,5
2,21:15-21:30,1,5,5
2,21:30-21:45,1,3,3
2,21:45-22:00,1,5,5
2,22:00-22:15,1,5,5
2,22:15-22:30,1,4,4
2,22:30-22:45,1,4,4
2,22:45-23:00,1,5,5
2,23:00-23:15,1,3,3
2,23:15-23:30,1,4,4
2,23:30-23:45,1,5,5
2,23:45-00:00,1,4,4
3,00:00-00:15,1,5,5
3,00:15-00:30,1,5,5
3,00:30-00:45,1,4,4
3,00:45-01:00,1,3,3
3,01:00-01:15,1,4,4
3,01:15-01:30,1,3,3
3,01:30-01:45,1,4,4
3,01:45-02:00,1,5,5
3,02:00-02:15,1,5,5
3,02:15-02:30,1,3,3
3,02:30-02:45,1,4,4
3,02:45-03:00,1,5,5
3,03:00-03:15,1,3,3
3,03:15-03:30,1,4,4
3,03:30-03:45,1,4,4
3,03:45-04:00,1,5,5
3,04:00-04:15,1,3,3
3,04:15-04:30,1,3,3
3,04:30-04:45,1,5,5
3,04:45-05:00,1,4,4
3,05:00-05:15,1,4,4
3,05:15-05:30,1,4,4
3,05:30-05:45,1,4,4
3,05:45-06:00,1,4,4
3,06:00-06:15,1,5,5
3,06:15-06:30,1,4,4
3,06:30-06:45,1,5,5
3,06:45-07:00,1,4,4
3,07:00-07:15,1,5,5
3,07:15-07:30,1,5,5
3,07:30-07:45,1,3,3
3,07:45-08:00,1,5,5
3,08:00-08:15,1,5,5
3,08:15-08:30,1,3,3
3,08:30-08:45,1,4,4
3,08:45-09:00,1,4,4
3,09:00-09:15,1,5,5
3,09:15-09:30,1,4,4
3,09:30-09:45,1,5,5
3,09:45-10:00,1,4,4
3,10:00-10:15,1,4,4
3,10:15-10:30,1,4,4
3,10:30-10:45,1,5,5
3,10:45-11:00,1,5,5
3,11:00-11:15,1,3,3
3,11:15-11:30,1,4,4
3,11:30-11:45,1,4,4
3,11:45-12:00,1,4,4
3,12:00-12:15,1,4,4
3,12:15-12:30,1,5,5
3,12:30-12:45,1,5,5
3,12:45-13:00,1,5,5
3,13:00-13:15,1,4,4
3,13:15-13:30,1,3,3
3,13:30-13:45,1,5,5
3,13:45-14:00,1,4,4
3,14:00-14:15,1,4,4
3,14:15-14:30,1,5,5
3,14:30-14:45,1,4,4
3,14:45-15:00,1,5,5
3,15:00-15:15,1,3,3
3,15:15-15:30,1,3,3
3,15:30-15:45,1,5,5
3,15:45-16:00,1,3,3
3,16:00-16:15,1,5,5
3,16:15-16:30,1,6,6
3,16:30-16:45,1,6,6
3,16:45-17:00,1,4,4
3,17:00-17:15,1,4,4
3,17:15-17:30,1,4,4
3,17:30-17:45,1,6,6
3,17:45-18:00,1,6,6
3,18:00-18:15,1,4,4
3,18:15-18:30,1,5,5
3,18:30-18:45,1,4,4
3,18:45-19:00,1,6,6
3,19:00-19:15,1,5,5
3,19:15-19:30,1,5,5
3,19:30-19:45,1,4,4
3,19:45-20:00,1,4,4
3,20:00-20:15,1,5,5
3,20:15-20:30,1,4,4
3,20:30-20:45,1,4,4
3,20:45-21:00,1,3,3
3,21:00-21:15,1,5,5
3,21:15-21:30,1,3,3
3,21:30-21:45,1,4,4
3,21:45-22:00,1,4,4
3,22:00-22:15,1,3,3
3,22:15-22:30,1,4,4
3,22:30-22:45,1,4,4
3,22:45-23:00,1,4,4
3,23:00-23:15,1,3,3
3,23:15-23:30,1,5,5
3,23:30-23:45,1,4,4
3,23:45-00:00,1,4,4
4,00:00-00:15,1,5,5
4,00:15-00:30,1,5,5
4,00:30-00:45,1,3,3
4,00:45-01:00,1,4,4
4,01:00-01:15,1,4,4
4,01:15-01:30,1,4,4
4,01:30-01:45,1,4,4
4,01:45-02:00,1,4,4
4,02:00-02:15,1,5,5
4,02:15-02:30,1,3,3
4,02:30-02:45,1,5,5
4,02:45-03:00,1,5,5
4,03:00-03:15,1,5,5
4,03:15-03:30,1,5,5
4,03:30-03:45,1,5,5
4,03:45-04:00,1,5,5
4,04:00-04:15,1,3,3
4,04:15-04:30,1,5,5
4,04:30-04:45,1,3,3
4,04:45-05:00,1,4,4
4,05:00-05:15,1,4,4
4,05:15-05:30,1,5,5
4,05:30-05:45,1,4,4
4,05:45-06:00,1,5,5
4,06:00-06:15,1,4,4
4,06:15-06:30,1,4,4
4,06:30-06:45,1,3,3
4,06:45-07:00,1,5,5
4,07:00-07:15,1,4,4
4,07:15-07:30,1,3,3
4,07:30-07:45,1,5,5
4,07:45-08:00,1,3,3
4,08:00-08:15,1,3,3
4,08:15-08:30,1,5,5
4,08:30-08:45,1,5,5
4,08:45-09:00,1,4,4
4,09:00-09:15,1,4,4
4,09:15-09:30,1,5,5
4,09:30-09:45,1,5,5
4,09:45-10:00,1,4,4
4,10:00-10:15,1,3,3
4,10:15-10:30,1,3,3
4,10:30-10:45,1,3,3
4,10:45-11:00,1,5,5
4,11:00-11:15,1,4,4
4,11:15-11:30,1,4,4
4,11:30-11:45,1,4,4
4,11:45-12:00,1,4,4
4,12:00-12:15,1,4,4
4,12:15-12:30,1,4,4
4,12:30-12:45,1,4,4
4,12:45-13:00,1,4,4
4,13:00-13:15,1,5,5
4,13:15-13:30,1,5,5
4,13:30-13:45,1,3,3
4,13:45-14:00,1,4,4
4,14:00-14:15,1,4,4
4,14:15-14:30,1,4,4
4,14:30-14:45,1,5,5
4,14:45-15:00,1,5,5
4,15:00-15:15,1,5,5
4,15:15-15:30,1,4,4
4,15:30-15:45,1,5,5
4,15:45-16:00,1,5,5
4,16:00-16:15,1,4,4
4,16:15-16:30,1,4,4
4,16:30-16:45,1,5,5
4,16:45-17:00,1,4,4
4,17:00-17:15,1,4,4
4,17:15-17:30,1,4,4
4,17:30-17:45,1,4,4
4,17:45-18:00,1,4,4
4,18:00-18:15,1,5,5
4,18:15-18:30,1,4,4
4,18:30-18:45,1,4,4
4,18:45-19:00,1,4,4
4,19:00-19:15,1,4,4
4,19:15-19:30,1,4,4
4,19:30-19:45,1,4,4
4,19:45-20:00,1,5,5
4,20:00-20:15,1,5,5
4,20:15-20:30,1,5,5
4,20:30-20:45,1,4,4
4,20:45-21:00,1,3,3
4,21:00-21:15,1,4,4
4,21:15-21:30,1,4,4
4,21:30-21:45,1,4,4
4,21:45-22:00,1,4,4
4,22:00-22:15,1,4,4
4,22:15-22:30,1,3,3
4,22:30-22:45,1,5,5
4,22:45-23:00,1,4,4
4,23:00-23:15,1,5,5
4,23:15-23:30,1,5,5
4,23:30-23:45,1,5,5
4,23:45-00:00,1,4,4
5,00:00-00:15,1,4,4
5,00:15-00:30,1,5,5
5,00:30-00:45,1,5,5
5,00:45-01:00,1,6,6
5,01:00-01:15,1,5,5
5,01:15-01:30,1,4,4
5,01:30-01:45,1,5,5
5,01:45-02:00,1,5,5
5,02:00-02:15,1,4,4
5,02:15-02:30,1,4,4
5,02:30-02:45,1,4,4
5,02:45-03:00,1,4,4
5,03:00-03:15,1,4,4
5,03:15-03:30,1,5,5
5,03:30-03:45,1,5,5
5,03:45-04:00,1,4,4
5,04:00-04:15,1,5,5
5,04:15-04:30,1,3,3
5,04:30-04:45,1,4,4
5,04:45-05:00,1,5,5
5,05:00-05:15,1,3,3
5,05:15-05:30,1,5,5
5,05:30-05:45,1,3,3
5,05:45-06:00,1,5,5
5,06:00-06:15,1,4,4
5,06:15-06:30,1,4,4
5,06:30-06:45,1,5,5
5,06:45-07:00,1,4,4
5,07:00-07:15,1,4,4
5,07:15-07:30,1,3,3
5,07:30-07:45,1,4,4
5,07:45-08:00,1,3,3
5,08:00-08:15,1,4,4
5,08:15-08:30,1,5,5
5,08:30-08:45,1,3,3
5,08:45-09:00,1,4,4
5,09:00-09:15,1,5,5
5,09:15-09:30,1,4,4
5,09:30-09:45,1,3,3
5,09:45-10:00,1,4,4
5,10:00-10:15,1,5,5
5,10:15-10:30,1,4,4
5,10:30-10:45,1,4,4
5,10:45-11:00,1,4,4
5,11:00-11:15,1,5,5
5,11:15-11:30,1,5,5
5,11:30-11:45,1,5,5
5,11:45-12:00,1,4,4
5,12:00-12:15,1,3,3
5,12:15-12:30,1,4,4
5,12:30-12:45,1,4,4
5,12:45-13:00,1,5,5
5,13:00-13:15,1,4,4
5,13:15-13:30,1,4,4
5,13:30-13:45,1,4,4
5,13:45-14:00,1,3,3
5,14:00-14:15,1,4,4
5,14:15-14:30,1,4,4
5,14:30-14:45,1,4,4
5,14:45-15:00,1,4,4
5,15:00-15:15,1,5,5
5,15:15-15:30,1,5,5
5,15:30-15:45,1,5,5
5,15:45-16:00,1,5,5
5,16:00-16:15,1,5,5
5,16:15-16:30,1,4,4
5,16:30-16:45,1,5,5
5,16:45-17:00,1,4,4
5,17:00-17:15,1,5,5
5,17:15-17:30,1,4,4
5,17:30-17:45,1,4,4
5,17:45-18:00,1,4,4
5,18:00-18:15,1,3,3
5,18:15-18:30,1,3,3
5,18:30-18:45,1,5,5
5,18:45-19:00,1,4,4
5,19:00-19:15,1,4,4
5,19:15-19:30,1,5,5
5,19:30-19:45,1,3,3
5,19:45-20:00,1,4,4
5,20:00-20:15,1,4,4
5,20:15-20:30,1,3,3
5,20:30-20:45,1,3,3
5,20:45-21:00,1,5,5
5,21:00-21:15,1,5,5
5,21:15-21:30,1,4,4
5,21:30-21:45,1,5,5
5,21:45-22:00,1,4,4
5,22:00-22:15,1,4,4
5,22:15-22:30,1,5,5
5,22:30-22:45,1,5,5
5,22:45-23:00,1,4,4
5,23:00-23:15,1,3,3
5,23:15-23:30,1,5,5
5,23:30-23:45,1,5,5
5,23:45-00:00,1,4,4
6,00:00-00:15,1,3,3
6,00:15-00:30,1,4,4
6,00:30-00:45,1,4,4
6,00:45-01:00,1,4,4
6,01:00-01:15,1,3,3
6,01:15-01:30,1,4,4
6,01:30-01:45,1,5,5
6,01:45-02:00,1,4,4
6,02:00-02:15,1,3,3
6,02:15-02:30,1,5,5
6,02:30-02:45,1,4,4
6,02:45-03:00,1,3,3
6,03:00-03:15,1,4,4
6,03:15-03:30,1,5,5
6,03:30-03:45,1,5,5
6,03:45-04:00,1,4,4
6,04:00-04:15,1,4,4
6,04:15-04:30,1,5,5
6,04:30-04:45,1,4,4
6,04:45-05:00,1,4,4
6,05:00-05:15,1,4,4
6,05:15-05:30,1,4,4
6,05:30-05:45,1,4,4
6,05:45-06:00,1,4,4
6,06:00-06:15,1,5,5
6,06:15-06:30,1,4,4
6,06:30-06:45,1,5,5
6,06:45-07:00,1,5,5
6,07:00-07:15,1,5,5
6,07:15-07:30,1,5,5
6,07:30-07:45,1,5,5
6,07:45-08:00,1,5,5
6,08:00-08:15,1,5,5
6,08:15-08:30,1,5,5
6,08:30-08:45,1,5,5
6,08:45-09:00,1,6,6
6,09:00-09:15,1,4,4
6,09:15-09:30,1,5,5
6,09:30-09:45,1,4,4
6,09:45-10:00,1,5,5
6,10:00-10:15,1,3,3
6,10:15-10:30,1,4,4
6,10:30-10:45,1,5,5
6,10:45-11:00,1,5,5
6,11:00-11:15,1,5,5
6,11:15-11:30,1,5,5
6,11:30-11:45,1,3,3
6,11:45-12:00,1,5,5
6,12:00-12:15,1,3,3
6,12:15-12:30,1,4,4
6,12:30-12:45,1,5,5
6,12:45-13:00,1,4,4
6,13:00-13:15,1,3,3
6,13:15-13:30,1,4,4
6,13:30-13:45,1,5,5
6,13:45-14:00,1,4,4
6,14:00-14:15,1,5,5
6,14:15-14:30,1,3,3
6,14:30-14:45,1,5,5
6,14:45-15:00,1,5,5
6,15:00-15:15,1,6,6
6,15:15-15:30,1,4,4
6,15:30-15:45,1,6,6
6,15:45-16:00,1,6,6
6,16:00-16:15,1,5,5
6,16:15-16:30,1,5,5
6,16:30-16:45,1,6,6
6,16:45-17:00,1,4,4
6,17:00-17:15,1,4,4
6,17:15-17:30,1,5,5
6,17:30-17:45,1,4,4
6,17:45-18:00,1,4,4
6,18:00-18:15,1,4,4
6,18:15-18:30,1,4,4
6,18:30-18:45,1,4,4
6,18:45-19:00,1,5,5
6,19:00-19:15,1,5,5
6,19:15-19:30,1,4,4
6,19:30-19:45,1,4,4
6,19:45-20:00,1,3,3
6,20:00-20:15,1,3,3
6,20:15-20:30,1,3,3
6,20:30-20:45,1,4,4
6,20:45-21:00,1,4,4
6,21:00-21:15,1,4,4
6,21:15-21:30,1,5,5
6,21:30-21:45,1,3,3
6,21:45-22:00,1,5,5
6,22:00-22:15,1,6,6
6,22:15-22:30,1,5,5
6,22:30-22:45,1,4,4
6,22:45-23:00,1,3,3
6,23:00-23:15,1,5,5
6,23:15-23:30,1,5,5
6,23:30-23:45,1,4,4
6,23:45-00:00,1,3,3
7,00:00-00:15,1,6,6
7,00:15-00:30,1,6,6
7,00:30-00:45,1,5,5
7,00:45-01:00,1,5,5
7,01:00-01:15,1,6,6
7,01:15-01:30,1,5,5
7,01:30-01:45,1,5,5
7,01:45-02:00,1,5,5
7,02:00-02:15,1,6,6
7,02:15-02:30,1,4,4
7,02:30-02:45,1,5,5
7,02:45-03:00,1,4,4
7,03:00-03:15,1,3,3
7,03:15-03:30,1,5,5
7,03:30-03:45,1,5,5
7,03:45-04:00,1,3,3
7,04:00-04:15,1,4,4
7,04:15-04:30,1,4,4
7,04:30-04:45,1,4,4
7,04:45-05:00,1,5,5
7,05:00-05:15,1,4,4
7,05:15-05:30,1,4,4
7,05:30-05:45,1,4,4
7,05:45-06:00,1,4,4
7,06:00-06:15,1,3,3
7,06:15-06:30,1,5,5
7,06:30-06:45,1,5,5
7,06:45-07:00,1,4,4
7,07:00-07:15,1,4,4
7,07:15-07:30,1,4,4
7,07:30-07:45,1,5,5
7,07:45-08:00,1,5,5
7,08:00-08:15,1,4,4
7,08:15-08:30,1,4,4
7,08:30-08:45,1,3,3
7,08:45-09:00,1,5,5
7,09:00-09:15,1,4,4
7,09:15-09:30,1,5,5
7,09:30-09:45,1,3,3
7,09:45-10:00,1,5,5
7,10:00-10:15,1,5,5
7,10:15-10:30,1,4,4
7,10:30-10:45,1,5,5
7,10:45-11:00,1,5,5
7,11:00-11:15,1,3,3
7,11:15-11:30,1,4,4
7,11:30-11:45,1,5,5
7,11:45-12:00,1,3,3
7,12:00-12:15,1,4,4
7,12:15-12:30,1,3,3
7,12:30-12:45,1,4,4
7,12:45-13:00,1,3,3
7,13:00-13:15,1,5,5
7,13:15-13:30,1,4,4
7,13:30-13:45,1,4,4
7,13:45-14:00,1,4,4
7,14:00-14:15,1,4,4
7,14:15-14:30,1,5,5
7,14:30-14:45,1,4,4
7,14:45-15:00,1,4,4
7,15:00-15:15,1,4,4
7,15:15-15:30,1,3,3
7,15:30-15:45,1,4,4
7,15:45-16:00,1,4,4
7,16:00-16:15,1,4,4
7,16:15-16:30,1,3,3
7,16:30-16:45,1,3,3
7,16:45-17:00,1,6,6
7,17:00-17:15,1,6,6
7,17:15-17:30,1,6,6
7,17:30-17:45,1,6,6
7,17:45-18:00,1,5,5
7,18:00-18:15,1,5,5
7,18:15-18:30,1,6,6
7,18:30-18:45,1,4,4
7,18:45-19:00,1,5,5
7,19:00-19:15,1,5,5
7,19:15-19:30,1,5,5
7,19:30-19:45,1,4,4
7,19:45-20:00,1,3,3
7,20:00-20:15,1,5,5
7,20:15-20:30,1,5,5
7,20:30-20:45,1,3,3
7,20:45-21:00,1,4,4
7,21:00-21:15,1,5,5
7,21:15-21:30,1,5,5
7,21:30-21:45,1,5,5
7,21:45-22:00,1,3,3
7,22:00-22:15,1,5,5
7,22:15-22:30,1,4,4
7,22:30-22:45,1,3,3
7,22:45-23:00,1,4,4
7,23:00-23:15,1,4,4
7,23:15-23:30,1,5,5
7,23:30-23:45,1,4,4
7,23:45-00:00,1,5,5
8,00:00-00:15,1,6,6
8,00:15-00:30,1,5,5
8,00:30-00:45,1,5,5
8,00:45-01:00,1,4,4
8,01:00-01:15,1,5,5
8,01:15-01:30,1,4,4
8,01:30-01:45,1,4,4
8,01:45-02:00,1,4,4
8,02:00-02:15,1,4,4
8,02:15-02:30,1,5,5
8,02:30-02:45,1,4,4
8,02:45-03:00,1,3,3
8,03:00-03:15,1,4,4
8,03:15-03:30,1,3,3
8,03:30-03:45,1,3,3
8,03:45-04:00,1,4,4
8,04:00-04:15,1,4,4
8,04:15-04:30,1,5,5
8,04:30-04:45,1,4,4
8,04:45-05:00,1,5,5
8,05:00-05:15,1,5,5
8,05:15-05:30,1,5,5
8,05:30-05:45,1,4,4
8,05:45-06:00,1,5,5
8,06:00-06:15,1,3,3
8,06:15-06:30,1,3,3
8,06:30-06:45,1,3,3
8,06:45-07:00,1,3,3
8,07:00-07:15,1,5,5
8,07:15-07:30,1,4,4
8,07:30-07:45,1,5,5
8,07:45-08:00,1,4,4
8,08:00-08:15,1,4,4
8,08:15-08:30,1,4,4
8,08:30-08:45,1,4,4
8,08:45-09:00,1,3,3
8,09:00-09:15,1,5,5
8,09:15-09:30,1,4,4
8,09:30-09:45,1,3,3
8,09:45-10:00,1,5,5
8,10:00-10:15,1,4,4
8,10:15-10:30,1,5,5
8,10:30-10:45,1,4,4
8,10:45-11:00,1,3,3
8,11:00-11:15,1,4,4
8,11:15-11:30,1,5,5
8,11:30-11:45,1,5,5
8,11:45-12:00,1,5,5
8,12:00-12:15,1,4,4
8,12:15-12:30,1,5,5
8,12:30-12:45,1,4,4
8,12:45-13:00,1,5,5
8,13:00-13:15,1,4,4
8,13:15-13:30,1,4,4
8,13:30-13:45,1,5,5
8,13:45-14:00,1,5,5
8,14:00-14:15,1,5,5
8,14:15-14:30,1,4,4
8,14:30-14:45,1,5,5
8,14:45-15:00,1,5,5
8,15:00-15:15,1,4,4
8,15:15-15:30,1,5,5
8,15:30-15:45,1,4,4
8,15:45-16:00,1,5,5
8,16:00-16:15,1,5,5
8,16:15-16:30,1,5,5
8,16:30-16:45,1,5,5
8,16:45-17:00,1,6,6
8,17:00-17:15,1,5,5
8,17:15-17:30,1,5,5
8,17:30-17:45,1,4,4
8,17:45-18:00,1,5,5
8,18:00-18:15,1,4,4
8,18:15-18:30,1,4,4
8,18:30-18:45,1,4,4
8,18:45-19:00,1,3,3
8,19:00-19:15,1,4,4
8,19:15-19:30,1,4,4
8,19:30-19:45,1,4,4
8,19:45-20:00,1,3,3
8,20:00-20:15,1,4,4
8,20:15-20:30,1,4,4
8,20:30-20:45,1,4,4
8,20:45-21:00,1,5,5
8,21:00-21:15,1,3,3
8,21:15-21:30,1,3,3
8,21:30-21:45,1,3,3
8,21:45-22:00,1,4,4
8,22:00-22:15,1,4,4
8,22:15-22:30,1,5,5
8,22:30-22:45,1,4,4
8,22:45-23:00,1,4,4
8,23:00-23:15,1,4,4
8,23:15-23:30,1,4,4
8,23:30-23:45,1,5,5
8,23:45-00:00,1,4,4
9,00:00-00:15,1,5,5
9,00:15-00:30,1,5,5
9,00:30-00:45,1,4,4
9,00:45-01:00,1,5,5
9,01:00-01:15,1,5,5
9,01:15-01:30,1,5,5
9,01:30-01:45,1,3,3
9,01:45-02:00,1,5,5
9,02:00-02:15,1,4,4
9,02:15-02:30,1,4,4
9,02:30-02:45,1,4,4
9,02:45-03:00,1,3,3
9,03:00-03:15,1,3,3
9,03:15-03:30,1,5,5
9,03:30-03:45,1,3,3
9,03:45-04:00,1,4,4
9,04:00-04:15,1,3,3
9,04:15-04:30,1,5,5
9,04:30-04:45,1,4,4
9,04:45-05:00,1,5,5
9,05:00-05:15,1,4,4
9,05:15-05:30,1,4,4
9,05:30-05:45,1,5,5
9,05:45-06:00,1,5,5
9,06:00-06:15,1,5,5
9,06:15-06:30,1,3,3
9,06:30-06:45,1,4,4
9,06:45-07:00,1,5,5
9,07:00-07:15,1,4,4
9,07:15-07:30,1,5,5
9,07:30-07:45,1,4,4
9,07:45-08:00,1,4,4
9,08:00-08:15,1,5,5
9,08:15-08:30,1,4,4
9,08:30-08:45,1,5,5
9,08:45-09:00,1,3,3
9,09:00-09:15,1,4,4
9,09:15-09:30,1,4,4
9,09:30-09:45,1,4,4
9,09:45-10:00,1,4,4
9,10:00-10:15,1,3,3
9,10:15-10:30,1,5,5
9,10:30-10:45,1,4,4
9,10:45-11:00,1,4,4
9,11:00-11:15,1,5,5
9,11:15-11:30,1,3,3
9,11:30-11:45,1,3,3
9,11:45-12:00,1,5,5
9,12:00-12:15,1,5,5
9,12:15-12:30,1,3,3
9,12:30-12:45,1,4,4
9,12:45-13:00,1,5,5
9,13:00-13:15,1,4,4
9,13:15-13:30,1,3,3
9,13:30-13:45,1,4,4
9,13:45-14:00,1,4,4
9,14:00-14:15,1,4,4
9,14:15-14:30,1,4,4
9,14:30-14:45,1,4,4
9,14:45-15:00,1,4,4
9,15:00-15:15,1,4,4
9,15:15-15:30,1,4,4
9,15:30-15:45,1,5,5
9,15:45-16:00,1,4,4
9,16:00-16:15,1,4,4
9,16:15-16:30,1,3,3
9,16:30-16:45,1,4,4
9,16:45-17:00,1,5,5
9,17:00-17:15,1,5,5
9,17:15-17:30,1,5,5
9,17:30-17:45,1,5,5
9,17:45-18:00,1,5,5
9,18:00-18:15,1,3,3
9,18:15-18:30,1,5,5
9,18:30-18:45,1,4,4
9,18:45-19:00,1,5,5
9,19:00-19:15,1,4,4
9,19:15-19:30,1,3,3
9,19:30-19:45,1,3,3
9,19:45-20:00,1,5,5
9,20:00-20:15,1,5,5
9,20:15-20:30,1,4,4
9,20:30-20:45,1,3,3
9,20:45-21:00,1,4,4
9,21:00-21:15,1,5,5
9,21:15-21:30,1,4,4
9,21:30-21:45,1,5,5
9,21:45-22:00,1,4,4
9,22:00-22:15,1,4,4
9,22:15-22:30,1,3,3
9,22:30-22:45,1,4,4
9,22:45-23:00,1,4,4
9,23:00-23:15,1,5,5
9,23:15-23:30,1,3,3
9,23:30-23:45,1,3,3
9,23:45-00:00,1,5,5
10,00:00-00:15,1,4,4
10,00:15-00:30,1,4,4
10,00:30-00:45,1,4,4
10,00:45-01:00,1,4,4
10,01:00-01:15,1,4,4
10,01:15-01:30,1,3,3
10,01:30-01:45,1,5,5
10,01:45-02:00,1,5,5
10,02:00-02:15,1,4,4
10,02:15-02:30,1,4,4
10,02:30-02:45,1,5,5
10,02:45-03:00,1,4,4
10,03:00-03:15,1,4,4
10,03:15-03:30,1,4,4
10,03:30-03:45,1,4,4
10,03:45-04:00,1,4,4
10,04:00-04:15,1,3,3
10,04:15-04:30,1,5,5
10,04:30-04:45,1,4,4
10,04:45-05:00,1,5,5
10,05:00-05:15,1,4,4
10,05:15-05:30,1,5,5
10,05:30-05:45,1,5,5
10,05:45-06:00,1,3,3
10,06:00-06:15,1,4,4
10,06:15-06:30,1,4,4
10,06:30-06:45,1,4,4
10,06:45-07:00,1,5,5
10,07:00-07:15,1,4,4
10,07:15-07:30,1,4,4
10,07:30-07:45,1,5,5
10,07:45-08:00,1,3,3
10,08:00-08:15,1,4,4
10,08:15-08:30,1,5,5
10,08:30-08:45,1,4,4
10,08:45-09:00,1,5,5
10,09:00-09:15,1,5,5
10,09:15-09:30,1,4,4
10,09:30-09:45,1,4,4
10,09:45-10:00,1,5,5
10,10:00-10:15,1,4,4
10,10:15-10:30,1,4,4
10,10:30-10:45,1,5,5
10,10:45-11:00,1,4,4
10,11:00-11:15,1,4,4
10,11:15-11:30,1,3,3
10,11:30-11:45,1,5,5
10,11:45-12:00,1,5,5
10,12:00-12:15,1,5,5
10,12:15-12:30,1,5,5
10,12:30-12:45,1,3,3
10,12:45-13:00,1,3,3
10,13:00-13:15,1,4,4
10,13:15-13:30,1,4,4
10,13:30-13:45,1,4,4
10,13:45-14:00,1,4,4
10,14:00-14:15,1,4,4
10,14:15-14:30,1,4,4
10,14:30-14:45,1,3,3
10,14:45-15:00,1,4,4
10,15:00-15:15,1,5,5
10,15:15-15:30,1,4,4
10,15:30-15:45,1,4,4
10,15:45-16:00,1,5,5
10,16:00-16:15,1,4,4
10,16:15-16:30,1,4,4
10,16:30-16:45,1,5,5
10,16:45-17:00,1,5,5
10,17:00-17:15,1,4,4
10,17:15-17:30,1,4,4
10,17:30-17:45,1,5,5
10,17:45-18:00,1,4,4
10,18:00-18:15,1,4,4
10,18:15-18:30,1,5,5
10,18:30-18:45,1,3,3
10,18:45-19:00,1,3,3
10,19:00-19:15,1,5,5
10,19:15-19:30,1,4,4
10,19:30-19:45,1,4,4
10,19:45-20:00,1,4,4
10,20:00-20:15,1,4,4
10,20:15-20:30,1,4,4
10,20:30-20:45,1,5,5
10,20:45-21:00,1,4,4
10,21:00-21:15,1,4,4
10,21:15-21:30,1,5,5
10,21:30-21:45,1,4,4
10,21:45-22:00,1,4,4
10,22:00-22:15,1,4,4
10,22:15-22:30,1,5,5
10,22:30-22:45,1,3,3
10,22:45-23:00,1,4,4
10,23:00-23:15,1,4,4
10,23:15-23:30,1,5,5
10,23:30-23:45,1,4,4
10,23:45-00:00,1,4,4
11,00:00-00:15,1,6,6
11,00:15-00:30,1,3,3
11,00:30-00:45,1,5,5
11,00:45-01:00,1,5,5
11,01:00-01:15,1,3,3
11,01:15-01:30,1,5,5
11,01:30-01:45,1,4,4
11,01:45-02:00,1,4,4
11,02:00-02:15,1,4,4
11,02:15-02:30,1,4,4
11,02:30-02:45,1,4,4
11,02:45-03:00,1,5,5
11,03:00-03:15,1,3,3
11,03:15-03:30,1,4,4
11,03:30-03:45,1,4,4
11,03:45-04:00,1,3,3
11,04:00-04:15,1,5,5
11,04:15-04:30,1,5,5
11,04:30-04:45,1,5,5
11,04:45-05:00,1,3,3
11,05:00-05:15,1,3,3
11,05:15-05:30,1,5,5
11,05:30-05:45,1,4,4
11,05:45-06:00,1,4,4
11,06:00-06:15,1,3,3
11,06:15-06:30,1,4,4
11,06:30-06:45,1,4,4
11,06:45-07:00,1,5,5
11,07:00-07:15,1,5,5
11,07:15-07:30,1,4,4
11,07:30-07:45,1,5,5
11,07:45-08:00,1,5,5
11,08:00-08:15,1,6,6
11,08:15-08:30,1,4,4
11,08:30-08:45,1,3,3
11,08:45-09:00,1,5,5
11,09:00-09:15,1,5,5
11,09:15-09:30,1,4,4
11,09:30-09:45,1,4,4
11,09:45-10:00,1,4,4
11,10:00-10:15,1,5,5
11,10:15-10:30,1,4,4
11,10:30-10:45,1,4,4
11,10:45-11:00,1,5,5
11,11:00-11:15,1,4,4
11,11:15-11:30,1,5,5
11,11:30-11:45,1,3,3
11,11:45-12:00,1,3,3
11,12:00-12:15,1,3,3
11,12:15-12:30,1,3,3
11,12:30-12:45,1,4,4
11,12:45-13:00,1,4,4
11,13:00-13:15,1,4,4
11,13:15-13:30,1,5,5
11,13:30-13:45,1,4,4
11,13:45-14:00,1,4,4
11,14:00-14:15,1,5,5
11,14:15-14:30,1,4,4
11,14:30-14:45,1,5,5
11,14:45-15:00,1,4,4
11,15:00-15:15,1,4,4
11,15:15-15:30,1,4,4
11,15:30-15:45,1,4,4
11,15:45-16:00,1,3,3
11,16:00-16:15,1,4,4
11,16:15-16:30,1,5,5
11,16:30-16:45,1,3,3
11,16:45-17:00,1,4,4
11,17:00-17:15,1,3,3
11,17:15-17:30,1,6,6
11,17:30-17:45,1,5,5
11,17:45-18:00,1,5,5
11,18:00-18:15,1,5,5
11,18:15-18:30,1,4,4
11,18:30-18:45,1,3,3
11,18:45-19:00,1,4,4
11,19:00-19:15,1,4,4
11,19:15-19:30,1,5,5
11,19:30-19:45,1,4,4
11,19:45-20:00,1,4,4
11,20:00-20:15,1,4,4
11,20:15-20:30,1,4,4
11,20:30-20:45,1,4,4
11,20:45-21:00,1,4,4
11,21:00-21:15,1,4,4
11,21:15-21:30,1,5,5
11,21:30-21:45,1,4,4
11,21:45-22:00,1,5,5
11,22:00-22:15,1,3,3
11,22:15-22:30,1,5,5
11,22:30-22:45,1,4,4
11,22:45-23:00,1,4,4
11,23:00-23:15,1,5,5
11,23:15-23:30,1,5,5
11,23:30-23:45,1,3,3
11,23:45-00:00,1,4,4
12,00:00-00:15,1,5,5
12,00:15-00:30,1,5,5
12,00:30-00:45,1,5,5
12,00:45-01:00,1,5,5
12,01:00-01:15,1,5,5
12,01:15-01:30,1,4,4
12,01:30-01:45,1,5,5
12,01:45-02:00,1,4,4
12,02:00-02:15,1,5,5
12,02:15-02:30,1,4,4
12,02:30-02:45,1,5,5
12,02:45-03:00,1,3,3
12,03:00-03:15,1,5,5
12,03:15-03:30,1,5,5
12,03:30-03:45,1,5,5
12,03:45-04:00,1,4,4
12,04:00-04:15,1,3,3
12,04:15-04:30,1,4,4
12,04:30-04:45,1,3,3
12,04:45-05:00,1,4,4
12,05:00-05:15,1,5,5
12,05:15-05:30,1,5,5
12,05:30-05:45,1,4,4
12,05:45-06:00,1,4,4
12,06:00-06:15,1,4,4
12,06:15-06:30,1,3,3
12,06:30-06:45,1,4,4
12,06:45-07:00,1,4,4
12,07:00-07:15,1,4,4
12,07:15-07:30,1,5,5
12,07:30-07:45,1,4,4
12,07:45-08:00,1,5,5
12,08:00-08:15,1,3,3
12,08:15-08:30,1,4,4
12,08:30-08:45,1,4,4
12,08:45-09:00,1,3,3
12,09:00-09:15,1,4,4
12,09:15-09:30,1,5,5
12,09:30-09:45,1,4,4
12,09:45-10:00,1,5,5
12,10:00-10:15,1,4,4
12,10:15-10:30,1,5,5
12,10:30-10:45,1,4,4
12,10:45-11:00,1,4,4
12,11:00-11:15,1,5,5
12,11:15-11:30,1,3,3
12,11:30-11:45,1,3,3
12,11:45-12:00,1,3,3
12,12:00-12:15,1,5,5
12,12:15-12:30,1,5,5
12,12:30-12:45,1,4,4
12,12:45-13:00,1,4,4
12,13:00-13:15,1,4,4
12,13:15-13:30,1,4,4
12,13:30-13:45,1,5,5
12,13:45-14:00,1,4,4
12,14:00-14:15,1,5,5
12,14:15-14:30,1,4,4
12,14:30-14:45,1,4,4
12,14:45-15:00,1,4,4
12,15:00-15:15,1,6,6
12,15:15-15:30,1,5,5
12,15:30-15:45,1,3,3
12,15:45-16:00,1,3,3
12,16:00-16:15,1,4,4
12,16:15-16:30,1,5,5
12,16:30-16:45,1,3,3
12,16:45-17:00,1,4,4
12,17:00-17:15,1,4,4
12,17:15-17:30,1,6,6
12,17:30-17:45,1,4,4
12,17:45-18:00,1,4,4
12,18:00-18:15,1,5,5
12,18:15-18:30,1,3,3
12,18:30-18:45,1,3,3
12,18:45-19:00,1,3,3
12,19:00-19:15,1,4,4
12,19:15-19:30,1,4,4
12,19:30-19:45,1,4,4
12,19:45-20:00,1,4,4
12,20:00-20:15,1,3,3
12,20:15-20:30,1,4,4
12,20:30-20:45,1,4,4
12,20:45-21:00,1,4,4
12,21:00-21:15,1,3,3
12,21:15-21:30,1,4,4
12,21:30-21:45,1,4,4
12,21:45-22:00,1,4,4
12,22:00-22:15,1,5,5
12,22:15-22:30,1,4,4
12,22:30-22:45,1,4,4
12,22:45-23:00,1,5,5
12,23:00-23:15,1,3,3
12,23:15-23:30,1,3,3
12,23:30-23:45,1,3,3
12,23:45-00:00,1,4,4
13,00:00-00:15,1,4,4
13,00:15-00:30,1,4,4
13,00:30-00:45,1,4,4
13,00:45-01:00,1,5,5
13,01:00-01:15,1,3,3
13,01:15-01:30,1,5,5
13,01:30-01:45,1,4,4
13,01:45-02:00,1,4,4
13,02:00-02:15,1,4,4
13,02:15-02:30,1,4,4
13,02:30-02:45,1,4,4
13,02:45-03:00,1,4,4
13,03:00-03:15,1,4,4
13,03:15-03:30,1,4,4
13,03:30-03:45,1,3,3
13,03:45-04:00,1,4,4
13,04:00-04:15,1,5,5
13,04:15-04:30,1,3,3
13,04:30-04:45,1,4,4
13,04:45-05:00,1,4,4
13,05:00-05:15,1,4,4
13,05:15-05:30,1,5,5
13,05:30-05:45,1,5,5
13,05:45-06:00,1,4,4
13,06:00-06:15,1,5,5
13,06:15-06:30,1,4,4
13,06:30-06:45,1,4,4
13,06:45-07:00,1,5,5
13,07:00-07:15,1,4,4
13,07:15-07:30,1,4,4
13,07:30-07:45,1,3,3
13,07:45-08:00,1,5,5
13,08:00-08:15,1,5,5
13,08:15-08:30,1,4,4
13,08:30-08:45,1,4,4
13,08:45-09:00,1,3,3
13,09:00-09:15,1,4,4
13,09:15-09:30,1,4,4
13,09:30-09:45,1,4,4
13,09:45-10:00,1,3,3
13,10:00-10:15,1,3,3
13,10:15-10:30,1,3,3
13,10:30-10:45,1,5,5
13,10:45-11:00,1,5,5
13,11:00-11:15,1,5,5
13,11:15-11:30,1,5,5
13,11:30-11:45,1,5,5
13,11:45-12:00,1,3,3
13,12:00-12:15,1,4,4
13,12:15-12:30,1,5,5
13,12:30-12:45,1,3,3
13,12:45-13:00,1,5,5
13,13:00-13:15,1,4,4
13,13:15-13:30,1,5,5
13,13:30-13:45,1,4,4
13,13:45-14:00,1,5,5
13,14:00-14:15,1,4,4
13,14:15-14:30,1,4,4
13,14:30-14:45,1,4,4
13,14:45-15:00,1,4,4
13,15:00-15:15,1,4,4
13,15:15-15:30,1,4,4
13,15:30-15:45,1,3,3
13,15:45-16:00,1,5,5
13,16:00-16:15,1,4,4
13,16:15-16:30,1,5,5
13,16:30-16:45,1,4,4
13,16:45-17:00,1,6,6
13,17:00-17:15,1,5,5
13,17:15-17:30,1,4,4
13,17:30-17:45,1,5,5
13,17:45-18:00,1,4,4
13,18:00-18:15,1,5,5
13,18:15-18:30,1,3,3
13,18:30-18:45,1,4,4
13,18:45-19:00,1,3,3
13,19:00-19:15,1,5,5
13,19:15-19:30,1,3,3
13,19:30-19:45,1,4,4
13,19:45-20:00,1,5,5
13,20:00-20:15,1,5,5
13,20:15-20:30,1,4,4
13,20:30-20:45,1,4,4
13,20:45-21:00,1,4,4
13,21:00-21:15,1,4,4
13,21:15-21:30,1,3,3
13,21:30-21:45,1,4,4
13,21:45-22:00,1,3,3
13,22:00-22:15,1,4,4
13,22:15-22:30,1,4,4
13,22:30-22:45,1,4,4
13,22:45-23:00,1,4,4
13,23:00-23:15,1,3,3
13,23:15-23:30,1,5,5
13,23:30-23:45,1,5,5
13,23:45-00:00,1,4,4
14,00:00-00:15,1,4,4
14,00:15-00:30,1,5,5
14,00:30-00:45,1,4,4
14,00:45-01:00,1,3,3
14,01:00-01:15,1,4,4
14,01:15-01:30,1,5,5
14,01:30-01:45,1,5,5
14,01:45-02:00,1,4,4
14,02:00-02:15,1,3,3
14,02:15-02:30,1,5,5
14,02:30-02:45,1,3,3
14,02:45-03:00,1,4,4
14,03:00-03:15,1,4,4
14,03:15-03:30,1,3,3
14,03:30-03:45,1,3,3
14,03:45-04:00,1,4,4
14,04:00-04:15,1,4,4
14,04:15-04:30,1,4,4
14,04:30-04:45,1,4,4
14,04:45-05:00,1,5,5
14,05:00-05:15,1,3,3
14,05:15-05:30,1,5,5
14,05:30-05:45,1,5,5
14,05:45-06:00,1,3,3
14,06:00-06:15,1,4,4
14,06:15-06:30,1,4,4
14,06:30-06:45,1,4,4
14,06:45-07:00,1,5,5
14,07:00-07:15,1,4,4
14,07:15-07:30,1,4,4
14,07:30-07:45,1,4,4
14,07:45-08:00,1,5,5
14,08:00-08:15,1,4,4
14,08:15-08:30,1,5,5
14,08:30-08:45,1,3,3
14,08:45-09:00,1,5,5
14,09:00-09:15,1,4,4
14,09:15-09:30,1,4,4
14,09:30-09:45,1,4,4
14,09:45-10:00,1,5,5
14,10:00-10:15,1,4,4
14,10:15-10:30,1,5,5
14,10:30-10:45,1,3,3
14,10:45-11:00,1,4,4
14,11:00-11:15,1,5,5
14,11:15-11:30,1,5,5
14,11:30-11:45,1,4,4
14,11:45-12:00,1,4,4
14,12:00-12:15,1,4,4
14,12:15-12:30,1,4,4
14,12:30-12:45,1,5,5
14,12:45-13:00,1,5,5
14,13:00-13:15,1,4,4
14,13:15-13:30,1,3,3
14,13:30-13:45,1,4,4
14,13:45-14:00,1,4,4
14,14:00-14:15,1,5,5
14,14:15-14:30,1,4,4
14,14:30-14:45,1,4,4
14,14:45-15:00,1,5,5
14,15:00-15:15,1,4,4
14,15:15-15:30,1,3,3
14,15:30-15:45,1,3,3
14,15:45-16:00,1,5,5
14,16:00-16:15,1,4,4
14,16:15-16:30,1,5,5
14,16:30-16:45,1,4,4
14,16:45-17:00,1,6,6
14,17:00-17:15,1,4,4
14,17:15-17:30,1,5,5
14,17:30-17:45,1,4,4
14,17:45-18:00,1,6,6
14,18:00-18:15,1,5,5
14,18:15-18:30,1,4,4
14,18:30-18:45,1,4,4
14,18:45-19:00,1,3,3
14,19:00-19:15,1,4,4
14,19:15-19:30,1,4,4
14,19:30-19:45,1,3,3
14,19:45-20:00,1,4,4
14,20:00-20:15,1,3,3
14,20:15-20:30,1,4,4
14,20:30-20:45,1,4,4
14,20:45-21:00,1,3,3
14,21:00-21:15,1,4,4
14,21:15-21:30,1,4,4
14,21:30-21:45,1,4,4
14,21:45-22:00,1,3,3
14,22:00-22:15,1,4,4
14,22:15-22:30,1,5,5
14,22:30-22:45,1,4,4
14,22:45-23:00,1,5,5
14,23:00-23:15,1,3,3
14,23:15-23:30,1,5,5
14,23:30-23:45,1,6,6
14,23:45-00:00,1,4,4
15,00:00-00:15,1,5,5
15,00:15-00:30,1,4,4
15,00:30-00:45,1,5,5
15,00:45-01:00,1,4,4
15,01:00-01:15,1,4,4
15,01:15-01:30,1,4,4
15,01:30-01:45,1,4,4
15,01:45-02:00,1,4,4
15,02:00-02:15,1,4,4
15,02:15-02:30,1,3,3
15,02:30-02:45,1,3,3
15,02:45-03:00,1,5,5
15,03:00-03:15,1,4,4
15,03:15-03:30,1,4,4
15,03:30-03:45,1,5,5
15,03:45-04:00,1,5,5
15,04:00-04:15,1,4,4
15,04:15-04:30,1,5,5
15,04:30-04:45,1,5,5
15,04:45-05:00,1,5,5
15,05:00-05:15,1,5,5
15,05:15-05:30,1,5,5
15,05:30-05:45,1,4,4
15,05:45-06:00,1,3,3
15,06:00-06:15,1,5,5
15,06:15-06:30,1,3,3
15,06:30-06:45,1,4,4
15,06:45-07:00,1,4,4
15,07:00-07:15,1,4,4
15,07:15-07:30,1,3,3
15,07:30-07:45,1,6,6
15,07:45-08:00,1,6,6
15,08:00-08:15,1,6,6
15,08:15-08:30,1,3,3
15,08:30-08:45,1,3,3
15,08:45-09:00,1,4,4
15,09:00-09:15,1,4,4
15,09:15-09:30,1,4,4
15,09:30-09:45,1,3,3
15,09:45-10:00,1,4,4
15,10:00-10:15,1,3,3
15,10:15-10:30,1,5,5
15,10:30-10:45,1,5,5
15,10:45-11:00,1,4,4
15,11:00-11:15,1,4,4
15,11:15-11:30,1,4,4
15,11:30-11:45,1,4,4
15,11:45-12:00,1,5,5
15,12:00-12:15,1,3,3
15,12:15-12:30,1,4,4
15,12:30-12:45,1,4,4
15,12:45-13:00,1,4,4
15,13:00-13:15,1,5,5
15,13:15-13:30,1,5,5
15,13:30-13:45,1,4,4
15,13:45-14:00,1,5,5
15,14:00-14:15,1,5,5
15,14:15-14:30,1,5,5
15,14:30-14:45,1,5,5
15,14:45-15:00,1,4,4
15,15:00-15:15,1,5,5
15,15:15-15:30,1,5,5
15,15:30-15:45,1,4,4
15,15:45-16:00,1,3,3
15,16:00-16:15,1,4,4
15,16:15-16:30,1,4,4
15,16:30-16:45,1,6,6
15,16:45-17:00,1,5,5
15,17:00-17:15,1,5,5
15,17:15-17:30,1,5,5
15,17:30-17:45,1,5,5
15,17:45-18:00,1,6,6
15,18:00-18:15,1,6,6
15,18:15-18:30,1,5,5
15,18:30-18:45,1,5,5
15,18:45-19:00,1,6,6
15,19:00-19:15,1,6,6
15,19:15-19:30,1,6,6
15,19:30-19:45,1,5,5
15,19:45-20:00,1,3,3
15,20:00-20:15,1,4,4
15,20:15-20:30,1,5,5
15,20:30-20:45,1,4,4
15,20:45-21:00,1,5,5
15,21:00-21:15,1,4,4
15,21:15-21:30,1,4,4
15,21:30-21:45,1,3,3
15,21:45-22:00,1,5,5
15,22:00-22:15,1,4,4
15,22:15-22:30,1,3,3
15,22:30-22:45,1,4,4
15,22:45-23:00,1,4,4
15,23:00-23:15,1,5,5
15,23:15-23:30,1,4,4
15,23:30-23:45,1,5,5
15,23:45-00:00,1,4,4
16,00:00-00:15,1,5,5
16,00:15-00:30,1,6,6
16,00:30-00:45,1,4,4
16,00:45-01:00,1,5,5
16,01:00-01:15,1,6,6
16,01:15-01:30,1,6,6
16,01:30-01:45,1,4,4
16,01:45-02:00,1,4,4
16,02:00-02:15,1,5,5
16,02:15-02:30,1,5,5
16,02:30-02:45,1,4,4
16,02:45-03:00,1,4,4
16,03:00-03:15,1,4,4
16,03:15-03:30,1,4,4
16,03:30-03:45,1,5,5
16,03:45-04:00,1,3,3
16,04:00-04:15,1,4,4
16,04:15-04:30,1,4,4
16,04:30-04:45,1,3,3
16,04:45-05:00,1,5,5
16,05:00-05:15,1,4,4
16,05:15-05:30,1,4,4
16,05:30-05:45,1,4,4
16,05:45-06:00,1,5,5
16,06:00-06:15,1,3,3
16,06:15-06:30,1,3,3
16,06:30-06:45,1,5,5
16,06:45-07:00,1,3,3
16,07:00-07:15,1,3,3
16,07:15-07:30,1,4,4
16,07:30-07:45,1,3,3
16,07:45-08:00,1,4,4
16,08:00-08:15,1,4,4
16,08:15-08:30,1,4,4
16,08:30-08:45,1,4,4
16,08:45-09:00,1,3,3
16,09:00-09:15,1,5,5
16,09:15-09:30,1,4,4
16,09:30-09:45,1,4,4
16,09:45-10:00,1,4,4
16,10:00-10:15,1,4,4
16,10:15-10:30,1,4,4
16,10:30-10:45,1,3,3
16,10:45-11:00,1,5,5
16,11:00-11:15,1,3,3
16,11:15-11:30,1,4,4
16,11:30-11:45,1,5,5
16,11:45-12:00,1,3,3
16,12:00-12:15,1,3,3
16,12:15-12:30,1,4,4
16,12:30-12:45,1,3,3
16,12:45-13:00,1,3,3
16,13:00-13:15,1,4,4
16,13:15-13:30,1,5,5
16,13:30-13:45,1,4,4
16,13:45-14:00,1,4,4
16,14:00-14:15,1,4,4
16,14:15-14:30,1,4,4
16,14:30-14:45,1,4,4
16,14:45-15:00,1,5,5
16,15:00-15:15,1,6,6
16,15:15-15:30,1,5,5
16,15:30-15:45,1,5,5
16,15:45-16:00,1,5,5
16,16:00-16:15,1,5,5
16,16:15-16:30,1,5,5
16,16:30-16:45,1,3,3
16,16:45-17:00,1,5,5
16,17:00-17:15,1,5,5
16,17:15-17:30,1,5,5
16,17:30-17:45,1,4,4
16,17:45-18:00,1,3,3
16,18:00-18:15,1,3,3
16,18:15-18:30,1,4,4
16,18:30-18:45,1,4,4
16,18:45-19:00,1,5,5
16,19:00-19:15,1,4,4
16,19:15-19:30,1,5,5
16,19:30-19:45,1,4,4
16,19:45-20:00,1,5,5
16,20:00-20:15,1,4,4
16,20:15-20:30,1,5,5
16,20:30-20:45,1,5,5
16,20:45-21:00,1,5,5
16,21:00-21:15,1,3,3
16,21:15-21:30,1,5,5
16,21:30-21:45,1,3,3
16,21:45-22:00,1,5,5
16,22:00-22:15,1,5,5
16,22:15-22:30,1,5,5
16,22:30-22:45,1,5,5
16,22:45-23:00,1,4,4
16,23:00-23:15,1,5,5
16,23:15-23:30,1,6,6
16,23:30-23:45,1,5,5
16,23:45-00:00,1,5,5
17,00:00-00:15,1,4,4
17,00:15-00:30,1,4,4
17,00:30-00:45,1,3,3
17,00:45-01:00,1,4,4
17,01:00-01:15,1,4,4
17,01:15-01:30,1,5,5
17,01:30-01:45,1,3,3
17,01:45-02:00,1,4,4
17,02:00-02:15,1,3,3
17,02:15-02:30,1,3,3
17,02:30-02:45,1,5,5
17,02:45-03:00,1,4,4
17,03:00-03:15,1,3,3
17,03:15-03:30,1,4,4
17,03:30-03:45,1,5,5
17,03:45-04:00,1,4,4
17,04:00-04:15,1,5,5
17,04:15-04:30,1,4,4
17,04:30-04:45,1,4,4
17,04:45-05:00,1,3,3
17,05:00-05:15,1,4,4
17,05:15-05:30,1,4,4
17,05:30-05:45,1,5,5
17,05:45-06:00,1,5,5
17,06:00-06:15,1,5,5
17,06:15-06:30,1,4,4
17,06:30-06:45,1,5,5
17,06:45-07:00,1,3,3
17,07:00-07:15,1,3,3
17,07:15-07:30,1,5,5
17,07:30-07:45,1,3,3
17,07:45-08:00,1,4,4
17,08:00-08:15,1,3,3
17,08:15-08:30,1,5,5
17,08:30-08:45,1,5,5
17,08:45-09:00,1,4,4
17,09:00-09:15,1,4,4
17,09:15-09:30,1,4,4
17,09:30-09:45,1,4,4
17,09:45-10:00,1,4,4
17,10:00-10:15,1,5,5
17,10:15-10:30,1,4,4
17,10:30-10:45,1,5,5
17,10:45-11:00,1,5,5
17,11:00-11:15,1,3,3
17,11:15-11:30,1,4,4
17,11:30-11:45,1,4,4
17,11:45-12:00,1,4,4
17,12:00-12:15,1,5,5
17,12:15-12:30,1,3,3
17,12:30-12:45,1,4,4
17,12:45-13:00,1,4,4
17,13:00-13:15,1,4,4
17,13:15-13:30,1,4,4
17,13:30-13:45,1,4,4
17,13:45-14:00,1,4,4
17,14:00-14:15,1,4,4
17,14:15-14:30,1,4,4
17,14:30-14:45,1,4,4
17,14:45-15:00,1,5,5
17,15:00-15:15,1,5,5
17,15:15-15:30,1,5,5
17,15:30-15:45,1,4,4
17,15:45-16:00,1,4,4
17,16:00-16:15,1,3,3
17,16:15-16:30,1,4,4
17,16:30-16:45,1,4,4
17,16:45-17:00,1,4,4
17,17:00-17:15,1,5,5
17,17:15-17:30,1,4,4
17,17:30-17:45,1,3,3
17,17:45-18:00,1,4,4
17,18:00-18:15,1,3,3
17,18:15-18:30,1,3,3
17,18:30-18:45,1,3,3
17,18:45-19:00,1,5,5
17,19:00-19:15,1,5,5
17,19:15-19:30,1,5,5
17,19:30-19:45,1,4,4
17,19:45-20:00,1,4,4
17,20:00-20:15,1,4,4
17,20:15-20:30,1,5,5
17,20:30-20:45,1,3,3
17,20:45-21:00,1,3,3
17,21:00-21:15,1,4,4
17,21:15-21:30,1,4,4
17,21:30-21:45,1,3,3
17,21:45-22:00,1,4,4
17,22:00-22:15,1,4,4
17,22:15-22:30,1,4,4
17,22:30-22:45,1,5,5
17,22:45-23:00,1,4,4
17,23:00-23:15,1,5,5
17,23:15-23:30,1,4,4
17,23:30-23:45,1,4,4
17,23:45-00:00,1,5,5
18,00:00-00:15,1,4,4
18,00:15-00:30,1,4,4
18,00:30-00:45,1,5,5
18,00:45-01:00,1,4,4
18,01:00-01:15,1,3,3
18,01:15-01:30,1,4,4
18,01:30-01:45,1,4,4
18,01:45-02:00,1,4,4
18,02:00-02:15,1,3,3
18,02:15-02:30,1,3,3
18,02:30-02:45,1,4,4
18,02:45-03:00,1,4,4
18,03:00-03:15,1,4,4
18,03:15-03:30,1,4,4
18,03:30-03:45,1,4,4
18,03:45-04:00,1,4,4
18,04:00-04:15,1,4,4
18,04:15-04:30,1,3,3
18,04:30-04:45,1,4,4
18,04:45-05:00,1,4,4
18,05:00-05:15,1,5,5
18,05:15-05:30,1,3,3
18,05:30-05:45,1,3,3
18,05:45-06:00,1,4,4
18,06:00-06:15,1,4,4
18,06:15-06:30,1,6,6
18,06:30-06:45,1,6,6
18,06:45-07:00,1,5,5
18,07:00-07:15,1,5,5
18,07:15-07:30,1,6,6
18,07:30-07:45,1,4,4
18,07:45-08:00,1,4,4
18,08:00-08:15,1,4,4
18,08:15-08:30,1,4,4
18,08:30-08:45,1,4,4
18,08:45-09:00,1,4,4
18,09:00-09:15,1,3,3
18,09:15-09:30,1,3,3
18,09:30-09:45,1,3,3
18,09:45-10:00,1,3,3
18,10:00-10:15,1,4,4
18,10:15-10:30,1,5,5
18,10:30-10:45,1,5,5
18,10:45-11:00,1,3,3
18,11:00-11:15,1,4,4
18,11:15-11:30,1,5,5
18,11:30-11:45,1,4,4
18,11:45-12:00,1,3,3
18,12:00-12:15,1,4,4
18,12:15-12:30,1,4,4
18,12:30-12:45,1,4,4
18,12:45-13:00,1,4,4
18,13:00-13:15,1,3,3
18,13:15-13:30,1,4,4
18,13:30-13:45,1,3,3
18,13:45-14:00,1,3,3
18,14:00-14:15,1,4,4
18,14:15-14:30,1,4,4
18,14:30-14:45,1,4,4
18,14:45-15:00,1,4,4
18,15:00-15:15,1,4,4
18,15:15-15:30,1,6,6
18,15:30-15:45,1,5,5
18,15:45-16:00,1,4,4
18,16:00-16:15,1,4,4
18,16:15-16:30,1,4,4
18,16:30-16:45,1,4,4
18,16:45-17:00,1,3,3
18,17:00-17:15,1,5,5
18,17:15-17:30,1,3,3
18,17:30-17:45,1,4,4
18,17:45-18:00,1,4,4
18,18:00-18:15,1,3,3
18,18:15-18:30,1,3,3
18,18:30-18:45,1,5,5
18,18:45-19:00,1,3,3
18,19:00-19:15,1,4,4
18,19:15-19:30,1,5,5
18,19:30-19:45,1,3,3
18,19:45-20:00,1,4,4
18,20:00-20:15,1,4,4
18,20:15-20:30,1,4,4
18,20:30-20:45,1,5,5
18,20:45-21:00,1,4,4
18,21:00-21:15,1,3,3
18,21:15-21:30,1,5,5
18,21:30-21:45,1,4,4
18,21:45-22:00,1,4,4
18,22:00-22:15,1,3,3
18,22:15-22:30,1,4,4
18,22:30-22:45,1,5,5
18,22:45-23:00,1,5,5
18,23:00-23:15,1,5,5
18,23:15-23:30,1,5,5
18,23:30-23:45,1,5,5
18,23:45-00:00,1,4,4
19,00:00-00:15,1,3,3
19,00:15-00:30,1,5,5
19,00:30-00:45,1,5,5
19,00:45-01:00,1,5,5
19,01:00-01:15,1,4,4
19,01:15-01:30,1,3,3
19,01:30-01:45,1,4,4
19,01:45-02:00,1,4,4
19,02:00-02:15,1,4,4
19,02:15-02:30,1,3,3
19,02:30-02:45,1,4,4
19,02:45-03:00,1,5,5
19,03:00-03:15,1,4,4
19,03:15-03:30,1,5,5
19,03:30-03:45,1,5,5
19,03:45-04:00,1,4,4
19,04:00-04:15,1,4,4
19,04:15-04:30,1,5,5
19,04:30-04:45,1,5,5
19,04:45-05:00,1,5,5
19,05:00-05:15,1,5,5
19,05:15-05:30,1,4,4
19,05:30-05:45,1,3,3
19,05:45-06:00,1,4,4
19,06:00-06:15,1,5,5
19,06:15-06:30,1,4,4
19,06:30-06:45,1,3,3
19,06:45-07:00,1,4,4
19,07:00-07:15,1,4,4
19,07:15-07:30,1,5,5
19,07:30-07:45,1,5,5
19,07:45-08:00,1,3,3
19,08:00-08:15,1,4,4
19,08:15-08:30,1,3,3
19,08:30-08:45,1,3,3
19,08:45-09:00,1,4,4
19,09:00-09:15,1,3,3
19,09:15-09:30,1,3,3
19,09:30-09:45,1,3,3
19,09:45-10:00,1,4,4
19,10:00-10:15,1,4,4
19,10:15-10:30,1,4,4
19,10:30-10:45,1,5,5
19,10:45-11:00,1,3,3
19,11:00-11:15,1,4,4
19,11:15-11:30,1,4,4
19,11:30-11:45,1,5,5
19,11:45-12:00,1,3,3
19,12:00-12:15,1,4,4
19,12:15-12:30,1,4,4
19,12:30-12:45,1,4,4
19,12:45-13:00,1,5,5
19,13:00-13:15,1,3,3
19,13:15-13:30,1,5,5
19,13:30-13:45,1,5,5
19,13:45-14:00,1,5,5
19,14:00-14:15,1,4,4
19,14:15-14:30,1,4,4
19,14:30-14:45,1,5,5
19,14:45-15:00,1,5,5
19,15:00-15:15,1,3,3
19,15:15-15:30,1,5,5
19,15:30-15:45,1,4,4
19,15:45-16:00,1,5,5
19,16:00-16:15,1,5,5
19,16:15-16:30,1,4,4
19,16:30-16:45,1,4,4
19,16:45-17:00,1,4,4
19,17:00-17:15,1,5,5
19,17:15-17:30,1,4,4
19,17:30-17:45,1,4,4
19,17:45-18:00,1,3,3
19,18:00-18:15,1,5,5
19,18:15-18:30,1,4,4
19,18:30-18:45,1,4,4
19,18:45-19:00,1,4,4
19,19:00-19:15,1,4,4
19,19:15-19:30,1,3,3
19,19:30-19:45,1,3,3
19,19:45-20:00,1,4,4
19,20:00-20:15,1,4,4
19,20:15-20:30,1,5,5
19,20:30-20:45,1,3,3
19,20:45-21:00,1,5,5
19,21:00-21:15,1,3,3
19,21:15-21:30,1,5,5
19,21:30-21:45,1,3,3
19,21:45-22:00,1,4,4
19,22:00-22:15,1,4,4
19,22:15-22:30,1,4,4
19,22:30-22:45,1,5,5
19,22:45-23:00,1,4,4
19,23:00-23:15,1,4,4
19,23:15-23:30,1,3,3
19,23:30-23:45,1,4,4
19,23:45-00:00,1,4,4
20,00:00-00:15,1,3,3
20,00:15-00:30,1,5,5
20,00:30-00:45,1,5,5
20,00:45-01:00,1,5,5
20,01:00-01:15,1,3,3
20,01:15-01:30,1,4,4
20,01:30-01:45,1,4,4
20,01:45-02:00,1,5,5
20,02:00-02:15,1,5,5
20,02:15-02:30,1,4,4
20,02:30-02:45,1,3,3
20,02:45-03:00,1,4,4
20,03:00-03:15,1,4,4
20,03:15-03:30,1,4,4
20,03:30-03:45,1,3,3
20,03:45-04:00,1,4,4
20,04:00-04:15,1,4,4
20,04:15-04:30,1,4,4
20,04:30-04:45,1,4,4
20,04:45-05:00,1,4,4
20,05:00-05:15,1,5,5
20,05:15-05:30,1,4,4
20,05:30-05:45,1,5,5
20,05:45-06:00,1,4,4
20,06:00-06:15,1,4,4
20,06:15-06:30,1,3,3
20,06:30-06:45,1,3,3
20,06:45-07:00,1,4,4
20,07:00-07:15,1,4,4
20,07:15-07:30,1,5,5
20,07:30-07:45,1,5,5
20,07:45-08:00,1,4,4
20,08:00-08:15,1,4,4
20,08:15-08:30,1,3,3
20,08:30-08:45,1,3,3
20,08:45-09:00,1,5,5
20,09:00-09:15,1,4,4
20,09:15-09:30,1,4,4
20,09:30-09:45,1,3,3
20,09:45-10:00,1,5,5
20,10:00-10:15,1,4,4
20,10:15-10:30,1,3,3
20,10:30-10:45,1,5,5
20,10:45-11:00,1,5,5
20,11:00-11:15,1,5,5
20,11:15-11:30,1,4,4
20,11:30-11:45,1,3,3
20,11:45-12:00,1,5,5
20,12:00-12:15,1,3,3
20,12:15-12:30,1,4,4
20,12:30-12:45,1,4,4
20,12:45-13:00,1,4,4
20,13:00-13:15,1,4,4
20,13:15-13:30,1,5,5
20,13:30-13:45,1,4,4
20,13:45-14:00,1,5,5
20,14:00-14:15,1,3,3
20,14:15-14:30,1,4,4
20,14:30-14:45,1,5,5
20,14:45-15:00,1,4,4
20,15:00-15:15,1,5,5
20,15:15-15:30,1,4,4
20,15:30-15:45,1,5,5
20,15:45-16:00,1,4,4
20,16:00-16:15,1,5,5
20,16:15-16:30,1,5,5
20,16:30-16:45,1,5,5
20,16:45-17:00,1,5,5
20,17:00-17:15,1,5,5
20,17:15-17:30,1,5,5
20,17:30-17:45,1,4,4
20,17:45-18:00,1,4,4
20,18:00-18:15,1,4,4
20,18:15-18:30,1,5,5
20,18:30-18:45,1,4,4
20,18:45-19:00,1,5,5
20,19:00-19:15,1,4,4
20,19:15-19:30,1,3,3
20,19:30-19:45,1,4,4
20,19:45-20:00,1,5,5
20,20:00-20:15,1,3,3
20,20:15-20:30,1,4,4
20,20:30-20:45,1,4,4
20,20:45-21:00,1,3,3
20,21:00-21:15,1,4,4
20,21:15-21:30,1,4,4
20,21:30-21:45,1,5,5
20,21:45-22:00,1,4,4
20,22:00-22:15,1,4,4
20,22:15-22:30,1,4,4
20,22:30-22:45,1,5,5
20,22:45-23:00,1,3,3
20,23:00-23:15,1,5,5
20,23:15-23:30,1,5,5
20,23:30-23:45,1,3,3
20,23:45-00:00,1,3,3
21,00:00-00:15,1,6,6
21,00:15-00:30,1,5,5
21,00:30-00:45,1,4,4
21,00:45-01:00,1,4,4
21,01:00-01:15,1,3,3
21,01:15-01:30,1,4,4
21,01:30-01:45,1,4,4
21,01:45-02:00,1,5,5
21,02:00-02:15,1,4,4
21,02:15-02:30,1,4,4
21,02:30-02:45,1,5,5
21,02:45-03:00,1,5,5
21,03:00-03:15,1,4,4
21,03:15-03:30,1,4,4
21,03:30-03:45,1,4,4
21,03:45-04:00,1,5,5
21,04:00-04:15,1,4,4
21,04:15-04:30,1,4,4
21,04:30-04:45,1,3,3
21,04:45-05:00,1,4,4
21,05:00-05:15,1,4,4
21,05:15-05:30,1,4,4
21,05:30-05:45,1,4,4
21,05:45-06:00,1,3,3
21,06:00-06:15,1,4,4
21,06:15-06:30,1,3,3
21,06:30-06:45,1,5,5
21,06:45-07:00,1,5,5
21,07:00-07:15,1,4,4
21,07:15-07:30,1,3,3
21,07:30-07:45,1,3,3
21,07:45-08:00,1,4,4
21,08:00-08:15,1,4,4
21,08:15-08:30,1,4,4
21,08:30-08:45,1,3,3
21,08:45-09:00,1,4,4
21,09:00-09:15,1,5,5
21,09:15-09:30,1,4,4
21,09:30-09:45,1,5,5
21,09:45-10:00,1,4,4
21,10:00-10:15,1,5,5
21,10:15-10:30,1,4,4
21,10:30-10:45,1,5,5
21,10:45-11:00,1,3,3
21,11:00-11:15,1,4,4
21,11:15-11:30,1,3,3
21,11:30-11:45,1,5,5
21,11:45-12:00,1,5,5
21,12:00-12:15,1,3,3
21,12:15-12:30,1,5,5
21,12:30-12:45,1,4,4
21,12:45-13:00,1,4,4
21,13:00-13:15,1,5,5
21,13:15-13:30,1,5,5
21,13:30-13:45,1,5,5
21,13:45-14:00,1,4,4
21,14:00-14:15,1,4,4
21,14:15-14:30,1,3,3
21,14:30-14:45,1,5,5
21,14:45-15:00,1,3,3
21,15:00-15:15,1,5,5
21,15:15-15:30,1,4,4
21,15:30-15:45,1,4,4
21,15:45-16:00,1,3,3
21,16:00-16:15,1,4,4
21,16:15-16:30,1,4,4
21,16:30-16:45,1,4,4
21,16:45-17:00,1,5,5
21,17:00-17:15,1,4,4
21,17:15-17:30,1,5,5
21,17:30-17:45,1,3,3
21,17:45-18:00,1,4,4
21,18:00-18:15,1,4,4
21,18:15-18:30,1,5,5
21,18:30-18:45,1,4,4
21,18:45-19:00,1,4,4
21,19:00-19:15,1,4,4
21,19:15-19:30,1,4,4
21,19:30-19:45,1,5,5
21,19:45-20:00,1,4,4
21,20:00-20:15,1,3,3
21,20:15-20:30,1,3,3
21,20:30-20:45,1,5,5
21,20:45-21:00,1,5,5
21,21:00-21:15,1,5,5
21,21:15-21:30,1,4,4
21,21:30-21:45,1,4,4
21,21:45-22:00,1,5,5
21,22:00-22:15,1,4,4
21,22:15-22:30,1,4,4
21,22:30-22:45,1,4,4
21,22:45-23:00,1,5,5
21,23:00-23:15,1,4,4
21,23:15-23:30,1,6,6
21,23:30-23:45,1,5,5
21,23:45-00:00,1,4,4
22,00:00-00:15,1,5,5
22,00:15-00:30,1,6,6
22,00:30-00:45,1,5,5
22,00:45-01:00,1,3,3
22,01:00-01:15,1,5,5
22,01:15-01:30,1,3,3
22,01:30-01:45,1,4,4
22,01:45-02:00,1,4,4
22,02:00-02:15,1,4,4
22,02:15-02:30,1,3,3
22,02:30-02:45,1,3,3
22,02:45-03:00,1,4,4
22,03:00-03:15,1,3,3
22,03:15-03:30,1,4,4
22,03:30-03:45,1,3,3
22,03:45-04:00,1,5,5
22,04:00-04:15,1,4,4
22,04:15-04:30,1,4,4
22,04:30-04:45,1,5,5
22,04:45-05:00,1,5,5
22,05:00-05:15,1,5,5
22,05:15-05:30,1,4,4
22,05:30-05:45,1,4,4
22,05:45-06:00,1,5,5
22,06:00-06:15,1,4,4
22,06:15-06:30,1,4,4
22,06:30-06:45,1,4,4
22,06:45-07:00,1,5,5
22,07:00-07:15,1,4,4
22,07:15-07:30,1,4,4
22,07:30-07:45,1,5,5
22,07:45-08:00,1,4,4
22,08:00-08:15,1,4,4
22,08:15-08:30,1,4,4
22,08:30-08:45,1,4,4
22,08:45-09:00,1,4,4
22,09:00-09:15,1,5,5
22,09:15-09:30,1,5,5
22,09:30-09:45,1,4,4
22,09:45-10:00,1,3,3
22,10:00-10:15,1,6,6
22,10:15-10:30,1,5,5
22,10:30-10:45,1,5,5
22,10:45-11:00,1,5,5
22,11:00-11:15,1,5,5
22,11:15-11:30,1,5,5
22,11:30-11:45,1,5,5
22,11:45-12:00,1,5,5
22,12:00-12:15,1,5,5
22,12:15-12:30,1,5,5
22,12:30-12:45,1,5,5
22,12:45-13:00,1,6,6
22,13:00-13:15,1,4,4
22,13:15-13:30,1,6,6
22,13:30-13:45,1,5,5
22,13:45-14:00,1,6,6
22,14:00-14:15,1,4,4
22,14:15-14:30,1,5,5
22,14:30-14:45,1,4,4
22,14:45-15:00,1,4,4
22,15:00-15:15,1,5,5
22,15:15-15:30,1,4,4
22,15:30-15:45,1,5,5
22,15:45-16:00,1,3,3
22,16:00-16:15,1,3,3
22,16:15-16:30,1,4,4
22,16:30-16:45,1,3,3
22,16:45-17:00,1,5,5
22,17:00-17:15,1,5,5
22,17:15-17:30,1,4,4
22,17:30-17:45,1,3,3
22,17:45-18:00,1,4,4
22,18:00-18:15,1,5,5
22,18:15-18:30,1,4,4
22,18:30-18:45,1,5,5
22,18:45-19:00,1,4,4
22,19:00-19:15,1,3,3
22,19:15-19:30,1,5,5
22,19:30-19:45,1,4,4
22,19:45-20:00,1,4,4
22,20:00-20:15,1,5,5
22,20:15-20:30,1,5,5
22,20:30-20:45,1,4,4
22,20:45-21:00,1,5,5
22,21:00-21:15,1,5,5
22,21:15-21:30,1,3,3
22,21:30-21:45,1,4,4
22,21:45-22:00,1,3,3
22,22:00-22:15,1,5,5
22,22:15-22:30,1,4,4
22,22:30-22:45,1,5,5
22,22:45-23:00,1,5,5
22,23:00-23:15,1,4,4
22,23:15-23:30,1,4,4
22,23:30-23:45,1,4,4
22,23:45-00:00,1,4,4
23,00:00-00:15,1,4,4
23,00:15-00:30,1,3,3
23,00:30-00:45,1,4,4
23,00:45-01:00,1,5,5
23,01:00-01:15,1,4,4
23,01:15-01:30,1,5,5
23,01:30-01:45,1,4,4
23,01:45-02:00,1,5,5
23,02:00-02:15,1,4,4
23,02:15-02:30,1,3,3
23,02:30-02:45,1,5,5
23,02:45-03:00,1,4,4
23,03:00-03:15,1,5,5
23,03:15-03:30,1,4,4
23,03:30-03:45,1,5,5
23,03:45-04:00,1,5,5
23,04:00-04:15,1,4,4
23,04:15-04:30,1,3,3
23,04:30-04:45,1,4,4
23,04:45-05:00,1,5,5
23,05:00-05:15,1,3,3
23,05:15-05:30,1,3,3
23,05:30-05:45,1,3,3
23,05:45-06:00,1,5,5
23,06:00-06:15,1,3,3
23,06:15-06:30,1,5,5
23,06:30-06:45,1,3,3
23,06:45-07:00,1,4,4
23,07:00-07:15,1,4,4
23,07:15-07:30,1,4,4
23,07:30-07:45,1,3,3
23,07:45-08:00,1,5,5
23,08:00-08:15,1,4,4
23,08:15-08:30,1,4,4
23,08:30-08:45,1,5,5
23,08:45-09:00,1,3,3
23,09:00-09:15,1,3,3
23,09:15-09:30,1,4,4
23,09:30-09:45,1,5,5
23,09:45-10:00,1,5,5
23,10:00-10:15,1,4,4
23,10:15-10:30,1,4,4
23,10:30-10:45,1,4,4
23,10:45-11:00,1,5,5
23,11:00-11:15,1,4,4
23,11:15-11:30,1,3,3
23,11:30-11:45,1,4,4
23,11:45-12:00,1,4,4
23,12:00-12:15,1,4,4
23,12:15-12:30,1,4,4
23,12:30-12:45,1,4,4
23,12:45-13:00,1,4,4
23,13:00-13:15,1,4,4
23,13:15-13:30,1,4,4
23,13:30-13:45,1,4,4
23,13:45-14:00,1,4,4
23,14:00-14:15,1,5,5
23,14:15-14:30,1,5,5
23,14:30-14:45,1,5,5
23,14:45-15:00,1,4,4
23,15:00-15:15,1,5,5
23,15:15-15:30,1,5,5
23,15:30-15:45,1,3,3
23,15:45-16:00,1,4,4
23,16:00-16:15,1,5,5
23,16:15-16:30,1,3,3
23,16:30-16:45,1,3,3
23,16:45-17:00,1,4,4
23,17:00-17:15,1,4,4
23,17:15-17:30,1,5,5
23,17:30-17:45,1,4,4
23,17:45-18:00,1,5,5
23,18:00-18:15,1,4,4
23,18:15-18:30,1,5,5
23,18:30-18:45,1,4,4
23,18:45-19:00,1,4,4
23,19:00-19:15,1,4,4
23,19:15-19:30,1,4,4
23,19:30-19:45,1,4,4
23,19:45-20:00,1,3,3
23,20:00-20:15,1,4,4
23,20:15-20:30,1,4,4
23,20:30-20:45,1,3,3
23,20:45-21:00,1,4,4
23,21:00-21:15,1,3,3
23,21:15-21:30,1,4,4
23,21:30-21:45,1,3,3
23,21:45-22:00,1,5,5
23,22:00-22:15,1,4,4
23,22:15-22:30,1,4,4
23,22:30-22:45,1,3,3
23,22:45-23:00,1,4,4
23,23:00-23:15,1,5,5
23,23:15-23:30,1,4,4
23,23:30-23:45,1,3,3
23,23:45-00:00,1,4,4
24,00:00-00:15,1,5,5
24,00:15-00:30,1,3,3
24,00:30-00:45,1,5,5
24,00:45-01:00,1,4,4
24,01:00-01:15,1,3,3
24,01:15-01:30,1,5,5
24,01:30-01:45,1,4,4
24,01:45-02:00,1,5,5
24,02:00-02:15,1,4,4
24,02:15-02:30,1,4,4
24,02:30-02:45,1,3,3
24,02:45-03:00,1,5,5
24,03:00-03:15,1,3,3
24,03:15-03:30,1,5,5
24,03:30-03:45,1,5,5
24,03:45-04:00,1,5,5
24,04:00-04:15,1,3,3
24,04:15-04:30,1,4,4
24,04:30-04:45,1,5,5
24,04:45-05:00,1,4,4
24,05:00-05:15,1,5,5
24,05:15-05:30,1,4,4
24,05:30-05:45,1,4,4
24,05:45-06:00,1,4,4
24,06:00-06:15,1,5,5
24,06:15-06:30,1,4,4
24,06:30-06:45,1,3,3
24,06:45-07:00,1,5,5
24,07:00-07:15,1,5,5
24,07:15-07:30,1,3,3
24,07:30-07:45,1,5,5
24,07:45-08:00,1,5,5
24,08:00-08:15,1,4,4
24,08:15-08:30,1,5,5
24,08:30-08:45,1,3,3
24,08:45-09:00,1,4,4
24,09:00-09:15,1,4,4
24,09:15-09:30,1,3,3
24,09:30-09:45,1,5,5
24,09:45-10:00,1,5,5
24,10:00-10:15,1,4,4
24,10:15-10:30,1,4,4
24,10:30-10:45,1,5,5
24,10:45-11:00,1,5,5
24,11:00-11:15,1,4,4
24,11:15-11:30,1,3,3
24,11:30-11:45,1,4,4
24,11:45-12:00,1,4,4
24,12:00-12:15,1,5,5
24,12:15-12:30,1,4,4
24,12:30-12:45,1,4,4
24,12:45-13:00,1,4,4
24,13:00-13:15,1,4,4
24,13:15-13:30,1,4,4
24,13:30-13:45,1,5,5
24,13:45-14:00,1,5,5
24,14:00-14:15,1,5,5
24,14:15-14:30,1,4,4
24,14:30-14:45,1,4,4
24,14:45-15:00,1,4,4
24,15:00-15:15,1,5,5
24,15:15-15:30,1,4,4
24,15:30-15:45,1,5,5
24,15:45-16:00,1,4,4
24,16:00-16:15,1,4,4
24,16:15-16:30,1,4,4
24,16:30-16:45,1,4,4
24,16:45-17:00,1,4,4
24,17:00-17:15,1,5,5
24,17:15-17:30,1,4,4
24,17:30-17:45,1,4,4
24,17:45-18:00,1,3,3
24,18:00-18:15,1,4,4
24,18:15-18:30,1,3,3
24,18:30-18:45,1,3,3
24,18:45-19:00,1,4,4
24,19:00-19:15,1,5,5
24,19:15-19:30,1,4,4
24,19:30-19:45,1,5,5
24,19:45-20:00,1,5,5
24,20:00-20:15,1,5,5
24,20:15-20:30,1,4,4
24,20:30-20:45,1,5,5
24,20:45-21:00,1,4,4
24,21:00-21:15,1,5,5
24,21:15-21:30,1,4,4
24,21:30-21:45,1,3,3
24,21:45-22:00,1,3,3
24,22:00-22:15,1,3,3
24,22:15-22:30,1,4,4
24,22:30-22:45,1,4,4
24,22:45-23:00,1,4,4
24,23:00-23:15,1,5,5
24,23:15-23:30,1,4,4
24,23:30-23:45,1,5,5
24,23:45-00:00,1,5,5
25,00:00-00:15,1,4,4
25,00:15-00:30,1,4,4
25,00:30-00:45,1,4,4
25,00:45-01:00,1,3,3
25,01:00-01:15,1,5,5
25,01:15-01:30,1,4,4
25,01:30-01:45,1,4,4
25,01:45-02:00,1,4,4
25,02:00-02:15,1,5,5
25,02:15-02:30,1,4,4
25,02:30-02:45,1,4,4
25,02:45-03:00,1,4,4
25,03:00-03:15,1,4,4
25,03:15-03:30,1,4,4
25,03:30-03:45,1,3,3
25,03:45-04:00,1,4,4
25,04:00-04:15,1,5,5
25,04:15-04:30,1,4,4
25,04:30-04:45,1,5,5
25,04:45-05:00,1,4,4
25,05:00-05:15,1,4,4
25,05:15-05:30,1,4,4
25,05:30-05:45,1,4,4
25,05:45-06:00,1,5,5
25,06:00-06:15,1,4,4
25,06:15-06:30,1,3,3
25,06:30-06:45,1,4,4
25,06:45-07:00,1,4,4
25,07:00-07:15,1,5,5
25,07:15-07:30,1,5,5
25,07:30-07:45,1,4,4
25,07:45-08:00,1,4,4
25,08:00-08:15,1,3,3
25,08:15-08:30,1,4,4
25,08:30-08:45,1,3,3
25,08:45-09:00,1,3,3
25,09:00-09:15,1,3,3
25,09:15-09:30,1,5,5
25,09:30-09:45,1,5,5
25,09:45-10:00,1,4,4
25,10:00-10:15,1,5,5
25,10:15-10:30,1,4,4
25,10:30-10:45,1,4,4
25,10:45-11:00,1,4,4
25,11:00-11:15,1,5,5
25,11:15-11:30,1,4,4
25,11:30-11:45,1,4,4
25,11:45-12:00,1,5,5
25,12:00-12:15,1,4,4
25,12:15-12:30,1,3,3
25,12:30-12:45,1,5,5
25,12:45-13:00,1,3,3
25,13:00-13:15,1,4,4
25,13:15-13:30,1,4,4
25,13:30-13:45,1,4,4
25,13:45-14:00,1,5,5
25,14:00-14:15,1,6,6
25,14:15-14:30,1,5,5
25,14:30-14:45,1,6,6
25,14:45-15:00,1,6,6
25,15:00-15:15,1,3,3
25,15:15-15:30,1,4,4
25,15:30-15:45,1,5,5
25,15:45-16:00,1,3,3
25,16:00-16:15,1,3,3
25,16:15-16:30,1,4,4
25,16:30-16:45,1,4,4
25,16:45-17:00,1,3,3
25,17:00-17:15,1,3,3
25,17:15-17:30,1,5,5
25,17:30-17:45,1,4,4
25,17:45-18:00,1,3,3
25,18:00-18:15,1,5,5
25,18:15-18:30,1,4,4
25,18:30-18:45,1,4,4
25,18:45-19:00,1,3,3
25,19:00-19:15,1,3,3
25,19:15-19:30,1,3,3
25,19:30-19:45,1,5,5
25,19:45-20:00,1,5,5
25,20:00-20:15,1,4,4
25,20:15-20:30,1,4,4
25,20:30-20:45,1,3,3
25,20:45-21:00,1,4,4
25,21:00-21:15,1,5,5
25,21:15-21:30,1,4,4
25,21:30-21:45,1,5,5
25,21:45-22:00,1,4,4
25,22:00-22:15,1,3,3
25,22:15-22:30,1,4,4
25,22:30-22:45,1,4,4
25,22:45-23:00,1,4,4
25,23:00-23:15,1,5,5
25,23:15-23:30,1,5,5
25,23:30-23:45,1,4,4
25,23:45-00:00,1,4,4
26,00:00-00:15,1,5,5
26,00:15-00:30,1,5,5
26,00:30-00:45,1,5,5
26,00:45-01:00,1,5,5
26,01:00-01:15,1,5,5
26,01:15-01:30,1,4,4
26,01:30-01:45,1,4,4
26,01:45-02:00,1,4,4
26,02:00-02:15,1,5,5
26,02:15-02:30,1,5,5
26,02:30-02:45,1,3,3
26,02:45-03:00,1,3,3
26,03:00-03:15,1,3,3
26,03:15-03:30,1,4,4
26,03:30-03:45,1,5,5
26,03:45-04:00,1,5,5
26,04:00-04:15,1,5,5
26,04:15-04:30,1,3,3
26,04:30-04:45,1,3,3
26,04:45-05:00,1,4,4
26,05:00-05:15,1,4,4
26,05:15-05:30,1,4,4
26,05:30-05:45,1,3,3
26,05:45-06:00,1,5,5
26,06:00-06:15,1,4,4
26,06:15-06:30,1,5,5
26,06:30-06:45,1,5,5
26,06:45-07:00,1,5,5
26,07:00-07:15,1,5,5
26,07:15-07:30,1,6,6
26,07:30-07:45,1,3,3
26,07:45-08:00,1,5,5
26,08:00-08:15,1,3,3
26,08:15-08:30,1,5,5
26,08:30-08:45,1,4,4
26,08:45-09:00,1,4,4
26,09:00-09:15,1,4,4
26,09:15-09:30,1,4,4
26,09:30-09:45,1,5,5
26,09:45-10:00,1,3,3
26,10:00-10:15,1,5,5
26,10:15-10:30,1,4,4
26,10:30-10:45,1,5,5
26,10:45-11:00,1,3,3
26,11:00-11:15,1,3,3
26,11:15-11:30,1,5,5
26,11:30-11:45,1,4,4
26,11:45-12:00,1,5,5
26,12:00-12:15,1,4,4
26,12:15-12:30,1,4,4
26,12:30-12:45,1,5,5
26,12:45-13:00,1,5,5
26,13:00-13:15,1,5,5
26,13:15-13:30,1,5,5
26,13:30-13:45,1,4,4
26,13:45-14:00,1,4,4
26,14:00-14:15,1,4,4
26,14:15-14:30,1,5,5
26,14:30-14:45,1,3,3
26,14:45-15:00,1,5,5
26,15:00-15:15,1,5,5
26,15:15-15:30,1,6,6
26,15:30-15:45,1,6,6
26,15:45-16:00,1,3,3
26,16:00-16:15,1,4,4
26,16:15-16:30,1,3,3
26,16:30-16:45,1,3,3
26,16:45-17:00,1,4,4
26,17:00-17:15,1,5,5
26,17:15-17:30,1,4,4
26,17:30-17:45,1,4,4
26,17:45-18:00,1,4,4
26,18:00-18:15,1,3,3
26,18:15-18:30,1,3,3
26,18:30-18:45,1,5,5
26,18:45-19:00,1,5,5
26,19:00-19:15,1,4,4
26,19:15-19:30,1,3,3
26,19:30-19:45,1,4,4
26,19:45-20:00,1,5,5
26,20:00-20:15,1,4,4
26,20:15-20:30,1,5,5
26,20:30-20:45,1,3,3
26,20:45-21:00,1,4,4
26,21:00-21:15,1,5,5
26,21:15-21:30,1,4,4
26,21:30-21:45,1,3,3
26,21:45-22:00,1,4,4
26,22:00-22:15,1,5,5
26,22:15-22:30,1,5,5
26,22:30-22:45,1,3,3
26,22:45-23:00,1,5,5
26,23:00-23:15,1,3,3
26,23:15-23:30,1,5,5
26,23:30-23:45,1,4,4
26,23:45-00:00,1,3,3
27,00:00-00:15,1,5,5
27,00:15-00:30,1,4,4
27,00:30-00:45,1,4,4
27,00:45-01:00,1,5,5
27,01:00-01:15,1,4,4
27,01:15-01:30,1,3,3
27,01:30-01:45,1,3,3
27,01:45-02:00,1,4,4
27,02:00-02:15,1,5,5
27,02:15-02:30,1,3,3
27,02:30-02:45,1,5,5
27,02:45-03:00,1,4,4
27,03:00-03:15,1,3,3
27,03:15-03:30,1,4,4
27,03:30-03:45,1,5,5
27,03:45-04:00,1,4,4
27,04:00-04:15,1,3,3
27,04:15-04:30,1,3,3
27,04:30-04:45,1,4,4
27,04:45-05:00,1,5,5
27,05:00-05:15,1,5,5
27,05:15-05:30,1,4,4
27,05:30-05:45,1,3,3
27,05:45-06:00,1,4,4
27,06:00-06:15,1,3,3
27,06:15-06:30,1,5,5
27,06:30-06:45,1,5,5
27,06:45-07:00,1,5,5
27,07:00-07:15,1,3,3
27,07:15-07:30,1,4,4
27,07:30-07:45,1,4,4
27,07:45-08:00,1,3,3
27,08:00-08:15,1,5,5
27,08:15-08:30,1,5,5
27,08:30-08:45,1,3,3
27,08:45-09:00,1,5,5
27,09:00-09:15,1,4,4
27,09:15-09:30,1,4,4
27,09:30-09:45,1,4,4
27,09:45-10:00,1,4,4
27,10:00-10:15,1,5,5
27,10:15-10:30,1,4,4
27,10:30-10:45,1,4,4
27,10:45-11:00,1,5,5
27,11:00-11:15,1,4,4
27,11:15-11:30,1,4,4
27,11:30-11:45,1,3,3
27,11:45-12:00,1,5,5
27,12:00-12:15,1,5,5
27,12:15-12:30,1,5,5
27,12:30-12:45,1,5,5
27,12:45-13:00,1,5,5
27,13:00-13:15,1,4,4
27,13:15-13:30,1,4,4
27,13:30-13:45,1,4,4
27,13:45-14:00,1,3,3
27,14:00-14:15,1,4,4
27,14:15-14:30,1,3,3
27,14:30-14:45,1,5,5
27,14:45-15:00,1,5,5
27,15:00-15:15,1,4,4
27,15:15-15:30,1,3,3
27,15:30-15:45,1,4,4
27,15:45-16:00,1,3,3
27,16:00-16:15,1,5,5
27,16:15-16:30,1,4,4
27,16:30-16:45,1,5,5
27,16:45-17:00,1,5,5
27,17:00-17:15,1,5,5
27,17:15-17:30,1,4,4
27,17:30-17:45,1,5,5
27,17:45-18:00,1,4,4
27,18:00-18:15,1,5,5
27,18:15-18:30,1,3,3
27,18:30-18:45,1,5,5
27,18:45-19:00,1,3,3
27,19:00-19:15,1,3,3
27,19:15-19:30,1,4,4
27,19:30-19:45,1,4,4
27,19:45-20:00,1,4,4
27,20:00-20:15,1,4,4
27,20:15-20:30,1,3,3
27,20:30-20:45,1,3,3
27,20:45-21:00,1,4,4
27,21:00-21:15,1,5,5
27,21:15-21:30,1,4,4
27,21:30-21:45,1,5,5
27,21:45-22:00,1,4,4
27,22:00-22:15,1,4,4
27,22:15-22:30,1,3,3
27,22:30-22:45,1,4,4
27,22:45-23:00,1,4,4
27,23:00-23:15,1,5,5
27,23:15-23:30,1,4,4
27,23:30-23:45,1,4,4
27,23:45-00:00,1,5,5
28,00:00-00:15,1,5,5
28,00:15-00:30,1,5,5
28,00:30-00:45,1,3,3
28,00:45-01:00,1,3,3
28,01:00-01:15,1,5,5
28,01:15-01:30,1,5,5
28,01:30-01:45,1,4,4
28,01:45-02:00,1,5,5
28,02:00-02:15,1,3,3
28,02:15-02:30,1,4,4
28,02:30-02:45,1,5,5
28,02:45-03:00,1,4,4
28,03:00-03:15,1,4,4
28,03:15-03:30,1,4,4
28,03:30-03:45,1,5,5
28,03:45-04:00,1,3,3
28,04:00-04:15,1,4,4
28,04:15-04:30,1,4,4
28,04:30-04:45,1,3,3
28,04:45-05:00,1,5,5
28,05:00-05:15,1,3,3
28,05:15-05:30,1,3,3
28,05:30-05:45,1,3,3
28,05:45-06:00,1,4,4
28,06:00-06:15,1,5,5
28,06:15-06:30,1,4,4
28,06:30-06:45,1,3,3
28,06:45-07:00,1,4,4
28,07:00-07:15,1,5,5
28,07:15-07:30,1,4,4
28,07:30-07:45,1,4,4
28,07:45-08:00,1,4,4
28,08:00-08:15,1,5,5
28,08:15-08:30,1,5,5
28,08:30-08:45,1,5,5
28,08:45-09:00,1,4,4
28,09:00-09:15,1,4,4
28,09:15-09:30,1,4,4
28,09:30-09:45,1,4,4
28,09:45-10:00,1,5,5
28,10:00-10:15,1,5,5
28,10:15-10:30,1,4,4
28,10:30-10:45,1,4,4
28,10:45-11:00,1,4,4
28,11:00-11:15,1,4,4
28,11:15-11:30,1,4,4
28,11:30-11:45,1,5,5
28,11:45-12:00,1,3,3
28,12:00-12:15,1,3,3
28,12:15-12:30,1,3,3
28,12:30-12:45,1,5,5
28,12:45-13:00,1,3,3
28,13:00-13:15,1,4,4
28,13:15-13:30,1,4,4
28,13:30-13:45,1,5,5
28,13:45-14:00,1,3,3
28,14:00-14:15,1,4,4
28,14:15-14:30,1,4,4
28,14:30-14:45,1,4,4
28,14:45-15:00,1,4,4
28,15:00-15:15,1,4,4
28,15:15-15:30,1,5,5
28,15:30-15:45,1,5,5
28,15:45-16:00,1,5,5
28,16:00-16:15,1,4,4
28,16:15-16:30,1,4,4
28,16:30-16:45,1,4,4
28,16:45-17:00,1,5,5
28,17:00-17:15,1,4,4
28,17:15-17:30,1,4,4
28,17:30-17:45,1,5,5
28,17:45-18:00,1,5,5
28,18:00-18:15,1,5,5
28,18:15-18:30,1,4,4
28,18:30-18:45,1,5,5
28,18:45-19:00,1,5,5
28,19:00-19:15,1,5,5
28,19:15-19:30,1,4,4
28,19:30-19:45,1,5,5
28,19:45-20:00,1,3,3
28,20:00-20:15,1,4,4
28,20:15-20:30,1,3,3
28,20:30-20:45,1,4,4
28,20:45-21:00,1,5,5
28,21:00-21:15,1,4,4
28,21:15-21:30,1,4,4
28,21:30-21:45,1,4,4
28,21:45-22:00,1,3,3
28,22:00-22:15,1,3,3
28,22:15-22:30,1,4,4
28,22:30-22:45,1,4,4
28,22:45-23:00,1,5,5
28,23:00-23:15,1,4,4
28,23:15-23:30,1,3,3
28,23:30-23:45,1,4,4
28,23:45-00:00,1,3,3
29,00:00-00:15,1,4,4
29,00:15-00:30,1,4,4
29,00:30-00:45,1,3,3
29,00:45-01:00,1,5,5
29,01:00-01:15,1,5,5
29,01:15-01:30,1,3,3
29,01:30-01:45,1,4,4
29,01:45-02:00,1,5,5
29,02:00-02:15,1,4,4
29,02:15-02:30,1,5,5
29,02:30-02:45,1,4,4
29,02:45-03:00,1,3,3
29,03:00-03:15,1,4,4
29,03:15-03:30,1,3,3
29,03:30-03:45,1,4,4
29,03:45-04:00,1,5,5
29,04:00-04:15,1,5,5
29,04:15-04:30,1,5,5
29,04:30-04:45,1,5,5
29,04:45-05:00,1,4,4
29,05:00-05:15,1,4,4
29,05:15-05:30,1,5,5
29,05:30-05:45,1,4,4
29,05:45-06:00,1,3,3

