NrEmpl,NrShifts,AvgMinShift,AvgMaxShift,SmallestMaxShift,LargestMaxShift,SmallestMinShift,LargestMinShift,MinDaysOff,MaxDayoff,MinWork,MaxWork,NrShiftSequences,ThreeClasses
 9, 3, 2, 5.67, 4, 7, 2, 2, 2, 4, 4, 7, 3,T1
 9, 3, 4, 7, 7, 7, 4, 4, 2, 4, 4, 7, 3,T1
 17, 3, 2, 6, 5, 7, 2, 2, 2, 4, 4, 7, 3,T1
 13, 3, 2, 5.33, 4, 6, 2, 2, 1, 4, 3, 7, 7,T1
 11, 3, 2, 5, 4, 6, 2, 2, 1, 4, 4, 7, 7,T1
 7, 3, 2, 6, 6, 6, 2, 2, 1, 4, 4, 7, 7,T1
 29, 3, 2, 6, 5, 7, 2, 2, 2, 4, 4, 7, 3,T2
 16, 3, 2, 6, 5, 7, 2, 2, 2, 4, 3, 7, 3,T1
 47, 3, 2, 6.67, 6, 7, 2, 2, 2, 4, 2, 7, 3,T1
 27, 3, 2, 6, 5, 7, 2, 2, 2, 4, 4, 7, 3,T1
 30, 3, 2, 5, 4, 6, 2, 2, 2, 4, 3, 7, 3,T1
 20, 2, 2, 5.5, 5, 6, 2, 2, 2, 4, 4, 7, 1,T1
 24, 3, 1.67, 5, 4, 6, 1, 2, 2, 4, 3, 7, 3,T1
 13, 3, 2, 5, 4, 6, 2, 2, 1, 4, 4, 7, 6,T1
 64, 3, 2, 5.67, 5, 6, 2, 2, 1, 4, 3, 6, 7,T3
 29, 3, 2, 5, 4, 6, 2, 2, 2, 4, 4, 7, 3,T1
 33, 2, 2, 5.5, 5, 6, 2, 2, 2, 4, 3, 7, 1,T1
 53, 3, 2, 6, 5, 7, 2, 2, 2, 4, 4, 7, 3,T1
 120, 3, 2, 5, 4, 6, 2, 2, 2, 4, 3, 7, 3,T2
 163, 3, 2, 5.67, 5, 6, 2, 2, 1, 4, 3, 6, 7,T2
 31, 3, 2.33, 5.67, 5, 6, 2, 3, 1, 4, 4, 5, 7,T1
 12, 3, 2.67, 5.33, 5, 6, 2, 3, 1, 4, 3, 7, 7,T1
 24, 3, 2.67, 5.33, 5, 6, 2, 3, 1, 2, 3, 5, 7,T1
 51, 3, 2.67, 5.67, 4, 7, 2, 3, 1, 3, 3, 5, 7,T1
 24, 3, 2.67, 4.67, 4, 5, 2, 3, 1, 4, 4, 6, 7,T1
 14, 3, 2.67, 5.67, 5, 7, 2, 3, 1, 4, 3, 5, 7,T1
 32, 3, 3, 5.67, 4, 7, 3, 3, 1, 3, 3, 7, 7,T1
 41, 2, 2.5, 6, 6, 6, 2, 3, 1, 2, 4, 6, 2,T2
 47, 3, 2.33, 4.67, 4, 5, 2, 3, 1, 4, 4, 6, 7,T1
 30, 3, 2.67, 5.33, 5, 6, 2, 3, 1, 2, 3, 7, 7,T1
 19, 3, 2.67, 5.33, 5, 6, 2, 3, 2, 2, 3, 6, 3,T1
 9, 3, 2.33, 4.67, 4, 5, 2, 3, 2, 4, 3, 5, 3,T1
 15, 3, 2.33, 5, 4, 6, 2, 3, 2, 4, 3, 5, 3,T1
 21, 2, 2.5, 5.5, 5, 6, 2, 3, 1, 2, 3, 6, 2,T1
 20, 3, 2.33, 5.67, 5, 7, 2, 3, 2, 2, 4, 7, 3,T2
 35, 3, 2.33, 4.67, 4, 5, 2, 3, 1, 2, 3, 5, 7,T1
 48, 3, 2.33, 5, 4, 6, 2, 3, 1, 3, 4, 6, 7,T2
 22, 3, 2.67, 6, 5, 7, 2, 3, 2, 4, 3, 6, 3,T1
 16, 3, 2.33, 5.67, 4, 7, 2, 3, 1, 2, 3, 7, 7,T1
 17, 3, 2.33, 5.33, 4, 6, 2, 3, 1, 2, 4, 6, 7,T1
 45, 3, 2.33, 4.67, 4, 5, 2, 3, 1, 2, 3, 7, 7,T1
 34, 3, 2.33, 5, 4, 6, 2, 3, 1, 2, 3, 5, 7,T1
 18, 3, 2.33, 5.33, 4, 7, 2, 3, 1, 3, 3, 7, 7,T1
 22, 3, 2.67, 4.67, 4, 6, 2, 3, 1, 3, 3, 7, 7,T1
 30, 2, 3, 5, 4, 6, 3, 3, 1, 2, 3, 6, 2,T1
 51, 3, 2.67, 5.67, 5, 6, 2, 3, 1, 3, 3, 6, 7,T1
 36, 3, 2.67, 5.33, 4, 7, 2, 3, 1, 4, 3, 6, 7,T1
 26, 2, 2, 5.5, 5, 6, 2, 2, 1, 4, 3, 5, 2,T1
 20, 3, 2.67, 5.67, 5, 6, 2, 3, 1, 3, 3, 6, 7,T1
 18, 3, 2.33, 5, 4, 6, 2, 3, 1, 3, 4, 6, 7,T1
 18, 3, 2.67, 5.33, 5, 6, 2, 3, 1, 4, 4, 5, 7,T1
 48, 3, 2.33, 5, 4, 6, 2, 3, 2, 3, 4, 7, 3,T1
 44, 3, 2.67, 5, 4, 6, 2, 3, 1, 4, 4, 7, 7,T1
 46, 3, 2.67, 6, 5, 7, 2, 3, 2, 4, 3, 7, 3,T1
 44, 2, 2.5, 5, 4, 6, 2, 3, 1, 4, 3, 5, 2,T1
 12, 3, 3, 5.67, 5, 7, 3, 3, 1, 2, 3, 6, 7,T1
 45, 2, 2, 5.5, 4, 7, 2, 2, 1, 3, 3, 5, 2,T1
 14, 3, 3, 4.67, 4, 6, 3, 3, 2, 4, 3, 7, 3,T1
 44, 2, 2, 5.5, 4, 7, 2, 2, 1, 3, 4, 5, 2,T1
 22, 3, 2, 5.33, 4, 7, 2, 2, 2, 4, 3, 5, 3,T1
 51, 3, 2.67, 5, 4, 6, 2, 3, 2, 3, 4, 6, 3,T2
 13, 3, 2.67, 5, 4, 6, 2, 3, 2, 4, 4, 6, 3,T1
 37, 2, 2.5, 5, 4, 6, 2, 3, 1, 3, 4, 5, 2,T1
 34, 3, 2.33, 5, 4, 7, 2, 3, 1, 2, 3, 7, 7,T1
 37, 3, 2.67, 5, 4, 6, 2, 3, 1, 4, 4, 5, 7,T2
 9, 3, 3, 4.67, 4, 5, 3, 3, 1, 4, 3, 7, 7,T1
 35, 2, 3, 5.5, 4, 7, 3, 3, 1, 2, 3, 7, 2,T1
 17, 2, 2, 5, 5, 5, 2, 2, 1, 2, 3, 7, 2,T1
 16, 3, 2.67, 5.33, 4, 6, 2, 3, 1, 4, 3, 7, 7,T1
 49, 3, 2, 5.33, 4, 7, 2, 2, 1, 3, 3, 7, 7,T1
 30, 3, 2.33, 5.67, 5, 6, 2, 3, 2, 4, 3, 7, 3,T1
 33, 3, 2.67, 6, 5, 7, 2, 3, 2, 3, 3, 6, 3,T1
 49, 3, 2.33, 5.67, 4, 7, 2, 3, 1, 3, 4, 5, 7,T1
 13, 2, 2.5, 5.5, 5, 6, 2, 3, 1, 4, 4, 5, 2,T1
 23, 3, 2.67, 4.67, 4, 5, 2, 3, 1, 3, 4, 6, 7,T2
 49, 3, 2, 5.33, 4, 7, 2, 2, 1, 3, 3, 7, 7,T1
 32, 3, 2.67, 4.67, 4, 5, 2, 3, 1, 3, 3, 5, 7,T1
 34, 3, 2.33, 5.33, 5, 6, 2, 3, 1, 4, 3, 5, 7,T1
 17, 3, 2.67, 5, 4, 6, 2, 3, 1, 2, 3, 6, 7,T1
 48, 3, 2.67, 5.33, 4, 7, 2, 3, 1, 3, 4, 6, 7,T2
 25, 3, 2.33, 5.67, 5, 7, 2, 3, 2, 3, 3, 7, 3,T1
 21, 3, 2.33, 5.33, 4, 7, 2, 3, 1, 2, 4, 5, 7,T2
 19, 2, 3, 6, 6, 6, 3, 3, 1, 2, 4, 5, 2,T2
 50, 3, 2.67, 5, 5, 5, 2, 3, 2, 4, 3, 5, 3,T1
 36, 3, 2.33, 5.67, 5, 6, 2, 3, 1, 4, 3, 5, 7,T1
 23, 3, 2.33, 4.33, 4, 5, 2, 3, 2, 4, 4, 7, 3,T1
 22, 2, 3, 6, 5, 7, 3, 3, 2, 3, 4, 7, 1,T1
 35, 3, 2.33, 5.33, 4, 6, 2, 3, 1, 3, 3, 6, 7,T1
 33, 3, 2.33, 4.33, 4, 5, 2, 3, 2, 4, 4, 7, 3,T1
 33, 3, 2.67, 5, 4, 6, 2, 3, 2, 3, 4, 7, 3,T1
 29, 3, 2.67, 5.67, 5, 7, 2, 3, 1, 2, 3, 5, 7,T1
 19, 3, 3, 5, 5, 5, 3, 3, 2, 2, 3, 7, 3,T1
 16, 3, 2.67, 5, 4, 6, 2, 3, 2, 4, 3, 7, 3,T1
 40, 3, 2.33, 5.33, 5, 6, 2, 3, 1, 2, 4, 7, 7,T2
 43, 3, 2.33, 5.67, 5, 6, 2, 3, 1, 4, 4, 5, 7,T1
 24, 2, 2.5, 5.5, 4, 7, 2, 3, 1, 2, 3, 7, 2,T1
 13, 2, 2.5, 6, 5, 7, 2, 3, 1, 4, 3, 5, 2,T1
 20, 2, 3, 6, 5, 7, 3, 3, 1, 2, 4, 7, 2,T1
 37, 3, 2.67, 5.67, 5, 6, 2, 3, 1, 3, 3, 7, 7,T1
 26, 2, 3, 6, 6, 6, 3, 3, 2, 2, 4, 7, 1,T2
 11, 3, 2.67, 5, 4, 6, 2, 3, 1, 3, 3, 5, 7,T1
 18, 2, 3, 5, 5, 5, 3, 3, 1, 4, 4, 7, 2,T1
 39, 3, 2.33, 4.67, 4, 5, 2, 3, 2, 3, 4, 7, 3,T1
 9, 3, 2.33, 5.33, 5, 6, 2, 3, 1, 3, 4, 7, 7,T1
 41, 3, 2, 5.67, 4, 7, 2, 2, 2, 3, 4, 7, 3,T1
 51, 3, 2.33, 4.67, 4, 6, 2, 3, 1, 2, 3, 6, 7,T1
 18, 3, 2, 5, 5, 5, 2, 2, 1, 2, 3, 5, 7,T1
 12, 3, 2.67, 5.33, 4, 7, 2, 3, 2, 3, 4, 5, 3,T2
 21, 3, 2.67, 5.33, 4, 7, 2, 3, 1, 3, 3, 6, 7,T1
 38, 3, 2.33, 4.33, 4, 5, 2, 3, 1, 3, 4, 7, 7,T1
 32, 3, 2.33, 6, 5, 7, 2, 3, 2, 3, 4, 6, 3,T1
 26, 3, 2.33, 5.33, 4, 7, 2, 3, 1, 4, 3, 5, 7,T1
 35, 3, 2.33, 5.67, 4, 7, 2, 3, 1, 4, 4, 5, 7,T1
 45, 2, 2.5, 5, 4, 6, 2, 3, 1, 3, 4, 7, 2,T1
 25, 3, 2.33, 5.33, 4, 7, 2, 3, 1, 3, 3, 7, 7,T1
 25, 3, 2, 5.67, 5, 6, 2, 2, 1, 3, 3, 6, 7,T1
 47, 2, 2, 5.5, 4, 7, 2, 2, 1, 4, 3, 7, 2,T1
 47, 3, 2.33, 5.33, 5, 6, 2, 3, 1, 4, 4, 5, 7,T1
 44, 3, 2.33, 5.67, 5, 7, 2, 3, 1, 4, 4, 7, 7,T1
 17, 3, 2.67, 5, 4, 6, 2, 3, 1, 2, 3, 6, 7,T1
 24, 3, 2.67, 5.67, 5, 6, 2, 3, 1, 4, 3, 6, 7,T1
 27, 3, 2, 5.33, 4, 7, 2, 2, 2, 4, 3, 7, 3,T1
 47, 3, 2.33, 5, 5, 5, 2, 3, 1, 3, 3, 7, 7,T1
 36, 2, 2.5, 6, 6, 6, 2, 3, 2, 4, 3, 7, 1,T1
 25, 3, 2.33, 5.33, 5, 6, 2, 3, 2, 4, 4, 6, 3,T1
 14, 3, 3, 5, 4, 6, 3, 3, 1, 3, 3, 5, 7,T2
 23, 3, 3, 5.33, 4, 7, 3, 3, 1, 3, 4, 5, 7,T2
 46, 3, 2, 5.33, 5, 6, 2, 2, 2, 4, 4, 7, 3,T1
 37, 3, 2.67, 5.33, 4, 7, 2, 3, 1, 3, 4, 7, 7,T1
 49, 3, 2.33, 5.33, 4, 7, 2, 3, 2, 3, 4, 7, 3,T1
 10, 3, 2.67, 5.33, 5, 6, 2, 3, 1, 3, 4, 6, 7,T1
 10, 3, 2.33, 5.33, 4, 6, 2, 3, 2, 4, 3, 7, 3,T1
 15, 3, 2.33, 4.67, 4, 6, 2, 3, 2, 4, 4, 5, 3,T2
 9, 3, 2.33, 5.67, 4, 7, 2, 3, 2, 4, 4, 6, 3,T1
 31, 3, 2.33, 5.67, 5, 6, 2, 3, 1, 4, 4, 5, 7,T1
 12, 3, 2.67, 5.33, 5, 6, 2, 3, 1, 4, 3, 7, 7,T1
 24, 3, 2.67, 5.33, 5, 6, 2, 3, 1, 2, 3, 5, 7,T1
 51, 3, 2.67, 5.67, 4, 7, 2, 3, 1, 3, 3, 5, 7,T1
 24, 3, 2.67, 4.67, 4, 5, 2, 3, 1, 4, 4, 6, 7,T1
 14, 3, 2.67, 5.67, 5, 7, 2, 3, 1, 4, 3, 5, 7,T1
 32, 3, 3, 5.67, 4, 7, 3, 3, 1, 3, 3, 7, 7,T1
 41, 2, 2.5, 6, 6, 6, 2, 3, 1, 2, 4, 6, 2,T2
 47, 3, 2.33, 4.67, 4, 5, 2, 3, 1, 4, 4, 6, 7,T1
 30, 3, 2.67, 5.33, 5, 6, 2, 3, 1, 2, 3, 7, 7,T1
 19, 3, 2.67, 5.33, 5, 6, 2, 3, 2, 2, 3, 6, 3,T1
 9, 3, 2.33, 4.67, 4, 5, 2, 3, 2, 4, 3, 5, 3,T1
 15, 3, 2.33, 5, 4, 6, 2, 3, 2, 4, 3, 5, 3,T1
 21, 2, 2.5, 5.5, 5, 6, 2, 3, 1, 2, 3, 6, 2,T1
 20, 3, 2.33, 5.67, 5, 7, 2, 3, 2, 2, 4, 7, 3,T2
 35, 3, 2.33, 4.67, 4, 5, 2, 3, 1, 2, 3, 5, 7,T1
 48, 3, 2.33, 5, 4, 6, 2, 3, 1, 3, 4, 6, 7,T2
 22, 3, 2.67, 6, 5, 7, 2, 3, 2, 4, 3, 6, 3,T1
 16, 3, 2.33, 5.67, 4, 7, 2, 3, 1, 2, 3, 7, 7,T1
 17, 3, 2.33, 5.33, 4, 6, 2, 3, 1, 2, 4, 6, 7,T1
 45, 3, 2.33, 4.67, 4, 5, 2, 3, 1, 2, 3, 7, 7,T1
 34, 3, 2.33, 5, 4, 6, 2, 3, 1, 2, 3, 5, 7,T1
 18, 3, 2.33, 5.33, 4, 7, 2, 3, 1, 3, 3, 7, 7,T1
 22, 3, 2.67, 4.67, 4, 6, 2, 3, 1, 3, 3, 7, 7,T1
 30, 2, 3, 5, 4, 6, 3, 3, 1, 2, 3, 6, 2,T1
 51, 3, 2.67, 5.67, 5, 6, 2, 3, 1, 3, 3, 6, 7,T1
 36, 3, 2.67, 5.33, 4, 7, 2, 3, 1, 4, 3, 6, 7,T1
 26, 2, 2, 5.5, 5, 6, 2, 2, 1, 4, 3, 5, 2,T1
 20, 3, 2.67, 5.67, 5, 6, 2, 3, 1, 3, 3, 6, 7,T1
 18, 3, 2.33, 5, 4, 6, 2, 3, 1, 3, 4, 6, 7,T1
 18, 3, 2.67, 5.33, 5, 6, 2, 3, 1, 4, 4, 5, 7,T1
 48, 3, 2.33, 5, 4, 6, 2, 3, 2, 3, 4, 7, 3,T1
 44, 3, 2.67, 5, 4, 6, 2, 3, 1, 4, 4, 7, 7,T1
 46, 3, 2.67, 6, 5, 7, 2, 3, 2, 4, 3, 7, 3,T1
 44, 2, 2.5, 5, 4, 6, 2, 3, 1, 4, 3, 5, 2,T1
 12, 3, 3, 5.67, 5, 7, 3, 3, 1, 2, 3, 6, 7,T1
 45, 2, 2, 5.5, 4, 7, 2, 2, 1, 3, 3, 5, 2,T1
 14, 3, 3, 4.67, 4, 6, 3, 3, 2, 4, 3, 7, 3,T1
 44, 2, 2, 5.5, 4, 7, 2, 2, 1, 3, 4, 5, 2,T1
 22, 3, 2, 5.33, 4, 7, 2, 2, 2, 4, 3, 5, 3,T1
 51, 3, 2.67, 5, 4, 6, 2, 3, 2, 3, 4, 6, 3,T2
 13, 3, 2.67, 5, 4, 6, 2, 3, 2, 4, 4, 6, 3,T1
 37, 2, 2.5, 5, 4, 6, 2, 3, 1, 3, 4, 5, 2,T1
 34, 3, 2.33, 5, 4, 7, 2, 3, 1, 2, 3, 7, 7,T1
 37, 3, 2.67, 5, 4, 6, 2, 3, 1, 4, 4, 5, 7,T2
 9, 3, 3, 4.67, 4, 5, 3, 3, 1, 4, 3, 7, 7,T1
 35, 2, 3, 5.5, 4, 7, 3, 3, 1, 2, 3, 7, 2,T1
 17, 2, 2, 5, 5, 5, 2, 2, 1, 2, 3, 7, 2,T1
 16, 3, 2.67, 5.33, 4, 6, 2, 3, 1, 4, 3, 7, 7,T1
 49, 3, 2, 5.33, 4, 7, 2, 2, 1, 3, 3, 7, 7,T1
 30, 3, 2.33, 5.67, 5, 6, 2, 3, 2, 4, 3, 7, 3,T1
 33, 3, 2.67, 6, 5, 7, 2, 3, 2, 3, 3, 6, 3,T1
 49, 3, 2.33, 5.67, 4, 7, 2, 3, 1, 3, 4, 5, 7,T2
 13, 2, 2.5, 5.5, 5, 6, 2, 3, 1, 4, 4, 5, 2,T1
 23, 3, 2.67, 4.67, 4, 5, 2, 3, 1, 3, 4, 6, 7,T1
 49, 3, 2, 5.33, 4, 7, 2, 2, 1, 3, 3, 7, 7,T1
 32, 3, 2.67, 4.67, 4, 5, 2, 3, 1, 3, 3, 5, 7,T1
 34, 3, 2.33, 5.33, 5, 6, 2, 3, 1, 4, 3, 5, 7,T1
 17, 3, 2.67, 5, 4, 6, 2, 3, 1, 2, 3, 6, 7,T1
 48, 3, 2.67, 5.33, 4, 7, 2, 3, 1, 3, 4, 6, 7,T2
 25, 3, 2.33, 5.67, 5, 7, 2, 3, 2, 3, 3, 7, 3,T1
 21, 3, 2.33, 5.33, 4, 7, 2, 3, 1, 2, 4, 5, 7,T2
 19, 2, 3, 6, 6, 6, 3, 3, 1, 2, 4, 5, 2,T2
 50, 3, 2.67, 5, 5, 5, 2, 3, 2, 4, 3, 5, 3,T1
 36, 3, 2.33, 5.67, 5, 6, 2, 3, 1, 4, 3, 5, 7,T1
 23, 3, 2.33, 4.33, 4, 5, 2, 3, 2, 4, 4, 7, 3,T1
 22, 2, 3, 6, 5, 7, 3, 3, 2, 3, 4, 7, 1,T1
 35, 3, 2.33, 5.33, 4, 6, 2, 3, 1, 3, 3, 6, 7,T1
 33, 3, 2.33, 4.33, 4, 5, 2, 3, 2, 4, 4, 7, 3,T1
 33, 3, 2.67, 5, 4, 6, 2, 3, 2, 3, 4, 7, 3,T1
 29, 3, 2.67, 5.67, 5, 7, 2, 3, 1, 2, 3, 5, 7,T1
 19, 3, 3, 5, 5, 5, 3, 3, 2, 2, 3, 7, 3,T2
 16, 3, 2.67, 5, 4, 6, 2, 3, 2, 4, 3, 7, 3,T1
 40, 3, 2.33, 5.33, 5, 6, 2, 3, 1, 2, 4, 7, 7,T2
 43, 3, 2.33, 5.67, 5, 6, 2, 3, 1, 4, 4, 5, 7,T1
 24, 2, 2.5, 5.5, 4, 7, 2, 3, 1, 2, 3, 7, 2,T1
 13, 2, 2.5, 6, 5, 7, 2, 3, 1, 4, 3, 5, 2,T1
 20, 2, 3, 6, 5, 7, 3, 3, 1, 2, 4, 7, 2,T1
 37, 3, 2.67, 5.67, 5, 6, 2, 3, 1, 3, 3, 7, 7,T1
 26, 2, 3, 6, 6, 6, 3, 3, 2, 2, 4, 7, 1,T2
 11, 3, 2.67, 5, 4, 6, 2, 3, 1, 3, 3, 5, 7,T1
 18, 2, 3, 5, 5, 5, 3, 3, 1, 4, 4, 7, 2,T1
 39, 3, 2.33, 4.67, 4, 5, 2, 3, 2, 3, 4, 7, 3,T1
 9, 3, 2.33, 5.33, 5, 6, 2, 3, 1, 3, 4, 7, 7,T1
 41, 3, 2, 5.67, 4, 7, 2, 2, 2, 3, 4, 7, 3,T1
 51, 3, 2.33, 4.67, 4, 6, 2, 3, 1, 2, 3, 6, 7,T1
 18, 3, 2, 5, 5, 5, 2, 2, 1, 2, 3, 5, 7,T1
 12, 3, 2.67, 5.33, 4, 7, 2, 3, 2, 3, 4, 5, 3,T2
 21, 3, 2.67, 5.33, 4, 7, 2, 3, 1, 3, 3, 6, 7,T1
 38, 3, 2.33, 4.33, 4, 5, 2, 3, 1, 3, 4, 7, 7,T1
 32, 3, 2.33, 6, 5, 7, 2, 3, 2, 3, 4, 6, 3,T1
 26, 3, 2.33, 5.33, 4, 7, 2, 3, 1, 4, 3, 5, 7,T1
 35, 3, 2.33, 5.67, 4, 7, 2, 3, 1, 4, 4, 5, 7,T1
 45, 2, 2.5, 5, 4, 6, 2, 3, 1, 3, 4, 7, 2,T1
 32, 3, 3, 4.67, 4, 5, 3, 3, 1, 3, 3, 6, 7,T3
 25, 3, 2.33, 5.33, 4, 7, 2, 3, 1, 3, 3, 7, 7,T1
 25, 3, 2, 5.67, 5, 6, 2, 2, 1, 3, 3, 6, 7,T1
 47, 2, 2, 5.5, 4, 7, 2, 2, 1, 4, 3, 7, 2,T1
 47, 3, 2.33, 5.33, 5, 6, 2, 3, 1, 4, 4, 5, 7,T1
 44, 3, 2.33, 5.67, 5, 7, 2, 3, 1, 4, 4, 7, 7,T1
 17, 3, 2.67, 5, 4, 6, 2, 3, 1, 2, 3, 6, 7,T1
 24, 3, 2.67, 5.67, 5, 6, 2, 3, 1, 4, 3, 6, 7,T1
 27, 3, 2, 5.33, 4, 7, 2, 2, 2, 4, 3, 7, 3,T1
 47, 3, 2.33, 5, 5, 5, 2, 3, 1, 3, 3, 7, 7,T1
 36, 2, 2.5, 6, 6, 6, 2, 3, 2, 4, 3, 7, 1,T1
 25, 3, 2.33, 5.33, 5, 6, 2, 3, 2, 4, 4, 6, 3,T1
 14, 3, 3, 5, 4, 6, 3, 3, 1, 3, 3, 5, 7,T2
 23, 3, 3, 5.33, 4, 7, 3, 3, 1, 3, 4, 5, 7,T2
 46, 3, 2, 5.33, 5, 6, 2, 2, 2, 4, 4, 7, 3,T1
 37, 3, 2.67, 5.33, 4, 7, 2, 3, 1, 3, 4, 7, 7,T1
 49, 3, 2.33, 5.33, 4, 7, 2, 3, 2, 3, 4, 7, 3,T1
 10, 3, 2.67, 5.33, 5, 6, 2, 3, 1, 3, 4, 6, 7,T1
 10, 3, 2.33, 5.33, 4, 6, 2, 3, 2, 4, 3, 7, 3,T1
 15, 3, 2.33, 4.67, 4, 6, 2, 3, 2, 4, 4, 5, 3,T2
 9, 3, 2.33, 5.67, 4, 7, 2, 3, 2, 4, 4, 6, 3,T1
 37, 3, 2, 4.67, 4, 5, 2, 2, 2, 3, 4, 6, 3,T1
 9, 3, 2.67, 5, 4, 6, 2, 3, 1, 4, 4, 5, 7,T1
 30, 3, 2.67, 5.33, 5, 6, 2, 3, 1, 3, 4, 7, 7,T1
 13, 3, 2.33, 4.67, 4, 5, 2, 3, 2, 3, 4, 7, 3,T1
 50, 3, 2.67, 4.67, 4, 5, 2, 3, 2, 4, 3, 7, 3,T1
 42, 3, 2.33, 6, 5, 7, 2, 3, 1, 3, 3, 7, 7,T1
 29, 3, 2.33, 5.33, 4, 7, 2, 3, 1, 4, 4, 6, 7,T1
 49, 3, 2.67, 5.33, 5, 6, 2, 3, 2, 3, 3, 5, 3,T2
 36, 3, 3, 4.67, 4, 5, 3, 3, 2, 4, 4, 7, 3,T2
 26, 3, 2.67, 5.33, 5, 6, 2, 3, 1, 3, 4, 6, 7,T1
 51, 3, 2, 4.67, 4, 5, 2, 2, 1, 4, 4, 7, 7,T1
 49, 3, 2.33, 5.33, 4, 7, 2, 3, 2, 4, 4, 6, 3,T2
 25, 3, 2.33, 5.67, 5, 6, 2, 3, 1, 2, 3, 6, 7,T1
 33, 3, 2.33, 5.67, 5, 6, 2, 3, 2, 4, 4, 7, 3,T1
 36, 3, 2.33, 5.67, 5, 7, 2, 3, 1, 3, 4, 6, 7,T1
 41, 3, 2.33, 5.33, 4, 7, 2, 3, 1, 2, 4, 6, 7,T2
 25, 3, 2, 5.67, 5, 6, 2, 2, 2, 3, 4, 6, 3,T1
 28, 3, 2.67, 5, 5, 5, 2, 3, 1, 3, 3, 6, 7,T1
 16, 3, 3, 5, 4, 6, 3, 3, 1, 2, 3, 6, 7,T1
 18, 3, 2.67, 5.33, 5, 6, 2, 3, 1, 2, 4, 5, 7,T1
 46, 3, 2.67, 5.33, 5, 6, 2, 3, 1, 4, 4, 7, 7,T1
 16, 3, 2.33, 5, 4, 6, 2, 3, 1, 2, 3, 6, 7,T1
 47, 3, 2, 5, 4, 6, 2, 2, 1, 4, 3, 7, 7,T1
 18, 3, 2.33, 5.33, 5, 6, 2, 3, 1, 3, 4, 7, 7,T1
 23, 2, 2, 5, 5, 5, 2, 2, 1, 2, 4, 6, 2,T1
 17, 3, 3, 5.33, 4, 7, 3, 3, 1, 3, 3, 6, 7,T1
 44, 3, 3, 5.33, 4, 7, 3, 3, 1, 4, 3, 7, 7,T1
 19, 3, 2.67, 6, 5, 7, 2, 3, 1, 4, 4, 7, 7,T1
 34, 3, 2.67, 6, 5, 7, 2, 3, 1, 3, 3, 6, 7,T1
 37, 3, 2.67, 5.67, 5, 6, 2, 3, 2, 3, 4, 6, 3,T1
 34, 3, 2.67, 5.33, 4, 7, 2, 3, 2, 2, 4, 6, 3,T3
 13, 3, 2.33, 5, 4, 6, 2, 3, 2, 3, 4, 7, 3,T1
 47, 3, 2.33, 5.33, 4, 7, 2, 3, 1, 3, 3, 6, 7,T1
 42, 3, 2.67, 5, 4, 7, 2, 3, 1, 2, 3, 7, 7,T1
 35, 3, 2.67, 5.67, 5, 6, 2, 3, 1, 2, 4, 5, 7,T2
 20, 3, 2, 5, 4, 6, 2, 2, 2, 3, 3, 7, 3,T1
 39, 2, 2, 6, 5, 7, 2, 2, 1, 2, 4, 7, 2,T1
 20, 3, 2.67, 5.67, 4, 7, 2, 3, 1, 4, 4, 5, 7,T2
 9, 3, 2, 4.67, 4, 5, 2, 2, 2, 3, 4, 5, 3,T1
 17, 3, 2.33, 5.33, 5, 6, 2, 3, 2, 4, 3, 6, 3,T1
 46, 2, 2, 4.5, 4, 5, 2, 2, 2, 4, 4, 6, 1,T1
 19, 3, 2.67, 5, 5, 5, 2, 3, 2, 4, 3, 5, 3,T1
 41, 3, 3, 5.33, 5, 6, 3, 3, 1, 3, 3, 5, 7,T1
 19, 3, 2, 6, 5, 7, 2, 2, 1, 2, 3, 5, 7,T1
 16, 3, 2.67, 5.67, 4, 7, 2, 3, 2, 4, 4, 7, 3,T1
 21, 3, 2, 5.33, 4, 7, 2, 2, 1, 4, 4, 6, 7,T1
 36, 3, 2.67, 5.67, 5, 7, 2, 3, 1, 3, 4, 5, 7,T1
 19, 3, 2.33, 6, 5, 7, 2, 3, 2, 3, 3, 5, 3,T2
 43, 3, 2.67, 5, 4, 6, 2, 3, 2, 4, 3, 7, 3,T1
 32, 3, 2.67, 5.33, 5, 6, 2, 3, 1, 3, 4, 7, 7,T1
 48, 3, 2.33, 5.33, 4, 6, 2, 3, 1, 2, 3, 6, 7,T1
 43, 3, 2.33, 5, 5, 5, 2, 3, 2, 3, 4, 6, 3,T2
 23, 3, 2.67, 5, 5, 5, 2, 3, 1, 2, 3, 7, 7,T1
 38, 3, 2.67, 5.33, 4, 6, 2, 3, 1, 3, 3, 5, 7,T1
 35, 2, 2.5, 5, 5, 5, 2, 3, 2, 4, 3, 7, 1,T1
 34, 3, 2.67, 4.67, 4, 5, 2, 3, 1, 4, 3, 7, 7,T1
 35, 3, 2.33, 6, 5, 7, 2, 3, 2, 3, 3, 6, 3,T1
 19, 3, 2, 4.67, 4, 6, 2, 2, 2, 4, 4, 6, 3,T1
 17, 3, 2, 6, 5, 7, 2, 2, 1, 3, 3, 7, 7,T1
 40, 3, 2, 5, 4, 6, 2, 2, 1, 4, 4, 7, 7,T2
 32, 3, 2.67, 5, 4, 6, 2, 3, 1, 2, 3, 7, 7,T1
 25, 3, 2.67, 4.33, 4, 5, 2, 3, 1, 3, 3, 5, 7,T3
 25, 3, 2.67, 5.33, 5, 6, 2, 3, 1, 4, 3, 5, 7,T1
 19, 3, 2, 5, 4, 6, 2, 2, 1, 3, 4, 5, 7,T1
 18, 2, 2.5, 6, 6, 6, 2, 3, 2, 2, 3, 5, 1,T1
 26, 3, 2, 5.67, 5, 7, 2, 2, 1, 4, 3, 5, 7,T1
 19, 2, 3, 4.5, 4, 5, 3, 3, 1, 3, 4, 7, 2,T1
 21, 3, 3, 5, 4, 6, 3, 3, 1, 3, 3, 5, 7,T1
 42, 2, 2, 6.5, 6, 7, 2, 2, 1, 3, 3, 5, 2,T1
 47, 3, 2.67, 5.67, 5, 6, 2, 3, 2, 4, 3, 6, 3,T2
 10, 3, 3, 5.67, 4, 7, 3, 3, 2, 3, 4, 7, 3,T1
 37, 3, 2.33, 5.67, 5, 6, 2, 3, 1, 4, 4, 7, 7,T1
 48, 3, 2.33, 5.33, 5, 6, 2, 3, 1, 4, 3, 7, 7,T1
 17, 2, 2.5, 5, 5, 5, 2, 3, 1, 4, 3, 6, 2,T1
 49, 2, 2, 6, 6, 6, 2, 2, 1, 3, 3, 5, 2,T1
 41, 3, 2.67, 5.67, 4, 7, 2, 3, 1, 4, 3, 7, 7,T1
 31, 3, 2.67, 4.33, 4, 5, 2, 3, 1, 4, 4, 7, 7,T1
 27, 3, 2.67, 6, 5, 7, 2, 3, 2, 2, 4, 6, 3,T2
 17, 3, 2.67, 5.33, 4, 6, 2, 3, 2, 4, 4, 6, 3,T1
 26, 3, 2.33, 5.33, 4, 7, 2, 3, 2, 2, 4, 7, 3,T2
 45, 3, 2.33, 4.67, 4, 5, 2, 3, 2, 4, 4, 7, 3,T1
 21, 3, 2.67, 4.67, 4, 6, 2, 3, 2, 3, 3, 7, 3,T1
 15, 3, 2.67, 5, 4, 6, 2, 3, 1, 2, 3, 6, 7,T1
 42, 3, 2.67, 6, 5, 7, 2, 3, 1, 2, 3, 7, 7,T1
 46, 3, 2.67, 5.67, 4, 7, 2, 3, 1, 3, 3, 5, 7,T1
 33, 2, 3, 5, 4, 6, 3, 3, 2, 4, 4, 7, 1,T2
 15, 3, 2.33, 5, 4, 6, 2, 3, 2, 4, 4, 6, 3,T1
 51, 3, 2.67, 5.33, 5, 6, 2, 3, 1, 3, 4, 7, 7,T1
 23, 3, 2, 5.67, 5, 6, 2, 2, 1, 3, 3, 7, 7,T1
 20, 2, 2.5, 5.5, 5, 6, 2, 3, 2, 4, 4, 6, 1,T1
 35, 3, 2.67, 5.33, 4, 7, 2, 3, 2, 4, 3, 6, 3,T2
 42, 3, 3, 5, 5, 5, 3, 3, 1, 3, 3, 7, 7,T1
 29, 2, 2.5, 4.5, 4, 5, 2, 3, 1, 2, 3, 7, 2,T1
 50, 3, 2.33, 4.67, 4, 5, 2, 3, 1, 3, 3, 5, 7,T1
 13, 3, 2, 4.67, 4, 5, 2, 2, 1, 4, 4, 5, 7,T1
 41, 3, 2.67, 5.33, 4, 7, 2, 3, 2, 2, 4, 7, 3,T3
 26, 3, 2.33, 5, 4, 6, 2, 3, 2, 3, 4, 7, 3,T1
 30, 3, 2.33, 6, 5, 7, 2, 3, 2, 3, 3, 6, 3,T1
 30, 2, 2.5, 6.5, 6, 7, 2, 3, 1, 3, 3, 5, 2,T1
 44, 3, 2.33, 5.67, 5, 6, 2, 3, 1, 3, 4, 5, 7,T2
 12, 3, 2.67, 5.33, 4, 6, 2, 3, 2, 4, 3, 5, 3,T2
 21, 3, 2.33, 5.33, 4, 7, 2, 3, 1, 2, 3, 7, 7,T1
 17, 3, 2.33, 5.33, 4, 7, 2, 3, 1, 3, 4, 7, 7,T1
 14, 3, 2.33, 5, 4, 6, 2, 3, 1, 3, 3, 5, 7,T1
 48, 3, 2.33, 5, 4, 7, 2, 3, 1, 4, 4, 7, 7,T1
 33, 2, 2, 5.5, 5, 6, 2, 2, 2, 4, 4, 6, 1,T1
 13, 3, 2.33, 4.33, 4, 5, 2, 3, 2, 2, 4, 6, 3,T1
 14, 3, 2.33, 4.33, 4, 5, 2, 3, 2, 2, 4, 7, 3,T2
 32, 3, 2.33, 5, 4, 6, 2, 3, 2, 3, 3, 6, 3,T2
 45, 2, 3, 6.5, 6, 7, 3, 3, 1, 3, 3, 6, 2,T2
 51, 3, 2.33, 5.33, 5, 6, 2, 3, 1, 3, 4, 5, 7,T1
 44, 3, 2, 5, 4, 6, 2, 2, 1, 4, 3, 5, 7,T1
 14, 3, 2.33, 5.33, 5, 6, 2, 3, 1, 4, 4, 7, 7,T1
 34, 3, 2.67, 5.33, 5, 6, 2, 3, 2, 3, 3, 6, 3,T2
 13, 3, 2, 5.33, 5, 6, 2, 2, 2, 3, 3, 7, 3,T1
 19, 3, 3, 5.33, 4, 7, 3, 3, 2, 4, 3, 7, 3,T1
 25, 3, 2, 5.67, 5, 6, 2, 2, 1, 4, 3, 5, 7,T1
 40, 2, 3, 6.5, 6, 7, 3, 3, 2, 4, 3, 7, 1,T2
 41, 2, 2.5, 4.5, 4, 5, 2, 3, 2, 3, 3, 7, 1,T1
 46, 3, 2.67, 5.33, 5, 6, 2, 3, 1, 3, 4, 6, 7,T1
 29, 3, 2, 6, 5, 7, 2, 2, 1, 2, 4, 7, 7,T2
 36, 3, 2, 5.33, 4, 7, 2, 2, 1, 3, 3, 7, 7,T1
 11, 3, 2.33, 5, 4, 6, 2, 3, 1, 4, 4, 7, 7,T1
 13, 2, 2.5, 6.5, 6, 7, 2, 3, 1, 2, 4, 5, 2,T1
 34, 3, 2.33, 5.33, 5, 6, 2, 3, 1, 4, 3, 5, 7,T1
 25, 2, 2, 5.5, 4, 7, 2, 2, 2, 3, 3, 6, 1,T1
 38, 3, 2.67, 5.33, 4, 7, 2, 3, 1, 3, 3, 6, 7,T1
 50, 3, 2.67, 5.67, 5, 7, 2, 3, 1, 3, 3, 6, 7,T1
 51, 3, 2.67, 5.33, 5, 6, 2, 3, 1, 2, 3, 6, 7,T1
 27, 3, 2.67, 5.33, 4, 6, 2, 3, 1, 2, 4, 6, 7,T2
 23, 3, 2.33, 4.67, 4, 5, 2, 3, 1, 2, 4, 7, 7,T2
 12, 2, 2.5, 6, 5, 7, 2, 3, 1, 3, 4, 6, 2,T1
 51, 3, 3, 5.33, 4, 6, 3, 3, 2, 4, 4, 7, 3,T1
 11, 3, 2.33, 4.33, 4, 5, 2, 3, 1, 3, 4, 5, 7,T2
 41, 3, 2.33, 5.33, 4, 6, 2, 3, 1, 2, 3, 7, 7,T1
 32, 3, 2.67, 6, 5, 7, 2, 3, 2, 3, 4, 6, 3,T2
 36, 3, 2.33, 5, 4, 6, 2, 3, 1, 4, 4, 6, 7,T1
 10, 3, 2.67, 5, 4, 6, 2, 3, 1, 2, 4, 5, 7,T1
 32, 3, 2, 5.67, 5, 6, 2, 2, 2, 4, 3, 7, 3,T1
 35, 3, 2.33, 6, 5, 7, 2, 3, 2, 4, 4, 7, 3,T1
 40, 3, 2.33, 5.33, 5, 6, 2, 3, 2, 3, 3, 6, 3,T1
 34, 3, 2, 5.33, 4, 7, 2, 2, 2, 3, 3, 6, 3,T1
 45, 3, 2.33, 5, 4, 6, 2, 3, 1, 3, 3, 6, 7,T1
 47, 3, 3, 5.33, 5, 6, 3, 3, 1, 4, 4, 7, 7,T1
 19, 3, 2.67, 5, 5, 5, 2, 3, 2, 3, 3, 7, 3,T1
 23, 3, 2, 5.67, 5, 7, 2, 2, 1, 2, 3, 6, 7,T2
 37, 2, 2.5, 5, 4, 6, 2, 3, 1, 4, 3, 7, 2,T1
 32, 2, 2.5, 4.5, 4, 5, 2, 3, 2, 3, 3, 6, 1,T2
 44, 3, 2.67, 5.33, 4, 6, 2, 3, 1, 3, 4, 6, 7,T1
 39, 3, 2, 5.33, 4, 6, 2, 2, 2, 3, 3, 6, 3,T1
 16, 3, 2, 5.33, 4, 6, 2, 2, 2, 3, 3, 7, 3,T1
 20, 3, 3, 4.33, 4, 5, 3, 3, 2, 4, 3, 7, 3,T1
 32, 3, 2.33, 6, 5, 7, 2, 3, 1, 3, 4, 6, 7,T1
 45, 3, 2.67, 4.67, 4, 6, 2, 3, 2, 4, 3, 7, 3,T1
 49, 3, 2.33, 4.67, 4, 6, 2, 3, 1, 3, 3, 5, 7,T1
 36, 3, 2.33, 4.67, 4, 6, 2, 3, 2, 4, 3, 7, 3,T1
 43, 3, 2, 4.67, 4, 6, 2, 2, 1, 3, 3, 7, 7,T1
 25, 3, 2.33, 5, 4, 6, 2, 3, 1, 2, 3, 5, 7,T1
 37, 3, 2.33, 4.67, 4, 5, 2, 3, 2, 3, 3, 6, 3,T1
 19, 3, 2, 5, 5, 5, 2, 2, 2, 4, 3, 6, 3,T1
 20, 3, 3, 6, 5, 7, 3, 3, 2, 3, 3, 7, 3,T1
 31, 2, 2, 4.5, 4, 5, 2, 2, 1, 4, 3, 5, 2,T1
 18, 3, 2.67, 4.67, 4, 5, 2, 3, 1, 2, 3, 7, 7,T1
 26, 3, 2, 4.33, 4, 5, 2, 2, 1, 2, 3, 5, 7,T1
 44, 3, 2.67, 5.67, 5, 6, 2, 3, 2, 4, 4, 6, 3,T2
 28, 3, 3, 5.67, 5, 6, 3, 3, 1, 3, 4, 5, 7,T2
 49, 2, 2, 6, 6, 6, 2, 2, 1, 2, 4, 5, 2,T1
 39, 3, 2.33, 5.67, 5, 7, 2, 3, 1, 3, 4, 5, 7,T1
 51, 3, 2.67, 5.33, 4, 6, 2, 3, 2, 3, 4, 6, 3,T2
 30, 3, 2.33, 5, 4, 6, 2, 3, 1, 2, 3, 6, 7,T1
 25, 2, 3, 6, 6, 6, 3, 3, 1, 3, 3, 5, 2,T1
 45, 3, 2.33, 5.33, 4, 6, 2, 3, 2, 4, 3, 7, 3,T1
 35, 3, 2.67, 5.33, 4, 7, 2, 3, 2, 3, 3, 7, 3,T1
 11, 3, 3, 6, 5, 7, 3, 3, 2, 4, 3, 7, 3,T1
 13, 3, 3, 6, 5, 7, 3, 3, 1, 3, 4, 7, 7,T1
 9, 3, 2.67, 5.67, 5, 7, 2, 3, 1, 3, 3, 5, 7,T1
 43, 3, 2.33, 6, 5, 7, 2, 3, 2, 3, 3, 6, 3,T1
 42, 3, 2, 5, 4, 6, 2, 2, 1, 2, 4, 7, 7,T1
 9, 3, 2.33, 5.67, 5, 6, 2, 3, 1, 4, 3, 7, 7,T1
 28, 3, 2.67, 5, 4, 6, 2, 3, 1, 4, 3, 5, 7,T1
 9, 3, 2, 5, 4, 6, 2, 2, 1, 4, 4, 7, 7,T1
 45, 3, 2.67, 4.33, 4, 5, 2, 3, 1, 3, 4, 7, 7,T1
 48, 3, 2.67, 4.67, 4, 6, 2, 3, 1, 2, 4, 6, 7,T3
 28, 3, 2, 5.33, 4, 6, 2, 2, 1, 2, 3, 6, 7,T1
 17, 3, 3, 6, 5, 7, 3, 3, 1, 4, 4, 7, 7,T1
 18, 3, 2.33, 5.33, 5, 6, 2, 3, 2, 4, 3, 6, 3,T1
 27, 3, 2.67, 5.33, 5, 6, 2, 3, 1, 2, 3, 7, 7,T1
 35, 3, 2.33, 6, 5, 7, 2, 3, 1, 3, 3, 7, 7,T1
 24, 3, 2, 4.67, 4, 5, 2, 2, 1, 4, 4, 7, 7,T1
 35, 3, 2.67, 5.33, 5, 6, 2, 3, 2, 4, 3, 6, 3,T2
 43, 2, 2.5, 6.5, 6, 7, 2, 3, 1, 2, 4, 7, 2,T1
 12, 3, 2.33, 5.33, 4, 6, 2, 3, 2, 4, 3, 6, 3,T1
 31, 3, 2.33, 5, 4, 7, 2, 3, 1, 3, 3, 6, 7,T2
 16, 3, 2.67, 5, 5, 5, 2, 3, 1, 3, 3, 6, 7,T1
 41, 3, 2.33, 5, 4, 6, 2, 3, 1, 3, 4, 5, 7,T2
 27, 3, 2.33, 5.33, 5, 6, 2, 3, 2, 4, 4, 7, 3,T1
 13, 3, 2.33, 5, 5, 5, 2, 3, 1, 3, 3, 7, 7,T1
 15, 3, 2.33, 5.33, 5, 6, 2, 3, 1, 4, 3, 7, 7,T1
 24, 3, 2.67, 5, 4, 6, 2, 3, 2, 2, 3, 6, 3,T2
 35, 3, 2.33, 5, 4, 6, 2, 3, 1, 3, 3, 6, 7,T1
 10, 3, 2.67, 5, 4, 6, 2, 3, 1, 3, 4, 6, 7,T2
 51, 3, 2.33, 5, 4, 7, 2, 3, 1, 2, 3, 6, 7,T2
 16, 3, 3, 5.33, 5, 6, 3, 3, 1, 4, 3, 7, 7,T1
 31, 3, 2.33, 5, 4, 6, 2, 3, 1, 2, 3, 6, 7,T1
 15, 3, 2.67, 5.67, 5, 7, 2, 3, 1, 4, 3, 6, 7,T1
 32, 2, 2.5, 5.5, 5, 6, 2, 3, 1, 4, 3, 7, 2,T1
 22, 3, 2.67, 5.33, 4, 7, 2, 3, 1, 2, 3, 6, 7,T1
 40, 3, 2.33, 4.67, 4, 5, 2, 3, 1, 2, 4, 6, 7,T2
 16, 3, 2.67, 5, 5, 5, 2, 3, 1, 2, 4, 5, 7,T2
 11, 3, 2.33, 5, 4, 6, 2, 3, 1, 2, 4, 5, 7,T1
 27, 3, 2.33, 4.33, 4, 5, 2, 3, 1, 4, 3, 7, 7,T1
 27, 3, 2.67, 5, 4, 7, 2, 3, 1, 4, 3, 5, 7,T1
 9, 3, 2.33, 4.67, 4, 5, 2, 3, 2, 3, 4, 7, 3,T1
 32, 3, 2.67, 5.33, 5, 6, 2, 3, 2, 3, 3, 7, 3,T1
 21, 3, 2.33, 5.33, 4, 7, 2, 3, 2, 4, 4, 6, 3,T1
 17, 3, 2.33, 4.33, 4, 5, 2, 3, 1, 2, 4, 5, 7,T2
 10, 3, 2.33, 4.67, 4, 5, 2, 3, 1, 2, 3, 7, 7,T1
 29, 3, 2, 5, 4, 7, 2, 2, 1, 2, 3, 6, 7,T1
 33, 3, 2.67, 6, 5, 7, 2, 3, 1, 3, 4, 5, 7,T1
 42, 3, 2.67, 4.67, 4, 5, 2, 3, 2, 3, 4, 7, 3,T1
 47, 3, 2.67, 5, 4, 6, 2, 3, 1, 3, 3, 6, 7,T1
 43, 3, 3, 5.33, 5, 6, 3, 3, 1, 4, 3, 6, 7,T1
 11, 3, 2.67, 4.33, 4, 5, 2, 3, 1, 2, 3, 7, 7,T1
 34, 3, 2.33, 5, 5, 5, 2, 3, 2, 3, 3, 7, 3,T1
 36, 3, 2.33, 5.33, 5, 6, 2, 3, 2, 3, 4, 7, 3,T1
 12, 3, 2.67, 5, 4, 7, 2, 3, 2, 3, 4, 7, 3,T1
 37, 2, 2.5, 6, 5, 7, 2, 3, 1, 4, 4, 7, 2,T1
 14, 2, 2.5, 5.5, 4, 7, 2, 3, 1, 3, 4, 7, 2,T1
 49, 2, 2, 5, 4, 6, 2, 2, 1, 3, 4, 7, 2,T1
 50, 3, 2.33, 4.67, 4, 5, 2, 3, 1, 4, 4, 7, 7,T1
 37, 3, 2.33, 5.33, 4, 7, 2, 3, 1, 4, 4, 5, 7,T1
 31, 3, 2.33, 5.33, 5, 6, 2, 3, 1, 4, 3, 5, 7,T1
 28, 2, 3, 5.5, 4, 7, 3, 3, 1, 2, 3, 6, 2,T1
 48, 3, 2.33, 5, 4, 7, 2, 3, 1, 4, 3, 5, 7,T3
 26, 3, 2.33, 5.67, 5, 7, 2, 3, 2, 3, 3, 5, 3,T2
 19, 3, 2.33, 5, 4, 7, 2, 3, 2, 3, 3, 7, 3,T1
 31, 3, 2.33, 5.33, 5, 6, 2, 3, 1, 4, 4, 6, 7,T1
 47, 3, 2.67, 6, 5, 7, 2, 3, 1, 4, 4, 5, 7,T1
 13, 3, 2.67, 5.33, 4, 6, 2, 3, 1, 2, 3, 6, 7,T1
 46, 3, 2.33, 4.67, 4, 5, 2, 3, 1, 3, 3, 5, 7,T1
 19, 3, 2.67, 5.67, 5, 7, 2, 3, 1, 2, 4, 5, 7,T3
 24, 3, 2.67, 5, 4, 6, 2, 3, 1, 2, 3, 6, 7,T2
 33, 3, 2.33, 5, 4, 6, 2, 3, 2, 4, 3, 7, 3,T1
 20, 3, 2.33, 5, 4, 6, 2, 3, 1, 4, 4, 6, 7,T1
 44, 3, 2.67, 4.67, 4, 5, 2, 3, 1, 3, 3, 6, 7,T1
 27, 3, 2.33, 5.33, 5, 6, 2, 3, 2, 2, 3, 7, 3,T1
 27, 3, 2, 5.67, 5, 7, 2, 2, 2, 4, 4, 6, 3,T1
 27, 3, 2.33, 5.33, 4, 7, 2, 3, 2, 3, 3, 6, 3,T1
 41, 3, 2.33, 5, 4, 7, 2, 3, 1, 2, 3, 6, 7,T1
 51, 3, 2, 5.67, 5, 7, 2, 2, 2, 4, 3, 6, 3,T1
 46, 3, 2.67, 4.67, 4, 5, 2, 3, 2, 3, 4, 7, 3,T1
 29, 3, 2, 5, 4, 7, 2, 2, 1, 3, 4, 7, 7,T1
 29, 3, 2, 5.67, 5, 7, 2, 2, 1, 2, 4, 5, 7,T1
 41, 2, 2.5, 6, 5, 7, 2, 3, 1, 2, 3, 5, 2,T1
 28, 3, 2, 5, 4, 7, 2, 2, 1, 2, 4, 7, 7,T1
 48, 3, 2, 4.67, 4, 5, 2, 2, 2, 2, 3, 5, 3,T2
 46, 3, 2.33, 5.33, 4, 7, 2, 3, 2, 4, 4, 6, 3,T2
 49, 3, 2.33, 5, 4, 7, 2, 3, 1, 4, 4, 7, 7,T1
 42, 2, 3, 5.5, 5, 6, 3, 3, 2, 3, 4, 7, 1,T1
 33, 3, 2, 5.33, 4, 7, 2, 2, 2, 4, 4, 6, 3,T1
 19, 3, 2.33, 5.33, 5, 6, 2, 3, 2, 2, 4, 6, 3,T1
 17, 3, 2.67, 5.67, 5, 6, 2, 3, 1, 3, 4, 7, 7,T1
 10, 3, 2.33, 4.67, 4, 6, 2, 3, 1, 4, 4, 5, 7,T1
 26, 3, 2.33, 5.33, 5, 6, 2, 3, 1, 4, 4, 6, 7,T1
 40, 3, 2.67, 4.67, 4, 5, 2, 3, 2, 4, 3, 5, 3,T2
 51, 2, 2.5, 5.5, 4, 7, 2, 3, 1, 4, 4, 6, 2,T1
 44, 3, 2.67, 5, 4, 6, 2, 3, 1, 4, 3, 6, 7,T1
 40, 3, 2, 5, 4, 6, 2, 2, 2, 3, 3, 6, 3,T1
 20, 3, 2.33, 5, 4, 6, 2, 3, 2, 4, 4, 6, 3,T1
 50, 3, 2, 5.67, 5, 6, 2, 2, 1, 2, 3, 7, 7,T1
 42, 3, 2, 4.67, 4, 5, 2, 2, 2, 3, 4, 7, 3,T1
 42, 2, 2.5, 4.5, 4, 5, 2, 3, 1, 2, 3, 7, 2,T1
 26, 3, 2.67, 4.67, 4, 5, 2, 3, 2, 4, 3, 7, 3,T1
 51, 3, 2.67, 5, 4, 6, 2, 3, 1, 3, 3, 6, 7,T1
 13, 3, 2.33, 5.33, 4, 6, 2, 3, 2, 2, 4, 6, 3,T1
 32, 3, 2.33, 4.67, 4, 5, 2, 3, 2, 3, 3, 6, 3,T1
 45, 3, 2.67, 5.33, 5, 6, 2, 3, 1, 4, 3, 7, 7,T1
 48, 3, 2.33, 5.33, 4, 7, 2, 3, 1, 4, 4, 5, 7,T2
 23, 3, 2.67, 6, 5, 7, 2, 3, 1, 4, 4, 7, 7,T1
 25, 3, 2.67, 5, 5, 5, 2, 3, 1, 3, 4, 7, 7,T1
 27, 3, 2.67, 4.67, 4, 6, 2, 3, 1, 4, 3, 7, 7,T1
 21, 2, 2.5, 4.5, 4, 5, 2, 3, 1, 3, 3, 6, 2,T1
 11, 3, 2.33, 5, 4, 6, 2, 3, 2, 4, 3, 7, 3,T1
 46, 3, 2.33, 5, 4, 6, 2, 3, 1, 4, 3, 5, 7,T1
 10, 3, 2, 5.33, 4, 7, 2, 2, 2, 3, 3, 6, 3,T1
 35, 2, 2.5, 5.5, 5, 6, 2, 3, 1, 3, 3, 7, 2,T1
 22, 3, 2.67, 4.67, 4, 5, 2, 3, 2, 4, 4, 7, 3,T1
 17, 3, 2.67, 5, 4, 6, 2, 3, 2, 4, 4, 7, 3,T1
 17, 3, 2.33, 5.33, 5, 6, 2, 3, 1, 3, 4, 5, 7,T1
 47, 3, 2, 5, 4, 6, 2, 2, 2, 3, 4, 7, 3,T1
 48, 3, 2.33, 4.67, 4, 5, 2, 3, 1, 2, 3, 5, 7,T1
 35, 3, 2.67, 5.33, 5, 6, 2, 3, 2, 2, 4, 6, 3,T2
 31, 3, 2.67, 5, 4, 7, 2, 3, 2, 4, 4, 6, 3,T2
 11, 3, 2.33, 5.33, 4, 7, 2, 3, 1, 2, 4, 7, 7,T1
 15, 3, 2.33, 5.33, 4, 6, 2, 3, 1, 3, 4, 5, 7,T2
 27, 3, 2.33, 4.67, 4, 6, 2, 3, 1, 4, 3, 7, 7,T1
 42, 2, 2, 6, 5, 7, 2, 2, 1, 4, 3, 7, 2,T1
 27, 3, 2, 4.67, 4, 5, 2, 2, 1, 4, 3, 7, 7,T1
 33, 3, 2.33, 5.67, 5, 7, 2, 3, 2, 2, 4, 7, 3,T2
 28, 2, 2.5, 5, 5, 5, 2, 3, 1, 2, 3, 7, 2,T1
 41, 3, 2.33, 5, 4, 6, 2, 3, 2, 3, 3, 7, 3,T1
 28, 3, 2, 5, 4, 6, 2, 2, 1, 2, 3, 6, 7,T1
 22, 3, 2.33, 5, 4, 6, 2, 3, 2, 4, 4, 7, 3,T1
 42, 3, 2.67, 5.33, 4, 6, 2, 3, 1, 3, 4, 7, 7,T2
 40, 3, 2.67, 4.67, 4, 6, 2, 3, 2, 3, 4, 6, 3,T3
 20, 3, 2.33, 5, 5, 5, 2, 3, 1, 3, 3, 6, 7,T1
 16, 3, 2, 5.33, 5, 6, 2, 2, 1, 4, 3, 5, 7,T1
 38, 3, 2.33, 5.67, 5, 7, 2, 3, 1, 4, 4, 5, 7,T1
 32, 3, 2.33, 5, 4, 7, 2, 3, 2, 4, 4, 7, 3,T1
 12, 2, 2, 4.5, 4, 5, 2, 2, 1, 2, 4, 7, 2,T1
 33, 3, 2, 4.67, 4, 5, 2, 2, 2, 4, 4, 7, 3,T1
 12, 3, 2.33, 5, 4, 7, 2, 3, 1, 4, 4, 7, 7,T1
 28, 3, 2.33, 5, 4, 6, 2, 3, 1, 3, 4, 7, 7,T1
 34, 3, 2.33, 5, 5, 5, 2, 3, 2, 4, 3, 7, 3,T1
 51, 3, 2.67, 5.33, 4, 7, 2, 3, 1, 4, 4, 7, 7,T1
 25, 3, 2.67, 5.33, 5, 6, 2, 3, 1, 3, 3, 7, 7,T1
 40, 3, 2.33, 6, 5, 7, 2, 3, 1, 3, 3, 5, 7,T1
 25, 3, 2.33, 5, 5, 5, 2, 3, 1, 2, 3, 7, 7,T1
 37, 3, 2.33, 5.33, 4, 6, 2, 3, 1, 2, 4, 7, 7,T2
 50, 3, 2.33, 4.33, 4, 5, 2, 3, 1, 4, 4, 5, 7,T2
 48, 3, 2.33, 4.33, 4, 5, 2, 3, 1, 3, 3, 6, 7,T1
 46, 2, 2.5, 6.5, 6, 7, 2, 3, 1, 4, 4, 6, 2,T1
 50, 3, 2.33, 5.33, 5, 6, 2, 3, 1, 2, 3, 7, 7,T1
 18, 3, 2, 5.33, 5, 6, 2, 2, 2, 4, 3, 7, 3,T1
 21, 2, 2.5, 6.5, 6, 7, 2, 3, 2, 2, 4, 6, 1,T1
 37, 3, 2.33, 5, 4, 6, 2, 3, 2, 3, 3, 6, 3,T1
 14, 3, 2.33, 5.67, 5, 6, 2, 3, 1, 3, 4, 7, 7,T1
 50, 3, 2.67, 4.67, 4, 6, 2, 3, 1, 3, 4, 6, 7,T1
 46, 3, 2, 5, 4, 7, 2, 2, 1, 3, 4, 7, 7,T1
 32, 3, 2.33, 4.67, 4, 5, 2, 3, 1, 2, 3, 7, 7,T1
 34, 3, 2, 4.67, 4, 6, 2, 2, 2, 3, 4, 7, 3,T1
 39, 3, 2.33, 6, 5, 7, 2, 3, 1, 2, 3, 6, 7,T1
 25, 3, 2.33, 5, 4, 6, 2, 3, 1, 3, 4, 6, 7,T1
 44, 3, 2, 5.33, 4, 7, 2, 2, 1, 2, 3, 7, 7,T1
 37, 3, 2.33, 5, 4, 7, 2, 3, 2, 4, 3, 7, 3,T1
 36, 2, 3, 6, 6, 6, 3, 3, 1, 3, 3, 5, 2,T1
 14, 3, 2.33, 5, 4, 6, 2, 3, 1, 3, 4, 5, 7,T1
 46, 3, 2.33, 5, 4, 6, 2, 3, 1, 2, 4, 7, 7,T1
 41, 3, 2.67, 4.67, 4, 5, 2, 3, 2, 3, 3, 7, 3,T1
 19, 3, 2.33, 4.67, 4, 5, 2, 3, 2, 2, 3, 7, 3,T1
 24, 3, 3, 6, 5, 7, 3, 3, 1, 3, 4, 5, 7,T2
 47, 3, 2.33, 4.67, 4, 5, 2, 3, 1, 3, 4, 7, 7,T1
 17, 3, 3, 5.67, 5, 7, 3, 3, 1, 3, 4, 5, 7,T2
 9, 3, 3, 5.67, 5, 7, 3, 3, 2, 4, 3, 7, 3,T1
 19, 3, 2.67, 4.67, 4, 5, 2, 3, 2, 4, 3, 7, 3,T1
 22, 3, 3, 5, 4, 6, 3, 3, 1, 4, 3, 5, 7,T1
 28, 3, 2.33, 5, 4, 6, 2, 3, 2, 4, 4, 6, 3,T1
 14, 3, 2.67, 4.67, 4, 6, 2, 3, 1, 2, 3, 5, 7,T1
 22, 3, 2.67, 5.67, 5, 7, 2, 3, 2, 4, 3, 5, 3,T1
 39, 3, 2, 5, 4, 6, 2, 2, 1, 3, 4, 6, 7,T1
 33, 2, 2.5, 5, 4, 6, 2, 3, 2, 3, 3, 6, 1,T1
 33, 3, 2.33, 5.67, 5, 6, 2, 3, 1, 3, 3, 6, 7,T1
 20, 3, 2.67, 4.67, 4, 5, 2, 3, 2, 3, 3, 7, 3,T1
 40, 3, 2.33, 5, 4, 6, 2, 3, 1, 4, 4, 5, 7,T1
 20, 3, 2.33, 5, 4, 6, 2, 3, 1, 2, 3, 6, 7,T1
 25, 2, 2, 6, 5, 7, 2, 2, 1, 3, 4, 6, 2,T1
 25, 3, 2.33, 5, 4, 7, 2, 3, 1, 4, 3, 5, 7,T1
 17, 3, 2.33, 4.33, 4, 5, 2, 3, 1, 4, 4, 7, 7,T1
 36, 3, 2.33, 5, 4, 6, 2, 3, 1, 3, 3, 6, 7,T1
 16, 3, 2.67, 5.33, 4, 6, 2, 3, 2, 4, 3, 6, 3,T1
 16, 3, 2.33, 5, 5, 5, 2, 3, 2, 4, 3, 6, 3,T1
 37, 3, 2.33, 5, 4, 6, 2, 3, 1, 4, 3, 7, 7,T1
 33, 2, 3, 6, 6, 6, 3, 3, 1, 4, 4, 7, 2,T1
 35, 3, 3, 4.67, 4, 5, 3, 3, 2, 3, 3, 7, 3,T1
 31, 3, 2.33, 5.33, 5, 6, 2, 3, 1, 3, 3, 6, 7,T1
 47, 2, 2.5, 4.5, 4, 5, 2, 3, 1, 3, 3, 6, 2,T1
 33, 2, 2.5, 5, 4, 6, 2, 3, 1, 3, 4, 6, 2,T1
 46, 3, 3, 5.67, 5, 6, 3, 3, 2, 3, 3, 7, 3,T2
 49, 3, 3, 5.33, 4, 7, 3, 3, 1, 3, 3, 5, 7,T2
 41, 3, 2.67, 4.67, 4, 5, 2, 3, 2, 4, 4, 6, 3,T2
 35, 3, 2.33, 4.67, 4, 6, 2, 3, 1, 4, 3, 7, 7,T1
 38, 3, 2.33, 5, 5, 5, 2, 3, 1, 3, 3, 7, 7,T1
 39, 3, 2.67, 4.67, 4, 5, 2, 3, 1, 2, 4, 6, 7,T3
 49, 3, 2.67, 5.33, 4, 6, 2, 3, 2, 2, 3, 7, 3,T2
 44, 2, 3, 6, 6, 6, 3, 3, 1, 4, 4, 5, 2,T2
 29, 3, 2.67, 5, 4, 6, 2, 3, 1, 4, 3, 7, 7,T1
 47, 3, 2.33, 4.67, 4, 6, 2, 3, 1, 3, 3, 6, 7,T1
 26, 2, 2.5, 6.5, 6, 7, 2, 3, 2, 4, 3, 7, 1,T1
 46, 3, 2.67, 5.67, 5, 7, 2, 3, 2, 3, 4, 7, 3,T1
 51, 3, 2, 4.67, 4, 5, 2, 2, 1, 2, 4, 6, 7,T1
 10, 3, 2.33, 5.33, 4, 7, 2, 3, 1, 3, 4, 6, 7,T1
 45, 3, 2.33, 4.67, 4, 6, 2, 3, 1, 3, 3, 6, 7,T1
 28, 3, 2.33, 5, 4, 7, 2, 3, 2, 4, 3, 6, 3,T1
 32, 3, 2.67, 5.67, 5, 7, 2, 3, 1, 3, 3, 6, 7,T1
 34, 3, 2, 5.67, 4, 7, 2, 2, 2, 3, 4, 7, 3,T1
 23, 3, 2.33, 5.67, 4, 7, 2, 3, 1, 2, 4, 6, 7,T2
 27, 2, 3, 6, 5, 7, 3, 3, 1, 4, 4, 5, 2,T1
 19, 3, 2.33, 5.67, 5, 7, 2, 3, 1, 4, 3, 5, 7,T1
 23, 3, 2.33, 5.67, 5, 6, 2, 3, 1, 3, 4, 6, 7,T1
 27, 3, 2.33, 5.33, 4, 6, 2, 3, 2, 3, 4, 7, 3,T1
 30, 3, 2.67, 5.33, 5, 6, 2, 3, 1, 2, 4, 7, 7,T2
 35, 3, 2.33, 5.33, 4, 7, 2, 3, 1, 2, 3, 5, 7,T1
 33, 3, 2.33, 5.33, 4, 7, 2, 3, 1, 3, 4, 6, 7,T2
 39, 3, 2, 5.33, 5, 6, 2, 2, 2, 4, 4, 6, 3,T1
 13, 3, 2.33, 5, 4, 6, 2, 3, 1, 3, 3, 5, 7,T1
 33, 3, 2.67, 4.67, 4, 6, 2, 3, 1, 3, 3, 7, 7,T1
 30, 3, 3, 5.33, 4, 6, 3, 3, 1, 3, 3, 7, 7,T1
 51, 2, 2, 6, 5, 7, 2, 2, 2, 3, 3, 7, 1,T1
 20, 3, 2.33, 4.67, 4, 6, 2, 3, 1, 3, 3, 5, 7,T1
 12, 3, 2.33, 5, 4, 6, 2, 3, 2, 4, 4, 5, 3,T1
 29, 3, 2.67, 5.33, 4, 6, 2, 3, 1, 4, 4, 6, 7,T2
 23, 3, 2.67, 5, 5, 5, 2, 3, 2, 3, 3, 6, 3,T2
 39, 3, 2.67, 5.33, 5, 6, 2, 3, 2, 4, 3, 7, 3,T1
 40, 3, 2.33, 5.33, 5, 6, 2, 3, 2, 4, 3, 7, 3,T2
 15, 3, 2.33, 4.67, 4, 5, 2, 3, 1, 2, 3, 6, 7,T1
 24, 3, 2, 5.67, 4, 7, 2, 2, 1, 4, 3, 7, 7,T1
 44, 3, 2.33, 5, 4, 7, 2, 3, 1, 2, 3, 5, 7,T2
 42, 3, 3, 5.33, 4, 7, 3, 3, 2, 3, 4, 6, 3,T3
 42, 3, 2.33, 5, 5, 5, 2, 3, 1, 3, 3, 5, 7,T1
 48, 3, 2, 5, 5, 5, 2, 2, 1, 2, 3, 7, 7,T1
 9, 3, 2.67, 5, 4, 6, 2, 3, 1, 2, 3, 5, 7,T1
 47, 3, 3, 5, 4, 6, 3, 3, 1, 2, 3, 7, 7,T1
 22, 3, 3, 5.33, 5, 6, 3, 3, 1, 3, 3, 6, 7,T1
 43, 3, 2.67, 5.67, 5, 6, 2, 3, 2, 3, 4, 6, 3,T2
 47, 3, 2.33, 5.33, 4, 6, 2, 3, 1, 4, 4, 5, 7,T1
 50, 3, 2.67, 5, 4, 7, 2, 3, 1, 3, 4, 6, 7,T2
 26, 3, 3, 5, 4, 6, 3, 3, 1, 2, 3, 5, 7,T1
 33, 3, 2.67, 4.67, 4, 5, 2, 3, 2, 4, 3, 7, 3,T1
 16, 3, 2.67, 5.67, 5, 7, 2, 3, 2, 3, 3, 6, 3,T1
 42, 3, 2.33, 6, 5, 7, 2, 3, 1, 4, 3, 6, 7,T1
 35, 3, 2.67, 5.33, 4, 7, 2, 3, 1, 3, 4, 5, 7,T3
 50, 3, 2.33, 5, 4, 6, 2, 3, 1, 4, 4, 5, 7,T2
 47, 3, 2.33, 5, 4, 6, 2, 3, 1, 3, 3, 7, 7,T1
 45, 3, 3, 5.67, 4, 7, 3, 3, 1, 3, 4, 6, 7,T3
 44, 3, 2.33, 4.67, 4, 6, 2, 3, 1, 3, 4, 5, 7,T1
 48, 2, 3, 5.5, 5, 6, 3, 3, 2, 4, 3, 6, 1,T1
 51, 2, 2, 5, 4, 6, 2, 2, 1, 3, 4, 7, 2,T1
 43, 3, 2.67, 6, 5, 7, 2, 3, 1, 3, 3, 6, 7,T1
 39, 3, 2.33, 4.67, 4, 6, 2, 3, 1, 2, 4, 5, 7,T2
 35, 3, 2.33, 4.67, 4, 5, 2, 3, 1, 2, 3, 6, 7,T1
 11, 3, 2, 5.67, 5, 6, 2, 2, 1, 3, 3, 7, 7,T1
 48, 3, 3, 4.67, 4, 5, 3, 3, 2, 3, 4, 7, 3,T3
 48, 3, 2.33, 5.33, 4, 7, 2, 3, 1, 4, 4, 5, 7,T2
 29, 2, 3, 6, 5, 7, 3, 3, 1, 4, 4, 6, 2,T2
 49, 3, 2.67, 5, 4, 6, 2, 3, 1, 3, 3, 6, 7,T1
 44, 2, 2.5, 5.5, 4, 7, 2, 3, 1, 4, 3, 5, 2,T1
 12, 2, 2.5, 5.5, 5, 6, 2, 3, 1, 3, 4, 7, 2,T1
 49, 3, 2.33, 5.33, 4, 7, 2, 3, 1, 4, 4, 5, 7,T2
 15, 3, 2.67, 5, 4, 6, 2, 3, 1, 4, 3, 5, 7,T1
 9, 3, 2.33, 4.67, 4, 5, 2, 3, 2, 3, 4, 5, 3,T1
 44, 3, 2.67, 5, 4, 6, 2, 3, 1, 3, 3, 6, 7,T1
 44, 3, 2.67, 5, 4, 6, 2, 3, 1, 3, 3, 7, 7,T1
 32, 2, 2.5, 6, 6, 6, 2, 3, 1, 2, 4, 5, 2,T1
 27, 3, 2.33, 5.67, 5, 7, 2, 3, 2, 3, 3, 7, 3,T1
 16, 3, 2.33, 4.67, 4, 6, 2, 3, 2, 3, 3, 7, 3,T1
 48, 3, 2.33, 5.33, 5, 6, 2, 3, 2, 4, 4, 7, 3,T1
 29, 3, 2, 4.67, 4, 6, 2, 2, 2, 3, 3, 5, 3,T1
 36, 3, 2.33, 5, 4, 7, 2, 3, 2, 4, 4, 6, 3,T1
 20, 3, 2, 5.67, 5, 7, 2, 2, 2, 3, 4, 7, 3,T1
 39, 3, 2.67, 5.33, 4, 7, 2, 3, 1, 3, 4, 6, 7,T1
 48, 3, 2.67, 5.33, 4, 7, 2, 3, 2, 3, 4, 6, 3,T2
 18, 2, 2, 6.5, 6, 7, 2, 2, 2, 3, 4, 6, 1,T1
 9, 2, 3, 6, 6, 6, 3, 3, 2, 4, 4, 6, 1,T1
 44, 3, 2.33, 5.33, 4, 7, 2, 3, 1, 3, 4, 7, 7,T1
 22, 3, 3, 5, 4, 7, 3, 3, 1, 4, 3, 5, 7,T1
 29, 3, 3, 5.33, 4, 7, 3, 3, 2, 3, 4, 7, 3,T2
 49, 3, 2.33, 5.67, 5, 6, 2, 3, 1, 3, 4, 6, 7,T1
 26, 3, 2.67, 4.67, 4, 5, 2, 3, 2, 4, 3, 6, 3,T1
 25, 3, 2.33, 6, 5, 7, 2, 3, 1, 2, 4, 7, 7,T1
 49, 3, 2, 5, 4, 6, 2, 2, 1, 3, 4, 5, 7,T2
 50, 2, 3, 5.5, 5, 6, 3, 3, 1, 3, 3, 7, 2,T1
 14, 2, 2.5, 5.5, 5, 6, 2, 3, 1, 3, 3, 6, 2,T1
 41, 3, 3, 5.67, 5, 7, 3, 3, 2, 4, 4, 7, 3,T1
 37, 3, 2.67, 5, 4, 6, 2, 3, 1, 4, 3, 6, 7,T1
 17, 3, 2.67, 5.33, 4, 7, 2, 3, 1, 4, 3, 5, 7,T1
 40, 3, 2.67, 5.33, 4, 7, 2, 3, 1, 2, 3, 5, 7,T1
 34, 3, 2.33, 4.33, 4, 5, 2, 3, 1, 2, 3, 7, 7,T1
 20, 3, 2, 6, 5, 7, 2, 2, 1, 2, 3, 5, 7,T1
 25, 3, 2.33, 5.33, 4, 7, 2, 3, 1, 4, 4, 5, 7,T1
 24, 3, 2.67, 5.33, 5, 6, 2, 3, 1, 2, 4, 6, 7,T2
 50, 3, 2.67, 5, 4, 6, 2, 3, 1, 4, 3, 7, 7,T1
 44, 3, 2.67, 4.33, 4, 5, 2, 3, 1, 2, 4, 7, 7,T3
 36, 2, 2, 5, 4, 6, 2, 2, 2, 4, 4, 6, 1,T1
 36, 3, 3, 5, 5, 5, 3, 3, 1, 4, 4, 7, 7,T1
 44, 3, 2, 5, 4, 6, 2, 2, 2, 3, 3, 6, 3,T1
 15, 3, 2, 5.33, 4, 6, 2, 2, 1, 4, 4, 7, 7,T1
 22, 3, 2.33, 5, 4, 6, 2, 3, 2, 3, 4, 6, 3,T1
 51, 3, 2, 5.33, 4, 7, 2, 2, 1, 2, 4, 6, 7,T2
 43, 3, 3, 6, 5, 7, 3, 3, 1, 2, 3, 6, 7,T1
 45, 3, 2.33, 5.33, 4, 7, 2, 3, 2, 4, 3, 7, 3,T1
 39, 3, 2.33, 5, 4, 6, 2, 3, 2, 4, 3, 6, 3,T1
 46, 2, 2.5, 5.5, 5, 6, 2, 3, 1, 3, 3, 5, 2,T1
 33, 3, 2.67, 5.33, 5, 6, 2, 3, 2, 3, 4, 6, 3,T1
 18, 3, 2.33, 5.67, 4, 7, 2, 3, 1, 2, 3, 7, 7,T1
 24, 3, 2, 4.67, 4, 5, 2, 2, 2, 4, 4, 6, 3,T1
 30, 3, 2.33, 5.33, 5, 6, 2, 3, 2, 3, 4, 6, 3,T1
 20, 3, 2.33, 6, 5, 7, 2, 3, 1, 4, 3, 7, 7,T1
 26, 3, 2.67, 4.67, 4, 6, 2, 3, 1, 3, 4, 7, 7,T1
 32, 3, 2.67, 5, 5, 5, 2, 3, 1, 2, 3, 7, 7,T1
 39, 3, 3, 5.67, 5, 6, 3, 3, 1, 2, 3, 6, 7,T1
 37, 3, 2.33, 6, 5, 7, 2, 3, 2, 4, 3, 7, 3,T1
 33, 3, 2, 5.67, 4, 7, 2, 2, 2, 2, 4, 7, 3,T1
 25, 3, 2.33, 4.67, 4, 5, 2, 3, 2, 4, 3, 7, 3,T1
 26, 3, 2.33, 5.33, 4, 7, 2, 3, 2, 4, 4, 5, 3,T2
 33, 3, 2.33, 5.33, 4, 7, 2, 3, 1, 2, 4, 5, 7,T2
 33, 3, 2.67, 4.67, 4, 5, 2, 3, 2, 2, 3, 7, 3,T2
 11, 3, 2.33, 5, 4, 6, 2, 3, 1, 4, 4, 6, 7,T1
 43, 2, 2.5, 4.5, 4, 5, 2, 3, 1, 3, 3, 5, 2,T1
 21, 3, 2.33, 5.67, 5, 6, 2, 3, 2, 2, 4, 6, 3,T1
 19, 2, 2.5, 5, 4, 6, 2, 3, 1, 4, 3, 6, 2,T1
 28, 3, 2, 4.33, 4, 5, 2, 2, 2, 4, 4, 7, 3,T1
 21, 3, 2.33, 4.67, 4, 6, 2, 3, 2, 3, 3, 6, 3,T2
 18, 3, 3, 5.33, 5, 6, 3, 3, 1, 2, 3, 5, 7,T1
 16, 2, 2, 6, 5, 7, 2, 2, 2, 4, 3, 5, 1,T1
 10, 3, 2.33, 4.67, 4, 6, 2, 3, 1, 4, 4, 7, 7,T1
 51, 3, 2.67, 6, 5, 7, 2, 3, 1, 4, 4, 5, 7,T1
 38, 3, 2, 5, 4, 7, 2, 2, 1, 4, 3, 5, 7,T1
 22, 3, 2.33, 5, 4, 6, 2, 3, 1, 4, 3, 5, 7,T1
 23, 3, 3, 5.33, 5, 6, 3, 3, 1, 4, 3, 7, 7,T1
 27, 3, 2.33, 4.67, 4, 5, 2, 3, 2, 4, 3, 6, 3,T1
 33, 2, 2, 5.5, 5, 6, 2, 2, 2, 3, 4, 5, 1,T2
 51, 3, 2.33, 5.67, 5, 7, 2, 3, 1, 4, 4, 7, 7,T1
 20, 3, 2.67, 5.67, 5, 7, 2, 3, 1, 2, 3, 5, 7,T1
 36, 3, 2, 5.33, 4, 7, 2, 2, 1, 4, 4, 6, 7,T1
 22, 2, 2.5, 5, 5, 5, 2, 3, 1, 4, 3, 5, 2,T1
 37, 3, 2.33, 5, 4, 6, 2, 3, 1, 2, 4, 7, 7,T2
 27, 3, 2, 5.33, 5, 6, 2, 2, 2, 4, 3, 7, 3,T1
 22, 2, 2.5, 6, 5, 7, 2, 3, 1, 4, 4, 7, 2,T1
 21, 3, 2.67, 5.67, 5, 7, 2, 3, 1, 4, 4, 7, 7,T1
 41, 3, 2, 5.33, 5, 6, 2, 2, 1, 3, 3, 5, 7,T1
 35, 3, 2.33, 5, 4, 6, 2, 3, 2, 4, 3, 7, 3,T1
 50, 3, 2.67, 5, 4, 6, 2, 3, 2, 4, 4, 7, 3,T1
 32, 3, 2, 5, 4, 6, 2, 2, 2, 3, 3, 6, 3,T1
 50, 2, 2.5, 5.5, 4, 7, 2, 3, 2, 3, 3, 7, 1,T1
 51, 3, 2, 5, 4, 6, 2, 2, 2, 4, 4, 7, 3,T1
 48, 3, 2.33, 4.67, 4, 6, 2, 3, 2, 3, 3, 7, 3,T1
 14, 3, 2.33, 5.33, 5, 6, 2, 3, 1, 3, 4, 5, 7,T1
 37, 2, 2.5, 6, 5, 7, 2, 3, 1, 3, 4, 6, 2,T1
 33, 3, 2.33, 5.33, 5, 6, 2, 3, 1, 4, 3, 6, 7,T1
 31, 3, 2.33, 5.33, 5, 6, 2, 3, 2, 3, 3, 5, 3,T1
 10, 3, 2.67, 5, 4, 6, 2, 3, 1, 2, 3, 7, 7,T1
 48, 3, 3, 5, 4, 7, 3, 3, 1, 2, 3, 7, 7,T1
 21, 3, 2.67, 5.67, 4, 7, 2, 3, 2, 3, 3, 7, 3,T1
 45, 3, 2.33, 5.33, 5, 6, 2, 3, 1, 4, 4, 7, 7,T1
 49, 3, 3, 5.67, 5, 7, 3, 3, 1, 4, 4, 5, 7,T2
 20, 3, 2.33, 4.67, 4, 5, 2, 3, 1, 3, 3, 6, 7,T1
 47, 3, 2.67, 5.33, 5, 6, 2, 3, 2, 4, 3, 7, 3,T1
 33, 2, 2.5, 6, 5, 7, 2, 3, 1, 3, 3, 6, 2,T1
 20, 3, 2.67, 5.67, 5, 6, 2, 3, 2, 4, 4, 7, 3,T1
 49, 3, 2.33, 5.67, 4, 7, 2, 3, 1, 4, 3, 6, 7,T1
 32, 3, 2, 4.67, 4, 5, 2, 2, 1, 2, 3, 6, 7,T1
 16, 3, 2.33, 5.33, 4, 7, 2, 3, 2, 4, 4, 5, 3,T2
 44, 3, 2.67, 5.67, 5, 7, 2, 3, 1, 4, 4, 5, 7,T2
 14, 3, 2.67, 4.67, 4, 6, 2, 3, 1, 2, 3, 7, 7,T1
 40, 3, 2, 5.67, 4, 7, 2, 2, 1, 4, 3, 7, 7,T1
 46, 3, 2, 5, 4, 6, 2, 2, 1, 3, 3, 7, 7,T1
 22, 2, 2.5, 5, 4, 6, 2, 3, 1, 2, 3, 7, 2,T2
 26, 3, 2.33, 4.67, 4, 5, 2, 3, 1, 3, 4, 5, 7,T1
 35, 3, 2.33, 5.67, 5, 7, 2, 3, 1, 4, 3, 5, 7,T1
 45, 3, 2.33, 5, 4, 6, 2, 3, 2, 4, 4, 7, 3,T1
 25, 3, 2.67, 5, 4, 6, 2, 3, 1, 2, 3, 7, 7,T1
 34, 2, 2, 6, 5, 7, 2, 2, 1, 2, 4, 5, 2,T1
 22, 3, 2, 5.33, 4, 6, 2, 2, 1, 2, 4, 5, 7,T1
 50, 3, 2.33, 5.33, 5, 6, 2, 3, 2, 3, 3, 7, 3,T1
 45, 3, 2.67, 5.67, 4, 7, 2, 3, 2, 4, 3, 7, 3,T1
 26, 3, 2.33, 5.67, 5, 6, 2, 3, 1, 2, 4, 5, 7,T1
 32, 3, 2.33, 5.33, 5, 6, 2, 3, 1, 2, 4, 6, 7,T1
 14, 3, 3, 5.33, 4, 6, 3, 3, 2, 3, 3, 7, 3,T1
 31, 3, 2.67, 6, 5, 7, 2, 3, 1, 4, 4, 5, 7,T1
 48, 2, 2.5, 6, 5, 7, 2, 3, 1, 2, 3, 7, 2,T1
 46, 3, 2, 5.33, 4, 7, 2, 2, 1, 2, 3, 6, 7,T1
 43, 3, 2.33, 5.67, 5, 7, 2, 3, 1, 3, 3, 6, 7,T1
 33, 3, 2, 5.33, 5, 6, 2, 2, 1, 3, 3, 7, 7,T1
 12, 3, 3, 4.67, 4, 5, 3, 3, 1, 3, 4, 6, 7,T2
 21, 3, 2.33, 5, 4, 6, 2, 3, 1, 2, 3, 6, 7,T1
 43, 3, 2.33, 5, 5, 5, 2, 3, 1, 3, 3, 7, 7,T1
 35, 3, 2.67, 4.67, 4, 5, 2, 3, 1, 4, 4, 5, 7,T3
 50, 3, 2, 5.33, 4, 7, 2, 2, 2, 4, 4, 7, 3,T1
 32, 3, 2.67, 5.33, 4, 6, 2, 3, 1, 3, 3, 5, 7,T2
 22, 3, 2.33, 5.33, 4, 6, 2, 3, 2, 3, 4, 5, 3,T2
 14, 3, 2, 6, 5, 7, 2, 2, 1, 4, 4, 6, 7,T1
 39, 3, 2, 5.33, 4, 7, 2, 2, 2, 4, 3, 5, 3,T1
 24, 3, 3, 5.33, 4, 7, 3, 3, 1, 3, 3, 7, 7,T1
 48, 3, 2.33, 6, 5, 7, 2, 3, 1, 3, 3, 5, 7,T1
 50, 3, 3, 4.67, 4, 5, 3, 3, 1, 2, 3, 6, 7,T1
 21, 2, 2.5, 5, 5, 5, 2, 3, 1, 2, 3, 6, 2,T1
 37, 2, 3, 5.5, 5, 6, 3, 3, 2, 3, 3, 6, 1,T1
 37, 3, 2.33, 4.67, 4, 5, 2, 3, 1, 4, 4, 6, 7,T1
 30, 3, 2.33, 5, 5, 5, 2, 3, 1, 2, 4, 7, 7,T1
 46, 3, 2.33, 5.33, 5, 6, 2, 3, 2, 4, 3, 6, 3,T2
 50, 3, 2.67, 5.33, 5, 6, 2, 3, 1, 4, 3, 7, 7,T1
 19, 3, 2.33, 4.67, 4, 6, 2, 3, 1, 4, 3, 6, 7,T1
 30, 3, 2, 5.33, 5, 6, 2, 2, 1, 4, 3, 7, 7,T1
 45, 3, 2.67, 5.33, 4, 6, 2, 3, 2, 3, 3, 7, 3,T1
 9, 3, 2.33, 5, 4, 6, 2, 3, 2, 4, 3, 5, 3,T1
 47, 3, 2.67, 5.67, 4, 7, 2, 3, 2, 3, 3, 6, 3,T2
 44, 3, 2.33, 4.67, 4, 5, 2, 3, 1, 2, 3, 6, 7,T1
 28, 3, 2.67, 5.33, 5, 6, 2, 3, 1, 2, 3, 6, 7,T1
 32, 3, 2.67, 5, 4, 6, 2, 3, 1, 4, 3, 6, 7,T1
 10, 3, 2, 5.67, 5, 7, 2, 2, 1, 4, 4, 5, 7,T1
 40, 3, 2.33, 5.33, 4, 6, 2, 3, 2, 2, 4, 7, 3,T2
 49, 3, 2, 5.33, 4, 6, 2, 2, 1, 3, 4, 6, 7,T2
 47, 3, 2.67, 5.67, 5, 7, 2, 3, 2, 4, 3, 7, 3,T2
 34, 3, 2.33, 5, 4, 6, 2, 3, 2, 3, 4, 7, 3,T1
 39, 3, 2, 5.33, 4, 6, 2, 2, 1, 4, 3, 6, 7,T1
 13, 3, 2, 5.33, 4, 7, 2, 2, 1, 3, 3, 5, 7,T1
 15, 3, 3, 4.33, 4, 5, 3, 3, 2, 4, 3, 6, 3,T2
 27, 3, 2, 5.33, 5, 6, 2, 2, 1, 3, 3, 5, 7,T2
 40, 3, 3, 5.33, 5, 6, 3, 3, 2, 3, 4, 6, 3,T2
 35, 3, 2, 4.67, 4, 5, 2, 2, 1, 4, 4, 5, 7,T1
 25, 3, 2.33, 5.33, 4, 7, 2, 3, 1, 3, 4, 7, 7,T1
 15, 3, 3, 5.33, 4, 7, 3, 3, 1, 2, 3, 5, 7,T1
 16, 3, 2.67, 5, 4, 6, 2, 3, 1, 4, 4, 7, 7,T1
 20, 3, 2.33, 5.67, 5, 7, 2, 3, 1, 3, 3, 6, 7,T1
 38, 3, 2.33, 5, 5, 5, 2, 3, 1, 4, 4, 6, 7,T1
 36, 3, 2.33, 4.33, 4, 5, 2, 3, 1, 2, 3, 7, 7,T1
 38, 3, 2, 5, 4, 6, 2, 2, 2, 3, 3, 6, 3,T1
 50, 3, 2.67, 5.33, 4, 7, 2, 3, 1, 4, 3, 6, 7,T1
 24, 3, 2, 5.33, 4, 7, 2, 2, 1, 4, 3, 7, 7,T1
 33, 3, 2, 5.33, 5, 6, 2, 2, 1, 3, 4, 5, 7,T2
 49, 3, 2.33, 4.67, 4, 6, 2, 3, 1, 3, 4, 7, 7,T1
 18, 3, 2.67, 5, 4, 6, 2, 3, 2, 4, 4, 6, 3,T2
 38, 3, 2.67, 4.33, 4, 5, 2, 3, 2, 3, 4, 7, 3,T1
 13, 3, 2.67, 6, 5, 7, 2, 3, 2, 4, 3, 7, 3,T1
 28, 2, 2, 5, 5, 5, 2, 2, 1, 3, 3, 7, 2,T1
 35, 3, 2.33, 4.67, 4, 6, 2, 3, 2, 2, 3, 7, 3,T1
 29, 2, 3, 5.5, 5, 6, 3, 3, 1, 2, 3, 7, 2,T1
 50, 3, 2.33, 5.67, 4, 7, 2, 3, 1, 4, 3, 5, 7,T1
 43, 3, 2.33, 5.33, 4, 7, 2, 3, 1, 4, 4, 6, 7,T1
 40, 3, 2, 4.67, 4, 5, 2, 2, 1, 2, 3, 7, 7,T1
 44, 3, 2.67, 5.67, 4, 7, 2, 3, 1, 4, 3, 5, 7,T1
 39, 3, 2.67, 5, 4, 6, 2, 3, 1, 3, 4, 5, 7,T1
 28, 3, 2.67, 5.33, 4, 7, 2, 3, 1, 2, 3, 7, 7,T1
 29, 3, 3, 5.33, 4, 6, 3, 3, 1, 3, 4, 7, 7,T2
 10, 3, 2.67, 4.67, 4, 5, 2, 3, 1, 3, 3, 7, 7,T1
 27, 3, 3, 6, 5, 7, 3, 3, 2, 2, 3, 7, 3,T1
 36, 3, 3, 5.67, 5, 7, 3, 3, 1, 2, 3, 7, 7,T1
 46, 3, 3, 5.33, 5, 6, 3, 3, 1, 4, 3, 5, 7,T1
 16, 3, 2, 4.33, 4, 5, 2, 2, 2, 4, 3, 6, 3,T1
 39, 3, 2, 5.67, 4, 7, 2, 2, 1, 4, 3, 5, 7,T1
 35, 3, 2.67, 5.67, 4, 7, 2, 3, 1, 2, 4, 7, 7,T2
 45, 3, 2, 5, 4, 6, 2, 2, 2, 3, 3, 7, 3,T1
 17, 3, 2.33, 5.67, 5, 7, 2, 3, 1, 4, 3, 7, 7,T1
 33, 3, 2, 5.67, 5, 7, 2, 2, 2, 4, 3, 7, 3,T1
 16, 3, 2.67, 6, 5, 7, 2, 3, 1, 3, 4, 7, 7,T1
 19, 3, 2.67, 5.33, 4, 6, 2, 3, 2, 3, 4, 7, 3,T1
 39, 3, 2.67, 5, 4, 6, 2, 3, 2, 4, 4, 6, 3,T2
 32, 3, 2.33, 5, 5, 5, 2, 3, 1, 2, 3, 5, 7,T1
 40, 3, 2.67, 5.67, 5, 7, 2, 3, 1, 2, 4, 7, 7,T3
 39, 2, 2, 6, 5, 7, 2, 2, 1, 4, 3, 5, 2,T2
 42, 3, 2.33, 5, 5, 5, 2, 3, 2, 4, 3, 7, 3,T1
 51, 3, 2.33, 4.67, 4, 6, 2, 3, 2, 3, 4, 7, 3,T1
 32, 3, 2.67, 5, 4, 6, 2, 3, 1, 2, 4, 5, 7,T2
 12, 3, 2.67, 5.33, 5, 6, 2, 3, 1, 3, 3, 5, 7,T1
 26, 2, 2.5, 5.5, 5, 6, 2, 3, 2, 4, 3, 7, 1,T1
 49, 3, 2.67, 5, 4, 7, 2, 3, 1, 2, 3, 7, 7,T1
 35, 3, 2.33, 6, 5, 7, 2, 3, 2, 4, 4, 7, 3,T1
 35, 3, 2.67, 5.33, 5, 6, 2, 3, 1, 2, 3, 5, 7,T1
 33, 3, 2.33, 4.67, 4, 6, 2, 3, 2, 3, 4, 7, 3,T1
 24, 3, 2.33, 5.33, 5, 6, 2, 3, 2, 3, 4, 7, 3,T1
 36, 3, 2, 5, 5, 5, 2, 2, 1, 4, 3, 7, 7,T1
 42, 3, 2.33, 4.33, 4, 5, 2, 3, 2, 4, 3, 7, 3,T1
 41, 2, 2, 5.5, 4, 7, 2, 2, 2, 4, 4, 6, 1,T1
 14, 3, 2.67, 4.67, 4, 6, 2, 3, 1, 2, 3, 5, 7,T1
 26, 3, 2.67, 4.67, 4, 5, 2, 3, 2, 3, 4, 5, 3,T2
 27, 3, 2.33, 5.67, 5, 6, 2, 3, 1, 3, 3, 6, 7,T1
 34, 3, 2.67, 5, 4, 6, 2, 3, 1, 4, 3, 7, 7,T1
 42, 2, 2, 5.5, 4, 7, 2, 2, 1, 2, 3, 5, 2,T1
 42, 3, 2.33, 4.67, 4, 5, 2, 3, 1, 3, 4, 5, 7,T2
 29, 3, 2.33, 4.67, 4, 6, 2, 3, 1, 2, 3, 6, 7,T1
 25, 3, 2.67, 5, 4, 6, 2, 3, 1, 4, 3, 7, 7,T1
 37, 3, 2.33, 5, 4, 7, 2, 3, 1, 4, 3, 5, 7,T1
 20, 3, 2.67, 5.33, 4, 7, 2, 3, 2, 4, 4, 6, 3,T1
 21, 3, 2.67, 5, 4, 7, 2, 3, 1, 4, 3, 7, 7,T1
 51, 3, 2.33, 5.33, 4, 7, 2, 3, 1, 4, 3, 7, 7,T1
 37, 3, 2.67, 5.67, 5, 6, 2, 3, 1, 4, 3, 6, 7,T1
 37, 2, 3, 4.5, 4, 5, 3, 3, 1, 4, 3, 7, 2,T1
 47, 3, 2.67, 4.67, 4, 6, 2, 3, 2, 3, 4, 7, 3,T1
 37, 3, 2.67, 4.67, 4, 6, 2, 3, 2, 4, 3, 6, 3,T1
 14, 3, 2.33, 6, 5, 7, 2, 3, 1, 3, 3, 6, 7,T1
 24, 3, 2.67, 5, 4, 6, 2, 3, 2, 4, 4, 7, 3,T1
 26, 2, 2, 5.5, 5, 6, 2, 2, 2, 3, 3, 6, 1,T1
 44, 3, 2.67, 5, 5, 5, 2, 3, 1, 4, 3, 7, 7,T1
 10, 3, 2.67, 4.67, 4, 5, 2, 3, 1, 2, 3, 6, 7,T1
 50, 3, 2, 5.67, 4, 7, 2, 2, 2, 3, 3, 7, 3,T1
 37, 3, 3, 5, 4, 6, 3, 3, 1, 4, 3, 5, 7,T1
 35, 3, 2, 5.33, 4, 7, 2, 2, 2, 4, 3, 7, 3,T1
 29, 3, 3, 5, 4, 6, 3, 3, 1, 2, 3, 5, 7,T1
 19, 3, 2.67, 5, 4, 7, 2, 3, 1, 4, 4, 6, 7,T1
 24, 3, 2.67, 5.67, 4, 7, 2, 3, 1, 2, 4, 5, 7,T2
 17, 3, 2, 4.67, 4, 5, 2, 2, 1, 4, 3, 5, 7,T1
 25, 2, 2.5, 6.5, 6, 7, 2, 3, 2, 4, 4, 6, 1,T1
 30, 3, 3, 5.67, 5, 7, 3, 3, 2, 4, 4, 6, 3,T3
 47, 3, 2.33, 5.67, 4, 7, 2, 3, 1, 4, 4, 6, 7,T1
 17, 3, 2, 5.67, 5, 6, 2, 2, 1, 4, 3, 5, 7,T1
 18, 3, 3, 5, 4, 6, 3, 3, 1, 3, 4, 7, 7,T2
 25, 2, 2.5, 6.5, 6, 7, 2, 3, 1, 2, 3, 7, 2,T1
 23, 3, 2.33, 5.67, 5, 7, 2, 3, 2, 3, 4, 7, 3,T1
 34, 3, 2.67, 4.33, 4, 5, 2, 3, 1, 4, 3, 7, 7,T1
 49, 2, 2, 5, 4, 6, 2, 2, 2, 4, 3, 6, 1,T1
 23, 3, 2, 5.33, 5, 6, 2, 2, 1, 3, 4, 6, 7,T1
 11, 2, 2, 6, 6, 6, 2, 2, 1, 2, 4, 6, 2,T1
 21, 3, 2.67, 6, 5, 7, 2, 3, 1, 3, 3, 6, 7,T1
 49, 2, 3, 5, 4, 6, 3, 3, 1, 2, 3, 5, 2,T1
 29, 3, 2.33, 5.67, 4, 7, 2, 3, 1, 3, 4, 6, 7,T1
 42, 3, 2.67, 4.67, 4, 5, 2, 3, 2, 4, 3, 7, 3,T1
 21, 3, 2, 6, 5, 7, 2, 2, 1, 4, 4, 6, 7,T1
 26, 3, 2.33, 5, 4, 6, 2, 3, 2, 3, 4, 7, 3,T1
 12, 3, 2.33, 5.33, 5, 6, 2, 3, 1, 4, 3, 6, 7,T1
 38, 3, 2.67, 5.67, 5, 7, 2, 3, 1, 2, 3, 6, 7,T1
 32, 3, 2.67, 5, 4, 6, 2, 3, 2, 3, 3, 7, 3,T1
 22, 3, 2.67, 4.67, 4, 5, 2, 3, 1, 2, 3, 7, 7,T1
 32, 3, 2.67, 5, 4, 7, 2, 3, 1, 3, 3, 6, 7,T1
 18, 3, 2.33, 5, 4, 6, 2, 3, 1, 3, 3, 7, 7,T1
 13, 3, 2, 5, 4, 6, 2, 2, 2, 4, 3, 7, 3,T1
 36, 3, 3, 5.33, 5, 6, 3, 3, 1, 4, 4, 6, 7,T1
 23, 3, 2.33, 5, 4, 6, 2, 3, 1, 3, 3, 5, 7,T1
 40, 3, 2, 4.67, 4, 5, 2, 2, 2, 4, 4, 7, 3,T1
 34, 3, 2.33, 5.33, 4, 6, 2, 3, 2, 2, 4, 6, 3,T2
 20, 3, 2.33, 5.67, 5, 7, 2, 3, 2, 3, 4, 6, 3,T1
 12, 3, 2.33, 5, 4, 6, 2, 3, 2, 4, 4, 5, 3,T2
 30, 2, 3, 5.5, 5, 6, 3, 3, 2, 4, 3, 5, 1,T1
 49, 3, 2.67, 4.67, 4, 5, 2, 3, 1, 2, 3, 7, 7,T1
 42, 3, 2.33, 4.33, 4, 5, 2, 3, 1, 4, 4, 6, 7,T1
 35, 3, 2.67, 6, 5, 7, 2, 3, 1, 4, 3, 7, 7,T1
 16, 3, 2.67, 4.67, 4, 5, 2, 3, 2, 3, 3, 6, 3,T1
 29, 3, 2, 4.67, 4, 5, 2, 2, 2, 4, 3, 5, 3,T1
 29, 3, 2.67, 5, 4, 6, 2, 3, 1, 2, 4, 5, 7,T2
 30, 3, 2.33, 4.67, 4, 5, 2, 3, 1, 4, 3, 6, 7,T1
 17, 3, 2.33, 5, 5, 5, 2, 3, 1, 3, 3, 5, 7,T1
 18, 3, 2, 5.67, 5, 6, 2, 2, 1, 2, 4, 6, 7,T1
 42, 2, 3, 5, 4, 6, 3, 3, 2, 3, 4, 7, 1,T1
 15, 3, 2.67, 4.67, 4, 6, 2, 3, 1, 3, 3, 5, 7,T1
 47, 3, 3, 4.67, 4, 5, 3, 3, 1, 4, 4, 6, 7,T3
 11, 3, 2.67, 4.67, 4, 5, 2, 3, 1, 3, 3, 6, 7,T1
 24, 3, 2.33, 5, 4, 6, 2, 3, 1, 4, 4, 6, 7,T1
 34, 3, 2.33, 6, 5, 7, 2, 3, 2, 4, 4, 6, 3,T1
 38, 3, 2.33, 5, 4, 7, 2, 3, 1, 4, 3, 7, 7,T1
 43, 3, 2, 5.67, 5, 6, 2, 2, 1, 3, 4, 7, 7,T1
 41, 3, 2.33, 5.33, 4, 7, 2, 3, 2, 3, 4, 6, 3,T1
 47, 3, 2, 5, 4, 6, 2, 2, 1, 4, 3, 5, 7,T1
 48, 3, 2.33, 5, 5, 5, 2, 3, 2, 2, 4, 6, 3,T2
 11, 3, 2.33, 5.67, 5, 7, 2, 3, 1, 4, 3, 5, 7,T1
 49, 3, 2.67, 5, 4, 6, 2, 3, 1, 4, 3, 5, 7,T1
 44, 2, 2.5, 5.5, 4, 7, 2, 3, 1, 2, 3, 7, 2,T1
 9, 3, 2.67, 5, 4, 6, 2, 3, 2, 4, 3, 7, 3,T1
 24, 3, 2.67, 5.33, 5, 6, 2, 3, 2, 4, 3, 6, 3,T1
 25, 3, 2.67, 5.67, 4, 7, 2, 3, 1, 4, 3, 6, 7,T1
 24, 2, 2.5, 6.5, 6, 7, 2, 3, 2, 3, 3, 5, 1,T1
 13, 3, 3, 5.33, 5, 6, 3, 3, 2, 2, 4, 7, 3,T2
 24, 3, 2.67, 5.67, 5, 7, 2, 3, 1, 4, 3, 7, 7,T1
 28, 3, 2.33, 5, 4, 6, 2, 3, 1, 4, 4, 7, 7,T1
 31, 2, 2, 5, 4, 6, 2, 2, 1, 3, 4, 7, 2,T1
 12, 3, 2.33, 5, 5, 5, 2, 3, 1, 3, 3, 6, 7,T1
 22, 3, 2.67, 5.67, 5, 7, 2, 3, 1, 4, 3, 7, 7,T1
 44, 3, 2.33, 6, 5, 7, 2, 3, 1, 2, 4, 7, 7,T2
 51, 3, 2.33, 5.67, 4, 7, 2, 3, 1, 4, 3, 5, 7,T1
 42, 3, 2.67, 5, 5, 5, 2, 3, 1, 2, 4, 7, 7,T2
 38, 3, 2.67, 5.67, 4, 7, 2, 3, 1, 4, 3, 6, 7,T1
 44, 2, 2, 5.5, 4, 7, 2, 2, 1, 2, 3, 5, 2,T1
 36, 3, 2.33, 5, 4, 6, 2, 3, 1, 3, 3, 7, 7,T1
 42, 3, 2.33, 4.67, 4, 5, 2, 3, 1, 2, 3, 6, 7,T1
 18, 3, 2.67, 5.33, 5, 6, 2, 3, 1, 2, 3, 7, 7,T1
 26, 3, 2.67, 4.67, 4, 5, 2, 3, 1, 2, 3, 6, 7,T1
 14, 3, 2.33, 5.33, 5, 6, 2, 3, 1, 3, 4, 6, 7,T1
 50, 2, 2.5, 5.5, 4, 7, 2, 3, 1, 3, 4, 6, 2,T1
 10, 3, 2.33, 5, 4, 6, 2, 3, 1, 4, 3, 7, 7,T1
 49, 3, 2.67, 5.33, 5, 6, 2, 3, 2, 3, 3, 7, 3,T1
 24, 3, 2, 5.33, 4, 6, 2, 2, 2, 4, 4, 6, 3,T1
 29, 3, 2.33, 4.67, 4, 6, 2, 3, 1, 4, 4, 5, 7,T1
 41, 3, 2, 4.33, 4, 5, 2, 2, 2, 4, 4, 6, 3,T1
 38, 2, 3, 6, 5, 7, 3, 3, 1, 3, 3, 7, 2,T1
 40, 3, 2.33, 4.67, 4, 6, 2, 3, 1, 3, 3, 7, 7,T1
 37, 3, 2.33, 5.67, 4, 7, 2, 3, 1, 4, 4, 7, 7,T1
 42, 3, 3, 5.33, 4, 6, 3, 3, 1, 3, 3, 5, 7,T1
 10, 3, 2, 5.67, 5, 7, 2, 2, 2, 4, 3, 6, 3,T1
 14, 3, 2.33, 4.67, 4, 5, 2, 3, 1, 3, 3, 7, 7,T1
 26, 2, 2.5, 5, 4, 6, 2, 3, 1, 3, 3, 6, 2,T1
 31, 3, 2.67, 5.33, 4, 7, 2, 3, 2, 3, 3, 6, 3,T3
 15, 3, 2.33, 6, 5, 7, 2, 3, 1, 3, 3, 7, 7,T1
 15, 2, 2.5, 6, 6, 6, 2, 3, 2, 3, 4, 5, 1,T1
 12, 3, 2.33, 5.67, 5, 7, 2, 3, 1, 2, 3, 7, 7,T1
 16, 3, 2.67, 5.33, 4, 7, 2, 3, 1, 4, 3, 7, 7,T1
 26, 3, 2.33, 4.67, 4, 5, 2, 3, 2, 4, 4, 6, 3,T1
 9, 2, 3, 6.5, 6, 7, 3, 3, 1, 3, 3, 5, 2,T1
 26, 3, 2.67, 6, 5, 7, 2, 3, 1, 3, 4, 7, 7,T1
 28, 2, 2, 6, 5, 7, 2, 2, 1, 2, 3, 6, 2,T1
 48, 3, 2.67, 4.67, 4, 5, 2, 3, 1, 3, 3, 7, 7,T1
 12, 3, 2.67, 5.33, 4, 6, 2, 3, 1, 2, 3, 5, 7,T1
 21, 3, 2.67, 6, 5, 7, 2, 3, 1, 2, 3, 7, 7,T1
 19, 3, 2.67, 4.67, 4, 5, 2, 3, 1, 3, 3, 5, 7,T1
 27, 2, 2.5, 6.5, 6, 7, 2, 3, 1, 3, 4, 7, 2,T1
 14, 3, 2.67, 5.33, 5, 6, 2, 3, 2, 4, 3, 6, 3,T2
 37, 3, 2.33, 5, 5, 5, 2, 3, 1, 4, 3, 7, 7,T2
 37, 2, 3, 5.5, 5, 6, 3, 3, 1, 2, 3, 7, 2,T1
 23, 3, 2.67, 4.67, 4, 5, 2, 3, 1, 4, 3, 6, 7,T1
 36, 3, 2.67, 6, 5, 7, 2, 3, 1, 3, 4, 7, 7,T1
 41, 3, 2.33, 4.67, 4, 6, 2, 3, 1, 3, 3, 6, 7,T1
 13, 3, 2.67, 5.67, 5, 7, 2, 3, 1, 3, 3, 7, 7,T1
 46, 2, 2.5, 5.5, 5, 6, 2, 3, 2, 3, 4, 7, 1,T1
 14, 3, 2.67, 5.67, 4, 7, 2, 3, 1, 4, 3, 7, 7,T1
 38, 3, 3, 4.67, 4, 5, 3, 3, 2, 4, 4, 7, 3,T2
 36, 3, 2, 5.33, 4, 7, 2, 2, 1, 3, 3, 7, 7,T1
 46, 3, 2.33, 5.67, 5, 7, 2, 3, 2, 4, 4, 6, 3,T2
 23, 3, 2, 5, 4, 6, 2, 2, 1, 2, 3, 5, 7,T1
 48, 2, 2.5, 6.5, 6, 7, 2, 3, 2, 4, 3, 7, 1,T1
 26, 3, 2.33, 5, 4, 6, 2, 3, 2, 3, 4, 5, 3,T2
 22, 3, 2.33, 5, 4, 6, 2, 3, 1, 3, 4, 5, 7,T1
 10, 3, 2.67, 4.67, 4, 6, 2, 3, 2, 3, 3, 7, 3,T1
 18, 3, 2.33, 5.67, 5, 7, 2, 3, 2, 3, 4, 7, 3,T1
 18, 3, 2, 4.67, 4, 5, 2, 2, 2, 4, 4, 6, 3,T1
 34, 3, 2.33, 5.33, 4, 6, 2, 3, 1, 2, 3, 5, 7,T1
 41, 3, 2.67, 5.67, 4, 7, 2, 3, 2, 2, 4, 6, 3,T2
 16, 3, 2.33, 5.67, 4, 7, 2, 3, 1, 4, 4, 7, 7,T1
 27, 3, 2.67, 5, 4, 6, 2, 3, 1, 4, 4, 7, 7,T1
 29, 3, 2.33, 5.33, 4, 7, 2, 3, 1, 3, 4, 6, 7,T1
 51, 3, 2.67, 5.67, 4, 7, 2, 3, 2, 3, 4, 7, 3,T1
 21, 2, 2.5, 5, 4, 6, 2, 3, 1, 4, 3, 6, 2,T1
 41, 3, 2.67, 5.33, 5, 6, 2, 3, 1, 3, 3, 7, 7,T1
 10, 3, 2.33, 4.67, 4, 5, 2, 3, 1, 3, 4, 6, 7,T1
 33, 3, 2.67, 5, 5, 5, 2, 3, 2, 3, 4, 7, 3,T1
 43, 3, 2.67, 4.67, 4, 5, 2, 3, 1, 4, 3, 6, 7,T1
 22, 2, 2.5, 6, 6, 6, 2, 3, 2, 4, 4, 7, 1,T1
 15, 3, 2.67, 5, 4, 6, 2, 3, 2, 3, 4, 5, 3,T2
 36, 3, 3, 6, 5, 7, 3, 3, 1, 3, 3, 5, 7,T1
 34, 3, 2.33, 5, 4, 7, 2, 3, 1, 4, 4, 6, 7,T1
 11, 3, 2.67, 5.33, 5, 6, 2, 3, 1, 2, 3, 7, 7,T1
 13, 3, 2.67, 5, 4, 6, 2, 3, 1, 2, 3, 7, 7,T1
 10, 3, 2.67, 5.33, 4, 7, 2, 3, 2, 4, 4, 7, 3,T1
 13, 3, 2.33, 5.33, 4, 7, 2, 3, 2, 4, 3, 7, 3,T1
 50, 3, 3, 5, 4, 6, 3, 3, 1, 2, 3, 5, 7,T1
 31, 3, 3, 6, 5, 7, 3, 3, 1, 3, 3, 6, 7,T1
 15, 3, 2.67, 5, 5, 5, 2, 3, 1, 4, 3, 6, 7,T1
 18, 3, 2.67, 6, 5, 7, 2, 3, 1, 4, 4, 6, 7,T1
 14, 3, 2, 5, 4, 6, 2, 2, 1, 2, 4, 7, 7,T1
 29, 3, 2.67, 5.67, 5, 6, 2, 3, 1, 4, 4, 6, 7,T1
 49, 3, 2.67, 5.33, 5, 6, 2, 3, 1, 4, 3, 6, 7,T1
 27, 3, 2.33, 5.33, 5, 6, 2, 3, 1, 4, 3, 6, 7,T1
 28, 3, 2.33, 4.67, 4, 5, 2, 3, 2, 4, 4, 6, 3,T1
 41, 3, 2.67, 5.33, 5, 6, 2, 3, 1, 2, 3, 5, 7,T1
 20, 3, 2.67, 4.67, 4, 6, 2, 3, 2, 4, 3, 7, 3,T1
 14, 3, 2.67, 4.67, 4, 5, 2, 3, 1, 3, 3, 6, 7,T1
 15, 3, 2.67, 5, 4, 6, 2, 3, 2, 4, 4, 6, 3,T2
 18, 3, 2, 5, 4, 6, 2, 2, 1, 4, 4, 6, 7,T1
 15, 3, 2.33, 5, 4, 6, 2, 3, 1, 3, 3, 6, 7,T1
 37, 2, 2.5, 6.5, 6, 7, 2, 3, 2, 4, 3, 6, 1,T1
 17, 3, 2.33, 6, 5, 7, 2, 3, 2, 3, 3, 6, 3,T1
 17, 3, 2.33, 5.67, 4, 7, 2, 3, 1, 4, 3, 6, 7,T1
 12, 3, 2.33, 5, 4, 6, 2, 3, 1, 3, 3, 7, 7,T1
 17, 3, 2.33, 6, 5, 7, 2, 3, 2, 4, 4, 7, 3,T1
 11, 2, 2, 5.5, 4, 7, 2, 2, 1, 2, 3, 5, 2,T1
 15, 3, 2, 5, 4, 6, 2, 2, 1, 3, 4, 6, 7,T1
 30, 2, 3, 5, 4, 6, 3, 3, 1, 3, 3, 5, 2,T1
 33, 3, 2.33, 5.33, 4, 6, 2, 3, 2, 3, 3, 7, 3,T1
 39, 2, 2.5, 6.5, 6, 7, 2, 3, 1, 2, 4, 5, 2,T1
 45, 3, 2.33, 5.33, 5, 6, 2, 3, 1, 2, 3, 6, 7,T1
 47, 3, 2.33, 5.33, 4, 7, 2, 3, 2, 3, 3, 7, 3,T1
 23, 2, 2.5, 4.5, 4, 5, 2, 3, 2, 4, 3, 7, 1,T1
 34, 3, 2.67, 5.33, 5, 6, 2, 3, 1, 3, 3, 7, 7,T1
 13, 3, 2, 5.67, 5, 6, 2, 2, 1, 4, 4, 7, 7,T1
 18, 2, 2.5, 5, 5, 5, 2, 3, 1, 2, 3, 6, 2,T1
 31, 3, 2.33, 4.67, 4, 6, 2, 3, 1, 4, 4, 7, 7,T1
 33, 3, 2.33, 5, 4, 6, 2, 3, 2, 2, 4, 5, 3,T2
 40, 3, 2.33, 5.67, 5, 7, 2, 3, 1, 3, 4, 5, 7,T1
 51, 2, 3, 5.5, 5, 6, 3, 3, 1, 4, 3, 5, 2,T1
 20, 3, 2.33, 5.33, 5, 6, 2, 3, 1, 2, 4, 5, 7,T1
 25, 3, 3, 5.67, 5, 7, 3, 3, 1, 3, 4, 7, 7,T2
 27, 2, 2.5, 5.5, 4, 7, 2, 3, 1, 4, 3, 7, 2,T1
 26, 3, 2.33, 5.33, 5, 6, 2, 3, 1, 4, 3, 7, 7,T1
 33, 3, 2.67, 4.67, 4, 5, 2, 3, 1, 3, 4, 6, 7,T2
 36, 3, 2.33, 4.67, 4, 6, 2, 3, 1, 4, 3, 5, 7,T1
 38, 3, 2.67, 5.67, 5, 6, 2, 3, 1, 4, 4, 5, 7,T2
 37, 3, 2, 5.33, 4, 7, 2, 2, 1, 2, 3, 5, 7,T1
 21, 3, 2.33, 5.67, 4, 7, 2, 3, 2, 4, 4, 7, 3,T1
 23, 3, 2.67, 5.33, 4, 7, 2, 3, 2, 4, 3, 6, 3,T2
 12, 2, 2.5, 5.5, 4, 7, 2, 3, 2, 4, 3, 7, 1,T1
 15, 3, 2.33, 4.33, 4, 5, 2, 3, 2, 3, 3, 6, 3,T1
 36, 3, 2.67, 5, 5, 5, 2, 3, 1, 3, 4, 5, 7,T1
 23, 3, 2.67, 5, 4, 7, 2, 3, 1, 4, 3, 6, 7,T1
 50, 3, 3, 5.67, 5, 7, 3, 3, 2, 3, 3, 7, 3,T1
 43, 3, 2.67, 5, 4, 7, 2, 3, 1, 3, 4, 6, 7,T3
 49, 2, 2.5, 5, 4, 6, 2, 3, 2, 3, 4, 7, 1,T1
 21, 3, 2.33, 5, 4, 6, 2, 3, 1, 2, 4, 6, 7,T1
 35, 3, 2.67, 4.33, 4, 5, 2, 3, 1, 3, 3, 6, 7,T1
 10, 2, 3, 6, 5, 7, 3, 3, 1, 4, 3, 6, 2,T1
 45, 2, 2, 5.5, 5, 6, 2, 2, 1, 2, 4, 6, 2,T1
 34, 3, 2.67, 5.33, 5, 6, 2, 3, 1, 4, 4, 6, 7,T1
 35, 3, 2.33, 5.33, 4, 7, 2, 3, 1, 4, 3, 7, 7,T1
 12, 3, 2.33, 4.67, 4, 6, 2, 3, 2, 4, 3, 5, 3,T1
 34, 3, 2.33, 5, 4, 6, 2, 3, 1, 2, 3, 6, 7,T1
 31, 3, 2, 5.67, 5, 6, 2, 2, 2, 3, 3, 6, 3,T1
 18, 3, 2, 4.67, 4, 5, 2, 2, 2, 3, 3, 7, 3,T1
 28, 3, 2.33, 5.67, 5, 6, 2, 3, 1, 4, 4, 5, 7,T1
 27, 3, 2, 5, 4, 7, 2, 2, 2, 2, 4, 7, 3,T1
 17, 3, 2, 4.33, 4, 5, 2, 2, 1, 3, 4, 5, 7,T1
 19, 3, 2.33, 5, 4, 6, 2, 3, 1, 2, 4, 7, 7,T2
 40, 3, 2.33, 5, 4, 7, 2, 3, 2, 4, 3, 5, 3,T1
 32, 2, 2, 5, 5, 5, 2, 2, 1, 4, 3, 5, 2,T1
 16, 3, 2.67, 5.33, 4, 7, 2, 3, 1, 2, 3, 6, 7,T1
 25, 3, 2, 5.67, 5, 6, 2, 2, 1, 4, 3, 6, 7,T1
 33, 3, 2.67, 4.67, 4, 5, 2, 3, 1, 4, 4, 6, 7,T1
 13, 3, 2.33, 4.33, 4, 5, 2, 3, 1, 2, 3, 6, 7,T1
 18, 3, 3, 4.67, 4, 5, 3, 3, 1, 2, 4, 5, 7,T2
 14, 2, 2.5, 5.5, 5, 6, 2, 3, 1, 3, 3, 5, 2,T1
 13, 2, 2.5, 5, 4, 6, 2, 3, 1, 3, 4, 6, 2,T1
 29, 3, 3, 5.67, 4, 7, 3, 3, 1, 2, 3, 6, 7,T1
 29, 3, 2.33, 5.67, 5, 7, 2, 3, 2, 4, 3, 6, 3,T1
 16, 3, 2.67, 5, 4, 6, 2, 3, 2, 3, 3, 6, 3,T1
 27, 3, 2.33, 5.33, 5, 6, 2, 3, 1, 3, 4, 5, 7,T1
 44, 3, 3, 5.67, 4, 7, 3, 3, 2, 4, 3, 6, 3,T3
 51, 3, 2.33, 5.33, 5, 6, 2, 3, 1, 3, 3, 5, 7,T1
 13, 3, 2, 5.67, 4, 7, 2, 2, 2, 2, 3, 5, 3,T1
 24, 3, 2, 5, 5, 5, 2, 2, 2, 4, 3, 7, 3,T1
 34, 3, 2.33, 5.67, 4, 7, 2, 3, 2, 4, 3, 7, 3,T1
 19, 3, 2.33, 4.67, 4, 5, 2, 3, 2, 2, 3, 7, 3,T1
 28, 3, 2.33, 5.67, 5, 6, 2, 3, 1, 2, 4, 7, 7,T1
 39, 2, 2.5, 6, 5, 7, 2, 3, 2, 4, 4, 5, 1,T2
 39, 3, 3, 5.33, 5, 6, 3, 3, 1, 2, 3, 6, 7,T1
 10, 2, 3, 6, 5, 7, 3, 3, 1, 4, 3, 7, 2,T1
 26, 3, 2.33, 5.33, 4, 6, 2, 3, 2, 3, 3, 5, 3,T2
 18, 2, 2, 5, 4, 6, 2, 2, 1, 2, 3, 5, 2,T1
 16, 3, 2.67, 5.33, 4, 7, 2, 3, 1, 4, 3, 6, 7,T1
 34, 3, 2.67, 4.33, 4, 5, 2, 3, 2, 4, 4, 6, 3,T2
 10, 3, 2.33, 6, 5, 7, 2, 3, 2, 3, 3, 6, 3,T1
 24, 3, 2.67, 5.67, 5, 7, 2, 3, 2, 3, 4, 6, 3,T1
 42, 3, 2, 6, 5, 7, 2, 2, 1, 3, 3, 5, 7,T1
 38, 3, 2.67, 5.33, 5, 6, 2, 3, 1, 3, 4, 5, 7,T1
 13, 2, 2.5, 6.5, 6, 7, 2, 3, 1, 2, 4, 5, 2,T1
 32, 3, 2, 5.33, 4, 6, 2, 2, 1, 2, 3, 5, 7,T2
 48, 3, 2.67, 5.67, 5, 7, 2, 3, 1, 2, 3, 5, 7,T1
 30, 3, 2.67, 5.33, 4, 7, 2, 3, 1, 3, 3, 6, 7,T1
 46, 2, 2.5, 5.5, 4, 7, 2, 3, 1, 3, 3, 5, 2,T1
 23, 3, 2.33, 5.67, 5, 7, 2, 3, 1, 4, 3, 7, 7,T1
 45, 2, 3, 5.5, 5, 6, 3, 3, 1, 4, 3, 5, 2,T1
 34, 2, 2.5, 6, 5, 7, 2, 3, 2, 3, 3, 7, 1,T1
 15, 3, 2.33, 6, 5, 7, 2, 3, 1, 2, 3, 7, 7,T1
 21, 3, 3, 5, 4, 6, 3, 3, 2, 3, 4, 7, 3,T2
 12, 3, 2.33, 5.33, 5, 6, 2, 3, 2, 3, 3, 7, 3,T1
 27, 3, 2.33, 4.33, 4, 5, 2, 3, 1, 3, 4, 7, 7,T1
 20, 3, 2.33, 4.67, 4, 5, 2, 3, 1, 2, 3, 5, 7,T1
 13, 3, 2.33, 5.33, 5, 6, 2, 3, 1, 2, 3, 5, 7,T1
 33, 3, 2, 5, 4, 6, 2, 2, 2, 4, 4, 6, 3,T1
 31, 2, 2.5, 5.5, 5, 6, 2, 3, 1, 2, 3, 7, 2,T1
 37, 3, 2.67, 5.67, 5, 6, 2, 3, 2, 4, 4, 7, 3,T1
 27, 3, 2.33, 5, 4, 6, 2, 3, 1, 4, 4, 7, 7,T1
 14, 3, 2.67, 5.67, 4, 7, 2, 3, 1, 3, 4, 5, 7,T2
 41, 3, 2.67, 4.67, 4, 5, 2, 3, 1, 4, 4, 7, 7,T1
 43, 3, 2.33, 5.67, 5, 7, 2, 3, 1, 4, 3, 7, 7,T1
 22, 3, 2, 5, 4, 6, 2, 2, 1, 3, 4, 5, 7,T1
 42, 3, 2.33, 5.33, 4, 7, 2, 3, 2, 4, 4, 6, 3,T2
 41, 3, 2.67, 5, 5, 5, 2, 3, 2, 3, 3, 6, 3,T3
 30, 3, 2.33, 5.67, 5, 7, 2, 3, 1, 4, 3, 7, 7,T1
